<?xml version="1.0" encoding="UTF-8"?>
<svg id="Layer_2" xmlns="http://www.w3.org/2000/svg" viewBox="0 0 65.67 102.34">
  <defs>
    <style>
      .cls-1 {
        fill: #e7542c;
      }

      .cls-2 {
        fill: #fff;
      }
    </style>
  </defs>
  <g id="_Коралловый" data-name="Коралловый">
    <g id="App">
      <g>
        <path d="M4.78,83.26c0-.33-.12-.59-.35-.76s-.66-.37-1.27-.56-1.09-.39-1.45-.58c-.97-.52-1.45-1.23-1.45-2.12,0-.46.13-.87.39-1.23s.63-.64,1.12-.85,1.03-.3,1.64-.3,1.15.11,1.63.33.85.53,1.11.93.4.86.4,1.37h-1.76c0-.39-.12-.69-.37-.91s-.59-.33-1.04-.33-.76.09-1,.27-.36.42-.36.72c0,.28.14.51.42.7s.69.36,1.23.53c1,.3,1.73.67,2.19,1.12s.69,1,.69,1.66c0,.74-.28,1.32-.84,1.74s-1.31.63-2.26.63c-.66,0-1.25-.12-1.79-.36s-.95-.57-1.23-.99-.42-.9-.42-1.45h1.76c0,.94.56,1.41,1.69,1.41.42,0,.74-.08.98-.25s.35-.41.35-.71Z"/>
        <path d="M9.21,79.16l.05.71c.45-.55,1.06-.83,1.82-.83.82,0,1.38.32,1.68.97.45-.64,1.08-.97,1.9-.97.69,0,1.2.2,1.54.6s.5,1,.5,1.81v4.05h-1.7v-4.04c0-.36-.07-.62-.21-.79s-.39-.25-.74-.25c-.51,0-.86.24-1.05.73v4.35s-1.69,0-1.69,0v-4.04c0-.37-.07-.63-.22-.8s-.39-.25-.74-.25c-.48,0-.83.2-1.04.6v4.48h-1.69v-6.34h1.59Z"/>
        <path d="M21.69,85.5c-.08-.15-.13-.34-.17-.57-.41.46-.94.69-1.6.69-.62,0-1.14-.18-1.54-.54s-.61-.81-.61-1.36c0-.67.25-1.19.75-1.55s1.22-.54,2.16-.54h.78v-.36c0-.29-.08-.53-.23-.7s-.39-.26-.71-.26c-.29,0-.51.07-.67.21s-.24.32-.24.56h-1.69c0-.37.11-.71.34-1.02s.55-.56.96-.74.88-.27,1.39-.27c.78,0,1.4.2,1.86.59s.69.94.69,1.66v2.75c0,.6.09,1.06.25,1.37v.1h-1.71ZM20.29,84.32c.25,0,.48-.06.69-.17s.37-.26.47-.45v-1.09h-.63c-.85,0-1.3.29-1.35.88v.1c0,.21.07.38.22.52s.35.21.61.21Z"/>
        <path d="M28.01,80.75c-.23-.03-.43-.05-.61-.05-.64,0-1.06.22-1.26.65v4.15h-1.69v-6.34h1.6l.05.76c.34-.58.81-.87,1.41-.87.19,0,.36.03.53.08l-.02,1.63Z"/>
        <path d="M31.14,77.6v1.56h1.08v1.24h-1.08v3.16c0,.23.04.4.13.5s.26.15.52.15c.19,0,.35-.01.5-.04v1.28c-.33.1-.67.15-1.03.15-1.19,0-1.79-.6-1.82-1.8v-3.42h-.93v-1.24h.93v-1.56h1.69Z"/>
        <path d="M38.88,82.39c0,.98-.22,1.76-.67,2.35s-1.04.88-1.8.88c-.64,0-1.16-.22-1.55-.67v2.99h-1.69v-8.78h1.57l.06.62c.41-.49.95-.74,1.61-.74.78,0,1.39.29,1.82.87s.65,1.38.65,2.39v.09ZM37.18,82.27c0-.59-.1-1.04-.31-1.37s-.51-.48-.91-.48c-.53,0-.9.2-1.1.61v2.6c.21.42.58.63,1.11.63.81,0,1.21-.66,1.21-1.99Z"/>
        <path d="M41.58,79.85c.45-.54,1.01-.81,1.69-.81,1.38,0,2.07.8,2.09,2.4v4.06h-1.69v-4.01c0-.36-.08-.63-.23-.81s-.42-.26-.78-.26c-.5,0-.86.19-1.08.57v4.51h-1.69v-9h1.69v3.35Z"/>
        <path d="M46.38,82.27c0-.63.12-1.19.36-1.68s.59-.87,1.05-1.14.98-.4,1.58-.4c.86,0,1.55.26,2.09.79s.84,1.23.91,2.13v.43c.01.97-.26,1.75-.8,2.34s-1.27.88-2.19.88-1.64-.29-2.19-.88-.82-1.38-.82-2.39v-.08ZM48.07,82.39c0,.6.11,1.06.34,1.38.23.32.55.48.97.48s.73-.16.96-.47c.23-.31.35-.82.35-1.51,0-.59-.12-1.05-.35-1.37s-.55-.49-.97-.49-.73.16-.96.48-.34.82-.34,1.5Z"/>
        <path d="M54.98,79.16l.05.73c.45-.57,1.06-.85,1.82-.85.67,0,1.17.2,1.5.59s.5.98.5,1.77v4.1h-1.69v-4.05c0-.36-.08-.62-.23-.78s-.42-.24-.78-.24c-.48,0-.83.2-1.07.61v4.47h-1.69v-6.34h1.59Z"/>
        <path d="M63.06,85.62c-.93,0-1.69-.29-2.27-.86s-.88-1.33-.88-2.28v-.16c0-.64.12-1.21.37-1.71s.59-.89,1.05-1.16.97-.41,1.54-.41c.87,0,1.55.27,2.05.82s.75,1.32.75,2.33v.69h-4.04c.05.41.22.75.5,1s.62.38,1.05.38c.65,0,1.16-.24,1.53-.71l.83.93c-.25.36-.6.64-1.03.84s-.91.3-1.44.3ZM62.87,80.41c-.34,0-.61.11-.82.34s-.34.55-.4.98h2.36v-.14c0-.38-.11-.67-.3-.87s-.47-.31-.83-.31Z"/>
        <path d="M8.74,99.9c-.08-.15-.13-.34-.17-.57-.41.46-.94.69-1.6.69-.62,0-1.14-.18-1.54-.54s-.61-.81-.61-1.36c0-.67.25-1.19.75-1.55s1.22-.54,2.16-.54h.78v-.36c0-.29-.08-.53-.23-.7s-.39-.26-.71-.26c-.29,0-.51.07-.67.21s-.24.32-.24.56h-1.69c0-.37.11-.71.34-1.02s.55-.56.96-.74.88-.27,1.39-.27c.78,0,1.4.2,1.86.59s.69.94.69,1.66v2.75c0,.6.09,1.06.25,1.37v.1h-1.71ZM7.34,98.72c.25,0,.48-.06.69-.17s.37-.26.47-.45v-1.09h-.63c-.85,0-1.3.29-1.35.88v.1c0,.21.07.38.22.52s.35.21.61.21Z"/>
        <path d="M17.2,96.79c0,.98-.22,1.76-.67,2.35s-1.04.88-1.8.88c-.64,0-1.16-.22-1.55-.67v2.99h-1.69v-8.78h1.57l.06.62c.41-.49.95-.74,1.61-.74.78,0,1.39.29,1.82.87s.65,1.38.65,2.39v.09ZM15.51,96.67c0-.59-.1-1.04-.31-1.37s-.51-.48-.91-.48c-.53,0-.9.2-1.1.61v2.6c.21.42.58.63,1.11.63.81,0,1.21-.66,1.21-1.99Z"/>
        <path d="M23.96,96.79c0,.98-.22,1.76-.67,2.35s-1.04.88-1.8.88c-.64,0-1.16-.22-1.55-.67v2.99h-1.69v-8.78h1.57l.06.62c.41-.49.95-.74,1.61-.74.78,0,1.39.29,1.82.87s.65,1.38.65,2.39v.09ZM22.27,96.67c0-.59-.1-1.04-.31-1.37s-.51-.48-.91-.48c-.53,0-.9.2-1.1.61v2.6c.21.42.58.63,1.11.63.81,0,1.21-.66,1.21-1.99Z"/>
        <path d="M26.79,99.9h-1.7v-9h1.7v9Z"/>
        <path d="M28.18,91.92c0-.25.08-.46.25-.63s.4-.25.69-.25.52.08.69.25.26.37.26.63-.09.47-.26.63-.4.25-.69.25-.51-.08-.69-.25-.26-.38-.26-.63ZM29.98,99.9h-1.7v-6.34h1.7v6.34Z"/>
        <path d="M34.01,98.65c.31,0,.57-.09.76-.26s.3-.4.3-.69h1.59c0,.43-.12.82-.35,1.18s-.55.63-.95.83-.84.3-1.33.3c-.91,0-1.62-.29-2.14-.86s-.79-1.37-.79-2.39v-.11c0-.98.26-1.76.78-2.34s1.23-.87,2.14-.87c.79,0,1.43.23,1.91.68s.72,1.05.73,1.8h-1.59c0-.33-.11-.6-.3-.8-.2-.21-.45-.31-.77-.31-.39,0-.69.14-.89.43-.2.29-.3.75-.3,1.4v.18c0,.65.1,1.12.3,1.41s.5.43.91.43Z"/>
        <path d="M41.3,99.9c-.08-.15-.13-.34-.17-.57-.41.46-.94.69-1.6.69-.62,0-1.14-.18-1.54-.54s-.61-.81-.61-1.36c0-.67.25-1.19.75-1.55s1.22-.54,2.16-.54h.78v-.36c0-.29-.08-.53-.23-.7s-.39-.26-.71-.26c-.29,0-.51.07-.67.21s-.24.32-.24.56h-1.69c0-.37.11-.71.34-1.02s.55-.56.96-.74.88-.27,1.39-.27c.78,0,1.4.2,1.86.59s.69.94.69,1.66v2.75c0,.6.09,1.06.25,1.37v.1h-1.71ZM39.9,98.72c.25,0,.48-.06.69-.17s.37-.26.47-.45v-1.09h-.63c-.85,0-1.3.29-1.35.88v.1c0,.21.07.38.22.52s.35.21.61.21Z"/>
        <path d="M46.09,92v1.56h1.08v1.24h-1.08v3.16c0,.23.04.4.13.5s.26.15.52.15c.19,0,.35-.01.5-.04v1.28c-.33.1-.67.15-1.03.15-1.19,0-1.79-.6-1.82-1.8v-3.42h-.93v-1.24h.93v-1.56h1.69Z"/>
        <path d="M48.11,91.92c0-.25.08-.46.25-.63s.4-.25.69-.25.52.08.69.25.26.37.26.63-.09.47-.26.63-.4.25-.69.25-.51-.08-.69-.25-.26-.38-.26-.63ZM49.9,99.9h-1.7v-6.34h1.7v6.34Z"/>
        <path d="M51.04,96.67c0-.63.12-1.19.36-1.68s.59-.87,1.05-1.14.98-.4,1.58-.4c.86,0,1.55.26,2.09.79s.84,1.23.91,2.13v.43c.01.97-.26,1.75-.8,2.34s-1.27.88-2.19.88-1.64-.29-2.19-.88-.82-1.38-.82-2.39v-.08ZM52.73,96.79c0,.6.11,1.06.34,1.38.23.32.55.48.97.48s.73-.16.96-.47c.23-.31.35-.82.35-1.51,0-.59-.12-1.05-.35-1.37s-.55-.49-.97-.49-.73.16-.96.48-.34.82-.34,1.5Z"/>
        <path d="M59.64,93.56l.05.73c.45-.57,1.06-.85,1.82-.85.67,0,1.17.2,1.5.59s.5.98.5,1.77v4.1h-1.69v-4.05c0-.36-.08-.62-.23-.78s-.42-.24-.78-.24c-.48,0-.83.2-1.07.61v4.47h-1.69v-6.34h1.59Z"/>
      </g>
      <g>
        <rect class="cls-2" x="15.53" y="1.5" width="37.5" height="69" rx="3.5" ry="3.5"/>
        <path class="cls-1" d="M49.53,0h-30.5c-2.76,0-5,2.24-5,5v62c0,2.76,2.24,5,5,5h30.5c2.76,0,5-2.24,5-5V5c0-2.76-2.24-5-5-5ZM51.53,67c0,1.1-.9,2-2,2h-30.5c-1.1,0-2-.9-2-2V5c0-1.1.9-2,2-2h12.31c.3,0,.56.2.63.49.26,1.04,1.19,1.8,2.3,1.8s2.05-.77,2.3-1.8c.07-.29.34-.49.63-.49h12.31c1.1,0,2,.9,2,2v62Z"/>
        <g>
          <rect class="cls-1" x="24.07" y="25.83" width="9.05" height="9.05" rx="1.44" ry="1.44"/>
          <rect class="cls-1" x="35.44" y="25.83" width="9.05" height="9.05" rx="1.44" ry="1.44"/>
          <rect class="cls-1" x="24.07" y="37.12" width="9.05" height="9.05" rx="1.44" ry="1.44"/>
          <rect class="cls-1" x="35.44" y="37.12" width="9.05" height="9.05" rx="1.44" ry="1.44"/>
        </g>
      </g>
    </g>
  </g>
</svg>