<?xml version="1.0" encoding="UTF-8"?>
<svg id="Layer_2" xmlns="http://www.w3.org/2000/svg" viewBox="0 0 72 72">
  <defs>
    <style>
      .cls-1 {
        fill: #e7542c;
      }

      .cls-2 {
        fill: #fff;
      }
    </style>
  </defs>
  <g id="_Коралловый" data-name="Коралловый">
    <g id="DataBase-пустая">
      <path class="cls-1" d="M36,0C16.12,0,0,4.03,0,9v54c0,4.97,16.12,9,36,9s36-4.03,36-9V9c0-4.97-16.12-9-36-9ZM12.67,5.22c6.39-1.43,14.68-2.22,23.33-2.22s16.94.79,23.33,2.22c6.9,1.54,8.99,3.2,9.53,3.78-.54.58-2.63,2.24-9.53,3.78-6.39,1.43-14.68,2.22-23.33,2.22s-16.94-.79-23.33-2.22c-6.9-1.54-8.99-3.2-9.53-3.78.54-.58,2.63-2.24,9.53-3.78ZM59.33,66.78c-6.39,1.43-14.68,2.22-23.33,2.22s-16.94-.79-23.33-2.22c-6.9-1.54-9.12-3.2-9.67-3.78V12.6c5.55,3.18,18.24,5.4,33,5.4s27.45-2.22,33-5.4v50.4c-.55.58-2.77,2.24-9.67,3.78Z"/>
      <path class="cls-2" d="M68.86,9c-.54.58-2.63,2.24-9.53,3.78-6.39,1.43-14.68,2.22-23.33,2.22s-16.94-.79-23.33-2.22c-6.9-1.54-8.99-3.2-9.53-3.78.54-.58,2.63-2.24,9.53-3.78,6.39-1.43,14.68-2.22,23.33-2.22s16.94.79,23.33,2.22c6.9,1.54,8.99,3.2,9.53,3.78Z"/>
      <path class="cls-2" d="M69,12.6v50.4c-.55.58-2.77,2.24-9.67,3.78-6.39,1.43-14.68,2.22-23.33,2.22s-16.94-.79-23.33-2.22c-6.9-1.54-9.12-3.2-9.67-3.78V12.6c5.55,3.18,18.24,5.4,33,5.4s27.45-2.22,33-5.4Z"/>
    </g>
  </g>
</svg>