<?xml version="1.0" encoding="UTF-8"?>
<svg id="Layer_2" xmlns="http://www.w3.org/2000/svg" viewBox="0 0 72 85.15">
  <defs>
    <style>
      .cls-1 {
        fill: #e7542c;
      }

      .cls-2 {
        fill: #fff;
      }

      .cls-3 {
        stroke-width: 3px;
      }

      .cls-3, .cls-4 {
        fill: none;
        stroke: #e7542c;
        stroke-miterlimit: 10;
      }

      .cls-4 {
        stroke-width: 3px;
      }
    </style>
  </defs>
  <g id="_Коралловый" data-name="Коралловый">
    <g id="Exposure-SCEF">
      <g>
        <path d="M26.91,6.41c0-.33-.12-.59-.35-.76s-.66-.37-1.27-.56-1.09-.39-1.45-.58c-.97-.52-1.45-1.23-1.45-2.12,0-.46.13-.87.39-1.23s.63-.64,1.12-.85,1.03-.3,1.64-.3,1.15.11,1.63.33.85.53,1.11.93.39.86.39,1.37h-1.76c0-.39-.12-.69-.37-.91s-.59-.33-1.04-.33-.76.09-1,.27-.36.42-.36.72c0,.28.14.51.42.7s.69.36,1.23.53c1,.3,1.73.67,2.19,1.12s.69,1,.69,1.66c0,.74-.28,1.32-.84,1.74s-1.31.63-2.26.63c-.66,0-1.25-.12-1.79-.36s-.95-.57-1.23-.99-.43-.9-.43-1.45h1.76c0,.94.56,1.41,1.69,1.41.42,0,.74-.08.98-.25s.35-.41.35-.71Z"/>
        <path d="M36.56,5.81c-.07.92-.4,1.64-1.02,2.17s-1.42.79-2.42.79c-1.09,0-1.95-.37-2.58-1.1s-.94-1.75-.94-3.03v-.52c0-.82.14-1.54.43-2.17s.7-1.1,1.24-1.44,1.16-.5,1.87-.5c.98,0,1.78.26,2.38.79s.95,1.27,1.04,2.22h-1.76c-.04-.55-.2-.95-.46-1.2s-.67-.37-1.21-.37c-.59,0-1.02.21-1.31.63s-.44,1.07-.45,1.95v.64c0,.92.14,1.6.42,2.02s.72.64,1.32.64c.54,0,.95-.12,1.22-.37s.42-.63.46-1.15h1.76Z"/>
        <path d="M42.85,4.95h-3.38v2.29h3.96v1.41h-5.72V.12h5.71v1.42h-3.95v2.03h3.38v1.38Z"/>
        <path d="M49.6,5.16h-3.38v3.49h-1.76V.12h5.55v1.42h-3.8v2.2h3.38v1.42Z"/>
      </g>
      <g>
        <g>
          <path class="cls-2" d="M7.09,14.65h57.83c3.08,0,5.59,2.5,5.59,5.59v57.83c0,3.08-2.5,5.59-5.59,5.59H7.09c-3.08,0-5.59-2.5-5.59-5.59V20.24c0-3.08,2.5-5.59,5.59-5.59Z"/>
          <path class="cls-1" d="M64.91,16.15c2.25,0,4.09,1.83,4.09,4.09v57.83c0,2.25-1.83,4.09-4.09,4.09H7.09c-2.25,0-4.09-1.83-4.09-4.09V20.24c0-2.25,1.83-4.09,4.09-4.09h57.83M64.91,13.15H7.09c-3.9,0-7.09,3.19-7.09,7.09v57.83c0,3.9,3.19,7.09,7.09,7.09h57.83c3.9,0,7.09-3.19,7.09-7.09V20.24c0-3.9-3.19-7.09-7.09-7.09h0Z"/>
        </g>
        <g>
          <path class="cls-1" d="M36,58.24c-5.01,0-9.09-4.08-9.09-9.09s4.08-9.09,9.09-9.09,9.09,4.08,9.09,9.09-4.08,9.09-9.09,9.09ZM36,43.06c-3.36,0-6.09,2.73-6.09,6.09s2.73,6.09,6.09,6.09,6.09-2.73,6.09-6.09-2.73-6.09-6.09-6.09Z"/>
          <g>
            <g id="_x3C_Radial_Repeat_x3E_">
              <circle class="cls-3" cx="16.26" cy="42.82" r="4.85"/>
            </g>
            <g id="_x3C_Radial_Repeat_x3E_-2" data-name="_x3C_Radial_Repeat_x3E_">
              <circle class="cls-3" cx="35.92" cy="28.42" r="4.85"/>
            </g>
            <g id="_x3C_Radial_Repeat_x3E_-3" data-name="_x3C_Radial_Repeat_x3E_">
              <circle class="cls-3" cx="55.69" cy="42.67" r="4.85"/>
            </g>
            <g id="_x3C_Radial_Repeat_x3E_-4" data-name="_x3C_Radial_Repeat_x3E_">
              <circle class="cls-3" cx="48.25" cy="65.87" r="4.85"/>
            </g>
            <g id="_x3C_Radial_Repeat_x3E_-5" data-name="_x3C_Radial_Repeat_x3E_">
              <circle class="cls-3" cx="23.88" cy="65.97" r="4.85"/>
            </g>
          </g>
          <g>
            <g id="_x3C_Radial_Repeat_x3E_-6" data-name="_x3C_Radial_Repeat_x3E_">
              <line class="cls-4" x1="36.01" y1="41.64" x2="36.03" y2="32.93"/>
            </g>
            <g id="_x3C_Radial_Repeat_x3E_-7" data-name="_x3C_Radial_Repeat_x3E_">
              <line class="cls-4" x1="43.14" y1="46.84" x2="51.43" y2="44.17"/>
            </g>
            <g id="_x3C_Radial_Repeat_x3E_-8" data-name="_x3C_Radial_Repeat_x3E_">
              <line class="cls-4" x1="40.4" y1="55.23" x2="45.51" y2="62.29"/>
            </g>
            <g id="_x3C_Radial_Repeat_x3E_-9" data-name="_x3C_Radial_Repeat_x3E_">
              <line class="cls-4" x1="31.58" y1="55.21" x2="26.44" y2="62.25"/>
            </g>
            <g id="_x3C_Radial_Repeat_x3E_-10" data-name="_x3C_Radial_Repeat_x3E_">
              <line class="cls-4" x1="28.86" y1="46.82" x2="20.59" y2="44.11"/>
            </g>
          </g>
        </g>
      </g>
    </g>
  </g>
</svg>