<?xml version="1.0" encoding="UTF-8"?>
<svg id="Layer_2" xmlns="http://www.w3.org/2000/svg" viewBox="0 0 72 85.15">
  <defs>
    <style>
      .cls-1 {
        fill: #e7542c;
      }

      .cls-2 {
        fill: #fff;
      }

      .cls-3 {
        fill: none;
        stroke: #e7542c;
        stroke-miterlimit: 10;
        stroke-width: 3px;
      }
    </style>
  </defs>
  <g id="_Коралловый" data-name="Коралловый">
    <g id="Gateway-SGW">
      <g>
        <path d="M28.16,6.41c0-.33-.12-.59-.35-.76s-.66-.37-1.27-.56-1.09-.39-1.45-.58c-.97-.52-1.45-1.23-1.45-2.12,0-.46.13-.87.39-1.23s.63-.64,1.12-.85,1.03-.3,1.64-.3,1.15.11,1.63.33.85.53,1.11.93.4.86.4,1.37h-1.76c0-.39-.12-.69-.37-.91s-.59-.33-1.04-.33-.76.09-1,.27-.36.42-.36.72c0,.28.14.51.42.7s.69.36,1.23.53c1,.3,1.73.67,2.19,1.12s.69,1,.69,1.66c0,.74-.28,1.32-.84,1.74s-1.31.63-2.26.63c-.66,0-1.25-.12-1.79-.36s-.95-.57-1.23-.99-.42-.9-.42-1.45h1.76c0,.94.56,1.41,1.69,1.41.42,0,.74-.08.98-.25s.35-.41.35-.71Z"/>
        <path d="M37.87,7.57c-.32.38-.76.67-1.34.88s-1.22.31-1.92.31c-.74,0-1.39-.16-1.94-.48s-.99-.79-1.29-1.4-.46-1.33-.47-2.16v-.58c0-.85.14-1.59.43-2.21s.7-1.1,1.24-1.43,1.17-.5,1.9-.5c1.01,0,1.8.24,2.37.72s.91,1.18,1.01,2.11h-1.71c-.08-.49-.25-.85-.52-1.07s-.64-.34-1.1-.34c-.6,0-1.05.22-1.37.67s-.47,1.12-.47,2v.54c0,.89.17,1.57.51,2.03s.84.69,1.49.69,1.13-.14,1.41-.42v-1.47h-1.6v-1.29h3.36v3.4Z"/>
        <path d="M45.93,6.19L47.08.12h1.75l-1.89,8.53h-1.77l-1.39-5.71-1.39,5.71h-1.77L38.73.12h1.75l1.15,6.06L43.05.12h1.49l1.4,6.07Z"/>
      </g>
      <g>
        <g>
          <g>
            <path class="cls-2" d="M7.09,14.65h57.83c3.08,0,5.59,2.5,5.59,5.59v57.83c0,3.08-2.5,5.59-5.59,5.59H7.09c-3.08,0-5.59-2.5-5.59-5.59V20.24c0-3.08,2.5-5.59,5.59-5.59Z"/>
            <path class="cls-1" d="M64.91,16.15c2.25,0,4.09,1.83,4.09,4.09v57.83c0,2.25-1.83,4.09-4.09,4.09H7.09c-2.25,0-4.09-1.83-4.09-4.09V20.23c0-2.25,1.83-4.09,4.09-4.09h57.83M64.91,13.15H7.09c-3.9,0-7.09,3.19-7.09,7.09v57.83c0,3.9,3.19,7.09,7.09,7.09h57.83c3.9,0,7.09-3.19,7.09-7.09V20.23c0-3.9-3.19-7.09-7.09-7.09h0Z"/>
          </g>
          <circle class="cls-3" cx="36" cy="49.15" r="15.44"/>
          <g>
            <line class="cls-3" x1="36" y1="64.59" x2="17.49" y2="64.59"/>
            <polygon class="cls-1" points="18.59 60.85 12.11 64.59 18.59 68.33 18.59 60.85"/>
          </g>
        </g>
        <g>
          <line class="cls-3" x1="36" y1="33.7" x2="54.51" y2="33.7"/>
          <polygon class="cls-1" points="53.41 37.44 59.89 33.7 53.41 29.96 53.41 37.44"/>
        </g>
      </g>
    </g>
  </g>
</svg>