<?xml version="1.0" encoding="UTF-8"?>
<svg id="Layer_2" xmlns="http://www.w3.org/2000/svg" viewBox="0 0 72 85.15">
  <defs>
    <style>
      .cls-1 {
        fill: #e7542c;
      }

      .cls-2 {
        fill: #fff;
      }

      .cls-3 {
        fill: none;
        stroke: #e7542c;
        stroke-miterlimit: 10;
        stroke-width: 3px;
      }
    </style>
  </defs>
  <g id="_Коралловый" data-name="Коралловый">
    <g id="Gateway-GTP_x5F_FW">
      <g>
        <path d="M21.81,7.57c-.32.38-.76.67-1.34.88s-1.22.31-1.92.31c-.74,0-1.39-.16-1.94-.48s-.99-.79-1.29-1.4-.46-1.33-.47-2.16v-.58c0-.85.14-1.59.43-2.21s.7-1.1,1.24-1.43,1.17-.5,1.9-.5c1.01,0,1.8.24,2.37.72s.91,1.18,1.01,2.11h-1.71c-.08-.49-.25-.85-.52-1.07s-.64-.34-1.1-.34c-.6,0-1.05.22-1.37.67s-.47,1.12-.47,2v.54c0,.89.17,1.57.51,2.03s.84.69,1.49.69,1.13-.14,1.41-.42v-1.47h-1.6v-1.29h3.36v3.4Z"/>
        <path d="M29.66,1.54h-2.61v7.11h-1.76V1.54h-2.58V.12h6.95v1.42Z"/>
        <path d="M32.42,5.64v3.01h-1.76V.12h3.33c.64,0,1.2.12,1.69.35s.86.57,1.12,1,.39.92.39,1.47c0,.84-.29,1.5-.86,1.98s-1.36.72-2.38.72h-1.54ZM32.42,4.22h1.57c.46,0,.82-.11,1.06-.33s.37-.53.37-.94-.12-.76-.37-1.01-.59-.39-1.02-.4h-1.61v2.68Z"/>
        <path d="M46.52,5.16h-3.38v3.49h-1.76V.12h5.55v1.42h-3.8v2.2h3.38v1.42Z"/>
        <path d="M54.61,6.19L55.76.12h1.75l-1.89,8.53h-1.77l-1.39-5.71-1.39,5.71h-1.77L47.41.12h1.75l1.15,6.06L51.72.12h1.49l1.4,6.07Z"/>
      </g>
      <g>
        <g>
          <g>
            <path class="cls-2" d="M7.09,14.65h57.83c3.08,0,5.59,2.5,5.59,5.59v57.83c0,3.08-2.5,5.59-5.59,5.59H7.09c-3.08,0-5.59-2.5-5.59-5.59V20.23c0-3.08,2.5-5.59,5.59-5.59Z"/>
            <path class="cls-1" d="M64.91,16.15c2.25,0,4.09,1.83,4.09,4.09v57.83c0,2.25-1.83,4.09-4.09,4.09H7.09c-2.25,0-4.09-1.83-4.09-4.09V20.23c0-2.25,1.83-4.09,4.09-4.09h57.83M64.91,13.15H7.09c-3.9,0-7.09,3.19-7.09,7.09v57.83c0,3.9,3.19,7.09,7.09,7.09h57.83c3.9,0,7.09-3.19,7.09-7.09V20.23c0-3.9-3.19-7.09-7.09-7.09h0Z"/>
          </g>
          <circle class="cls-3" cx="36" cy="49.15" r="15.44"/>
          <g>
            <line class="cls-3" x1="36" y1="64.59" x2="17.49" y2="64.59"/>
            <polygon class="cls-1" points="18.59 60.85 12.11 64.59 18.59 68.33 18.59 60.85"/>
          </g>
        </g>
        <g>
          <line class="cls-3" x1="36" y1="33.7" x2="54.51" y2="33.7"/>
          <polygon class="cls-1" points="53.41 37.44 59.89 33.7 53.41 29.96 53.41 37.44"/>
        </g>
      </g>
    </g>
  </g>
</svg>