<?xml version="1.0" encoding="UTF-8"?>
<svg id="Layer_2" xmlns="http://www.w3.org/2000/svg" viewBox="0 0 72.5 67.19">
  <defs>
    <style>
      .cls-1 {
        fill: #e7542c;
      }

      .cls-2 {
        fill: #fff;
      }
    </style>
  </defs>
  <g id="_Коралловый" data-name="Коралловый">
    <g id="Laptop">
      <g>
        <path class="cls-1" d="M70.75,42.25c.82,0,1.5.67,1.5,1.5,0,4.12-3.38,7.5-7.5,7.5H7.75c-4.12,0-7.5-3.38-7.5-7.5,0-.83.68-1.5,1.5-1.5h3.83c-.53-.9-.83-1.88-.83-3V6.25C4.75,2.87,7.37.25,10.75.25h51c3.38,0,6,2.62,6,6v33c0,1.12-.3,2.1-.82,3h3.82ZM69.02,45.25H3.48c.67,1.72,2.32,3,4.27,3h57c2.02,0,3.67-1.28,4.27-3ZM64.75,39.25V6.25c0-1.73-1.27-3-3-3H10.75c-1.73,0-3,1.27-3,3v33c0,1.72,1.27,3,3,3h51c1.73,0,3-1.28,3-3Z"/>
        <path class="cls-2" d="M3.48,45.25h65.54c-.6,1.72-2.25,3-4.27,3H7.75c-1.95,0-3.6-1.28-4.27-3Z"/>
        <path class="cls-2" d="M64.75,6.25v33c0,1.72-1.27,3-3,3H10.75c-1.73,0-3-1.28-3-3V6.25c0-1.73,1.27-3,3-3h51c1.73,0,3,1.27,3,3Z"/>
      </g>
    </g>
  </g>
</svg>