<?xml version="1.0" encoding="UTF-8"?>
<svg id="Layer_2" xmlns="http://www.w3.org/2000/svg" viewBox="0 0 75.04 90">
  <defs>
    <style>
      .cls-1 {
        fill: #e7542c;
      }

      .cls-2 {
        fill: #fff;
      }

      .cls-3 {
        fill: none;
        stroke: #e7542c;
        stroke-miterlimit: 10;
        stroke-width: 3px;
      }
    </style>
  </defs>
  <g id="_Коралловый" data-name="Коралловый">
    <g id="PublicAccess">
      <g>
        <path d="M1.76,5.99v3.01H0V.47h3.33c.64,0,1.2.12,1.69.35s.86.57,1.12,1,.39.92.39,1.47c0,.84-.29,1.5-.86,1.98s-1.36.72-2.38.72h-1.54ZM1.76,4.57h1.57c.46,0,.82-.11,1.06-.33s.37-.53.37-.94-.12-.76-.37-1.01-.59-.39-1.02-.4h-1.61v2.68Z"/>
        <path d="M11.43,8.36c-.42.51-1,.76-1.73.76-.68,0-1.2-.2-1.56-.59s-.54-.96-.55-1.72V2.66h1.69v4.1c0,.66.3.99.9.99s.97-.2,1.18-.6V2.66h1.7v6.34h-1.59l-.05-.64Z"/>
        <path d="M20.06,5.89c0,1.02-.22,1.81-.65,2.38s-1.04.85-1.82.85c-.69,0-1.24-.26-1.65-.79l-.08.67h-1.52V0h1.69v3.23c.39-.46.9-.69,1.54-.69.77,0,1.38.28,1.82.85s.66,1.37.66,2.4v.09ZM18.36,5.77c0-.64-.1-1.11-.3-1.4s-.51-.44-.91-.44c-.54,0-.91.22-1.11.66v2.5c.21.45.58.67,1.12.67s.91-.27,1.08-.81c.08-.26.12-.65.12-1.18Z"/>
        <path d="M22.89,9h-1.7V0h1.7v9Z"/>
        <path d="M24.27,1.02c0-.25.08-.46.25-.63s.4-.25.69-.25.52.08.69.25.26.37.26.63-.09.47-.26.63-.4.25-.69.25-.51-.08-.69-.25-.26-.38-.26-.63ZM26.07,9h-1.7V2.66h1.7v6.34Z"/>
        <path d="M30.1,7.75c.31,0,.57-.09.76-.26s.3-.4.3-.69h1.59c0,.43-.12.82-.35,1.18s-.55.63-.95.83-.84.3-1.33.3c-.91,0-1.62-.29-2.14-.86s-.79-1.37-.79-2.39v-.11c0-.98.26-1.76.78-2.34s1.23-.87,2.14-.87c.79,0,1.43.23,1.91.68s.72,1.05.73,1.8h-1.59c0-.33-.11-.6-.3-.8-.2-.21-.45-.31-.77-.31-.39,0-.69.14-.89.43-.2.29-.3.75-.3,1.4v.18c0,.65.1,1.12.3,1.41s.5.43.91.43Z"/>
        <path d="M41.64,7.24h-3.08l-.59,1.76h-1.87L39.28.47h1.63l3.19,8.53h-1.87l-.59-1.76ZM39.03,5.82h2.13l-1.07-3.19-1.06,3.19Z"/>
        <path d="M47.42,7.75c.31,0,.57-.09.76-.26s.3-.4.3-.69h1.59c0,.43-.12.82-.35,1.18s-.55.63-.95.83-.84.3-1.33.3c-.91,0-1.62-.29-2.14-.86s-.79-1.37-.79-2.39v-.11c0-.98.26-1.76.78-2.34s1.23-.87,2.14-.87c.79,0,1.43.23,1.91.68s.72,1.05.73,1.8h-1.59c0-.33-.11-.6-.3-.8-.2-.21-.45-.31-.77-.31-.39,0-.69.14-.89.43-.2.29-.3.75-.3,1.4v.18c0,.65.1,1.12.3,1.41s.5.43.91.43Z"/>
        <path d="M53.68,7.75c.31,0,.57-.09.76-.26s.3-.4.3-.69h1.59c0,.43-.12.82-.35,1.18s-.55.63-.95.83-.84.3-1.33.3c-.91,0-1.62-.29-2.14-.86s-.79-1.37-.79-2.39v-.11c0-.98.26-1.76.78-2.34s1.23-.87,2.14-.87c.79,0,1.43.23,1.91.68s.72,1.05.73,1.8h-1.59c0-.33-.11-.6-.3-.8-.2-.21-.45-.31-.77-.31-.39,0-.69.14-.89.43-.2.29-.3.75-.3,1.4v.18c0,.65.1,1.12.3,1.41s.5.43.91.43Z"/>
        <path d="M60.22,9.12c-.93,0-1.69-.29-2.27-.86s-.88-1.33-.88-2.28v-.16c0-.64.12-1.21.37-1.71s.59-.89,1.05-1.16.97-.41,1.54-.41c.87,0,1.55.27,2.05.82s.75,1.32.75,2.33v.69h-4.04c.05.41.22.75.5,1s.62.38,1.05.38c.65,0,1.16-.24,1.53-.71l.83.93c-.25.36-.6.64-1.03.84s-.91.3-1.44.3ZM60.02,3.91c-.34,0-.61.11-.82.34s-.34.55-.4.98h2.36v-.14c0-.38-.11-.67-.3-.87s-.47-.31-.83-.31Z"/>
        <path d="M67.22,7.25c0-.21-.1-.37-.31-.49s-.53-.23-.99-.32c-1.51-.32-2.26-.96-2.26-1.92,0-.56.23-1.03.7-1.41s1.08-.57,1.83-.57c.8,0,1.45.19,1.93.57s.72.87.72,1.48h-1.69c0-.24-.08-.44-.23-.6s-.4-.24-.73-.24c-.29,0-.51.06-.66.19s-.23.29-.23.49c0,.19.09.34.27.45s.48.21.9.3.78.18,1.07.28c.89.33,1.34.9,1.34,1.71,0,.58-.25,1.05-.74,1.4s-1.14.54-1.92.54c-.53,0-1-.09-1.42-.28s-.74-.45-.97-.78-.35-.69-.35-1.07h1.61c.02.3.13.53.33.69s.48.24.83.24c.32,0,.57-.06.74-.18s.25-.28.25-.48Z"/>
        <path d="M73.39,7.25c0-.21-.1-.37-.31-.49s-.53-.23-.99-.32c-1.51-.32-2.26-.96-2.26-1.92,0-.56.23-1.03.7-1.41s1.08-.57,1.83-.57c.8,0,1.45.19,1.93.57s.72.87.72,1.48h-1.69c0-.24-.08-.44-.23-.6s-.4-.24-.73-.24c-.29,0-.51.06-.66.19s-.23.29-.23.49c0,.19.09.34.27.45s.48.21.9.3.78.18,1.07.28c.89.33,1.34.9,1.34,1.71,0,.58-.25,1.05-.74,1.4s-1.14.54-1.92.54c-.53,0-1-.09-1.42-.28s-.74-.45-.97-.78-.35-.69-.35-1.07h1.61c.02.3.13.53.33.69s.48.24.83.24c.32,0,.57-.06.74-.18s.25-.28.25-.48Z"/>
      </g>
      <g>
        <g>
          <path class="cls-2" d="M8.44,19.5h57.83c3.08,0,5.59,2.5,5.59,5.59v57.83c0,3.08-2.5,5.59-5.59,5.59H8.44c-3.08,0-5.59-2.5-5.59-5.59V25.09c0-3.08,2.5-5.59,5.59-5.59Z"/>
          <path class="cls-1" d="M66.27,21c2.25,0,4.09,1.83,4.09,4.09v57.83c0,2.25-1.83,4.09-4.09,4.09H8.44c-2.25,0-4.09-1.83-4.09-4.09V25.09c0-2.25,1.83-4.09,4.09-4.09h57.83M66.27,18H8.44c-3.9,0-7.09,3.19-7.09,7.09v57.83c0,3.9,3.19,7.09,7.09,7.09h57.83c3.9,0,7.09-3.19,7.09-7.09V25.09c0-3.9-3.19-7.09-7.09-7.09h0Z"/>
        </g>
        <g>
          <path class="cls-1" d="M37.36,32.23c12,0,21.77,9.76,21.77,21.77s-9.76,21.77-21.77,21.77-21.77-9.76-21.77-21.77,9.76-21.77,21.77-21.77M37.36,29.23c-13.68,0-24.77,11.09-24.77,24.77s11.09,24.77,24.77,24.77,24.77-11.09,24.77-24.77-11.09-24.77-24.77-24.77h0Z"/>
          <line class="cls-3" x1="37.36" y1="30.6" x2="37.36" y2="76.53"/>
          <line class="cls-3" x1="60.32" y1="54" x2="14.39" y2="54"/>
          <line class="cls-3" x1="37.36" y1="30.6" x2="37.36" y2="52.5"/>
          <path class="cls-3" d="M18.74,39.75c4.45,1.36,10.77,2.78,18.43,2.88,7.98.11,14.57-1.26,19.14-2.57"/>
          <path class="cls-3" d="M56.31,68.5c-4.45-1.36-10.77-2.78-18.43-2.88-7.98-.11-14.57,1.26-19.14,2.57"/>
          <path class="cls-3" d="M37.08,30.6c-1.38,1.14-10.81,8.93-10.97,22.89-.16,14.14,9.52,22.66,10.85,23.8"/>
          <path class="cls-3" d="M37.68,30.66c1.38,1.14,10.81,8.93,10.97,22.89.16,14.14-9.52,22.66-10.85,23.8"/>
        </g>
      </g>
    </g>
  </g>
</svg>