<?xml version="1.0" encoding="UTF-8"?>
<svg id="Layer_2" data-name="Layer 2" xmlns="http://www.w3.org/2000/svg" viewBox="0 0 72 85.15">
  <defs>
    <style>
      .cls-1 {
        fill: #e7542c;
      }

      .cls-2 {
        fill: #fff;
      }
    </style>
  </defs>
  <g id="_Оригинал" data-name="Оригинал">
    <g>
      <g>
        <rect class="cls-2" y="13.15" width="72" height="72" rx="7.09" ry="7.09"/>
        <path class="cls-1" d="M64.91,16.15c2.25,0,4.09,1.83,4.09,4.09v57.83c0,2.25-1.83,4.09-4.09,4.09H7.09c-2.25,0-4.09-1.83-4.09-4.09V20.23c0-2.25,1.83-4.09,4.09-4.09h57.83M64.91,13.15H7.09C3.19,13.15,0,16.34,0,20.23v57.83C0,81.96,3.19,85.15,7.09,85.15h57.83c3.9,0,7.09-3.19,7.09-7.09V20.23c0-3.9-3.19-7.09-7.09-7.09h0Z"/>
      </g>
      <path class="cls-1" d="M56.96,73.74H15.04c-2,0-3.63-1.63-3.63-3.63V28.19c0-2,1.63-3.63,3.63-3.63h41.92c2,0,3.63,1.63,3.63,3.63v41.92c0,2-1.63,3.63-3.63,3.63ZM15.04,27.56c-.35,0-.63.28-.63.63v41.92c0,.35.28.63.63.63h41.92c.35,0,.63-.28.63-.63V28.19c0-.35-.28-.63-.63-.63H15.04Z"/>
      <g>
        <path d="M9.58,5.53h-1.4v3.12h-1.76V.12h3.17c1.01,0,1.79.22,2.33.67s.82,1.08.82,1.9c0,.58-.13,1.07-.38,1.46s-.63.7-1.15.93l1.85,3.49v.08h-1.89l-1.6-3.12ZM8.18,4.1h1.42c.44,0,.78-.11,1.03-.34s.36-.53.36-.93-.11-.72-.34-.95-.58-.35-1.05-.35h-1.41v2.56Z"/>
        <path d="M18.89,6.89h-3.08l-.59,1.76h-1.87L16.53.12h1.63l3.19,8.53h-1.87l-.59-1.76ZM16.29,5.47h2.13l-1.07-3.19-1.06,3.19Z"/>
        <path d="M22.15,8.65V.12h2.62c.75,0,1.42.17,2.01.51s1.05.82,1.39,1.44.5,1.33.5,2.12v.39c0,.79-.16,1.5-.49,2.12s-.79,1.1-1.38,1.44-1.26.51-2.01.52h-2.64ZM23.91,1.54v5.7h.85c.69,0,1.21-.22,1.58-.67s.55-1.09.56-1.93v-.45c0-.87-.18-1.52-.54-1.97s-.88-.67-1.58-.67h-.87Z"/>
        <path d="M31.82,8.65h-1.76V.12h1.76v8.53Z"/>
        <path d="M39.9.12v5.62c0,.93-.29,1.67-.88,2.21s-1.38.81-2.39.81-1.79-.26-2.37-.79-.88-1.25-.9-2.17V.12h1.76v5.63c0,.56.13.97.4,1.22s.64.38,1.11.38c.99,0,1.49-.52,1.51-1.56V.12h1.76Z"/>
        <path d="M45.77,6.41c0-.33-.12-.59-.35-.76s-.66-.37-1.27-.56-1.09-.39-1.45-.58c-.97-.52-1.45-1.23-1.45-2.12,0-.46.13-.87.39-1.23s.63-.64,1.12-.85,1.03-.3,1.64-.3,1.15.11,1.63.33.85.53,1.11.93.4.86.4,1.37h-1.76c0-.39-.12-.69-.37-.91s-.59-.33-1.04-.33-.76.09-1,.27-.36.42-.36.72c0,.28.14.51.42.7s.69.36,1.23.53c1,.3,1.73.67,2.19,1.12s.69,1,.69,1.66c0,.74-.28,1.32-.84,1.74s-1.31.63-2.26.63c-.66,0-1.25-.12-1.79-.36s-.95-.57-1.23-.99-.42-.9-.42-1.45h1.76c0,.94.56,1.41,1.69,1.41.42,0,.74-.08.98-.25s.35-.41.35-.71Z"/>
        <path d="M53.47,7.24h3.73v1.41h-5.49V.12h1.76v7.12Z"/>
        <path d="M58.21,8.65V.12h2.99c1.04,0,1.82.2,2.36.59s.8.98.8,1.74c0,.42-.11.79-.32,1.1s-.51.55-.9.7c.44.11.78.33,1.03.66s.38.74.38,1.22c0,.82-.26,1.44-.79,1.86s-1.27.64-2.24.64h-3.32ZM59.97,3.69h1.3c.89-.02,1.33-.37,1.33-1.06,0-.39-.11-.67-.34-.83s-.58-.25-1.06-.25h-1.23v2.15ZM59.97,4.93v2.3h1.51c.41,0,.74-.1.97-.3s.35-.47.35-.82c0-.78-.4-1.18-1.21-1.19h-1.61Z"/>
      </g>
      <path class="cls-1" d="M46.62,56.91c-.83,0-1.49.68-1.49,1.51l.02,2.5-10.28-10.28h12.91s-1.78,1.74-1.78,1.74c-.59.58-.6,1.53-.02,2.12.29.3.68.45,1.07.45s.76-.14,1.05-.43l5.49-5.4-5.49-5.39c-.59-.58-1.54-.57-2.12.02-.58.59-.57,1.54.02,2.12l1.79,1.75h-12.92s10.27-10.27,10.27-10.27l-.02,2.5c0,.83.66,1.51,1.49,1.51h.01c.82,0,1.49-.66,1.5-1.49l.06-7.7-7.69.07c-.83,0-1.49.69-1.49,1.51,0,.83.71,1.5,1.51,1.49l2.5-.02-12.39,12.39h-5.34c-.52-.89-1.48-1.5-2.58-1.5-1.66,0-3,1.34-3,3s1.34,3,3,3c1.11,0,2.06-.61,2.58-1.5h5.33l12.4,12.4-2.5-.02c-.83.03-1.51.66-1.51,1.49,0,.83.66,1.51,1.49,1.51l7.69.07-.06-7.7c0-.83-.73-1.51-1.51-1.49Z"/>
    </g>
  </g>
</svg>