<?xml version="1.0" encoding="UTF-8"?>
<svg id="Layer_2" xmlns="http://www.w3.org/2000/svg" viewBox="0 0 72 85.03">
  <defs>
    <style>
      .cls-1 {
        stroke-linecap: round;
      }

      .cls-1, .cls-2 {
        fill: none;
        stroke: #e7542c;
        stroke-miterlimit: 10;
        stroke-width: 3px;
      }

      .cls-3 {
        fill: #e7542c;
      }

      .cls-4 {
        fill: #fff;
      }
    </style>
  </defs>
  <g id="_Коралловый" data-name="Коралловый">
    <g id="Router-DRA">
      <g>
        <path d="M25,8.53V0h2.62c.75,0,1.42.17,2.01.51s1.05.82,1.39,1.44.5,1.33.5,2.12v.39c0,.79-.16,1.5-.49,2.12s-.79,1.1-1.38,1.44-1.26.51-2.01.52h-2.64ZM26.75,1.42v5.7h.85c.69,0,1.21-.22,1.58-.67s.55-1.09.56-1.93v-.45c0-.87-.18-1.52-.54-1.97s-.88-.67-1.58-.67h-.87Z"/>
        <path d="M35.95,5.41h-1.4v3.12h-1.76V0h3.17c1.01,0,1.79.22,2.33.67s.82,1.08.82,1.9c0,.58-.13,1.07-.38,1.46s-.63.7-1.15.93l1.85,3.49v.08h-1.89l-1.6-3.12ZM34.55,3.98h1.42c.44,0,.78-.11,1.03-.34s.36-.53.36-.93-.11-.72-.34-.95-.58-.35-1.05-.35h-1.41v2.56Z"/>
        <path d="M45.27,6.77h-3.08l-.59,1.76h-1.87l3.18-8.53h1.63l3.19,8.53h-1.87l-.59-1.76ZM42.66,5.35h2.13l-1.07-3.19-1.06,3.19Z"/>
      </g>
      <g>
        <path class="cls-4" d="M7.09,14.53h57.83c3.08,0,5.59,2.5,5.59,5.59v57.83c0,3.08-2.5,5.59-5.59,5.59H7.09c-3.08,0-5.59-2.5-5.59-5.59V20.12c0-3.08,2.5-5.59,5.59-5.59Z"/>
        <path class="cls-3" d="M64.91,16.03c2.25,0,4.09,1.83,4.09,4.09v57.83c0,2.25-1.83,4.09-4.09,4.09H7.09c-2.25,0-4.09-1.83-4.09-4.09V20.12c0-2.25,1.83-4.09,4.09-4.09h57.83M64.91,13.03H7.09c-3.9,0-7.09,3.19-7.09,7.09v57.83c0,3.9,3.19,7.09,7.09,7.09h57.83c3.9,0,7.09-3.19,7.09-7.09V20.12c0-3.9-3.19-7.09-7.09-7.09h0Z"/>
      </g>
      <circle class="cls-2" cx="36" cy="49.03" r="22.24"/>
      <line class="cls-1" x1="20.38" y1="49.03" x2="29.18" y2="49.03"/>
      <polyline class="cls-1" points="25.6 44.78 29.92 49.03 25.6 53.28"/>
      <line class="cls-1" x1="51.62" y1="49.04" x2="42.82" y2="49.04"/>
      <polyline class="cls-1" points="46.4 53.28 42.07 49.04 46.4 44.78"/>
      <line class="cls-1" x1="36.01" y1="55.11" x2="36.01" y2="63.91"/>
      <polyline class="cls-1" points="40.25 60.33 36.01 64.65 31.75 60.33"/>
      <line class="cls-1" x1="35.99" y1="42.96" x2="35.99" y2="34.15"/>
      <polyline class="cls-1" points="31.75 37.73 35.99 33.41 40.25 37.73"/>
    </g>
  </g>
</svg>