<?xml version="1.0" encoding="UTF-8"?>
<svg id="Layer_2" xmlns="http://www.w3.org/2000/svg" viewBox="0 0 71.89 71.97">
  <defs>
    <style>
      .cls-1 {
        fill: #e7542c;
      }

      .cls-2 {
        fill: #fff;
      }
    </style>
  </defs>
  <g id="_Коралловый" data-name="Коралловый">
    <g id="Server-DNS">
      <g>
        <polygon class="cls-2" points="1.92 69.88 1.92 27.21 11.81 1.54 60.03 1.54 70.25 27.43 70.25 69.88 1.92 69.88"/>
        <path class="cls-1" d="M71.89,39.92v-12.63c0-.05,0-.1-.02-.14.01-.05,0-.1-.01-.14-.02-.09-.05-.18-.08-.27l-.02-.04L61.78.96c-.22-.58-.77-.96-1.39-.96H11.5c-.62,0-1.18.38-1.4.96L.1,26.74c-.03.08-.06.17-.07.25-.02.09-.03.19-.03.29v12.64c0,.58.33,1.08.81,1.32-.48.24-.81.74-.81,1.32v12.63c0,.58.33,1.08.81,1.32-.48.24-.81.74-.81,1.32v12.64c0,.82.67,1.5,1.5,1.5h68.89c.82,0,1.5-.68,1.5-1.5v-12.64c0-.58-.33-1.08-.81-1.32.48-.24.81-.74.81-1.32v-12.63c0-.58-.33-1.08-.81-1.32.48-.24.81-.74.81-1.32ZM12.52,3h46.84l8.84,22.79H3.69L12.52,3ZM3,28.77h65.89v26.31H3v-26.31ZM68.89,69.09H3v-11.01h65.89v11.01Z"/>
        <circle class="cls-1" cx="63.4" cy="63.59" r="2.88"/>
        <circle class="cls-1" cx="55.37" cy="63.59" r="2.88"/>
        <circle class="cls-1" cx="47.34" cy="63.59" r="2.88"/>
      </g>
      <g>
        <path d="M24.88,46.43v-8.53h2.62c.75,0,1.42.17,2.01.51s1.05.82,1.39,1.44.5,1.33.5,2.12v.39c0,.79-.16,1.5-.49,2.12s-.79,1.1-1.38,1.44-1.26.51-2.01.52h-2.64ZM26.64,39.32v5.7h.85c.69,0,1.21-.22,1.58-.67s.55-1.09.56-1.93v-.45c0-.87-.18-1.52-.54-1.97s-.88-.67-1.58-.67h-.87Z"/>
        <path d="M39.62,46.43h-1.76l-3.42-5.61v5.61h-1.76v-8.53h1.76l3.43,5.62v-5.62h1.75v8.53Z"/>
        <path d="M45.58,44.19c0-.33-.12-.59-.35-.76s-.66-.37-1.27-.56-1.09-.39-1.45-.58c-.97-.52-1.45-1.23-1.45-2.12,0-.46.13-.87.39-1.23s.63-.64,1.12-.85,1.03-.3,1.64-.3,1.15.11,1.63.33.85.53,1.11.93.4.86.4,1.37h-1.76c0-.39-.12-.69-.37-.91s-.59-.33-1.04-.33-.76.09-1,.27-.36.42-.36.72c0,.28.14.51.42.7s.69.36,1.23.53c1,.3,1.73.67,2.19,1.12s.69,1,.69,1.66c0,.74-.28,1.32-.84,1.74s-1.31.63-2.26.63c-.66,0-1.25-.12-1.79-.36s-.95-.57-1.23-.99-.42-.9-.42-1.45h1.76c0,.94.56,1.41,1.69,1.41.42,0,.74-.08.98-.25s.35-.41.35-.71Z"/>
      </g>
    </g>
  </g>
</svg>