<?xml version="1.0" encoding="UTF-8"?>
<svg id="Layer_2" xmlns="http://www.w3.org/2000/svg" viewBox="0 0 71.89 71.97">
  <defs>
    <style>
      .cls-1 {
        fill: #e7542c;
      }

      .cls-2 {
        fill: #fff;
      }
    </style>
  </defs>
  <g id="_Коралловый" data-name="Коралловый">
    <g id="Server-AMF">
      <g>
        <polygon class="cls-2" points="1.92 69.88 1.92 27.21 11.81 1.54 60.03 1.54 70.25 27.43 70.25 69.88 1.92 69.88"/>
        <path class="cls-1" d="M71.89,39.92v-12.63c0-.05,0-.1-.02-.14.01-.05,0-.1-.01-.14-.02-.09-.05-.18-.08-.27l-.02-.04L61.78.96c-.22-.58-.77-.96-1.39-.96H11.5c-.62,0-1.18.38-1.4.96L.1,26.74c-.03.08-.06.17-.07.25-.02.09-.03.19-.03.29v12.64c0,.58.33,1.08.81,1.32-.48.24-.81.74-.81,1.32v12.63c0,.58.33,1.08.81,1.32-.48.24-.81.74-.81,1.32v12.64c0,.82.67,1.5,1.5,1.5h68.89c.82,0,1.5-.68,1.5-1.5v-12.64c0-.58-.33-1.08-.81-1.32.48-.24.81-.74.81-1.32v-12.63c0-.58-.33-1.08-.81-1.32.48-.24.81-.74.81-1.32ZM12.52,3h46.84l8.84,22.79H3.69L12.52,3ZM3,28.77h65.89v26.31H3v-26.31ZM68.89,69.09H3v-11.01h65.89v11.01Z"/>
        <circle class="cls-1" cx="63.4" cy="63.59" r="2.88"/>
        <circle class="cls-1" cx="55.37" cy="63.59" r="2.88"/>
        <circle class="cls-1" cx="47.34" cy="63.59" r="2.88"/>
      </g>
      <g>
        <path d="M28.94,44.67h-3.08l-.59,1.76h-1.87l3.18-8.53h1.63l3.19,8.53h-1.87l-.59-1.76ZM26.34,43.24h2.13l-1.07-3.19-1.06,3.19Z"/>
        <path d="M34.5,37.89l2.19,6.19,2.18-6.19h2.31v8.53h-1.76v-2.33l.18-4.03-2.3,6.36h-1.21l-2.3-6.35.18,4.02v2.33h-1.76v-8.53h2.3Z"/>
        <path d="M47.85,42.94h-3.38v3.49h-1.76v-8.53h5.55v1.42h-3.8v2.2h3.38v1.42Z"/>
      </g>
    </g>
  </g>
</svg>