<?xml version="1.0" encoding="UTF-8"?>
<svg id="Layer_2" xmlns="http://www.w3.org/2000/svg" viewBox="0 0 60.95 85.62">
  <defs>
    <style>
      .cls-1 {
        fill: #e7542c;
      }
    </style>
  </defs>
  <g id="_Коралловый" data-name="Коралловый">
    <g id="_БС-GERAN" data-name="БС-GERAN">
      <g>
        <path class="cls-1" d="M51.06,70.15c-.59-1.86-1.27-3.73-1.86-5.38l-.8-2.21-3.04-8.6c-3.75-10.61-7.49-21.24-11.25-31.84-.27-.73-.51-1.85.38-3.09.67-.95.9-2.08.66-3.38-.34-1.93-1.82-3.47-3.67-3.84-.33-.07-.66-.1-1-.1-1.64,0-3.12.81-4.05,2.22-1.02,1.55-.96,3.7.15,5.37.39.59.65,1.59.34,2.48-3.02,8.61-6.06,17.24-9.11,25.85,0,0-6.49,18.38-8.01,22.71-.29.81-.21,1.34.26,1.81.34.35.68.5,1.12.5.19,0,.43-.03.67-.09,3.7-.97,7.4-1.92,11.1-2.87l22.46-5.79.62,1.51c.09.21.16.39.22.56l.81,2.3c.4,1.12.79,2.24,1.19,3.34.24.64.84,1.07,1.48,1.07h.05c.62-.02,1.21-.42,1.33-.88.11-.5.09-1.15-.06-1.64ZM28.89,25.71l.8-.9h2.05l3.53,9.94c.29.79.57,1.57.81,2.37.28.89-.07,2.15-1.02,2.65-2.83,1.48-5.66,2.94-8.5,4.39l-1.12.57-.43.17-2.88-.02,6.77-19.18ZM37.68,62.63l-23.99,6.18,5.87-16.69,17.68,7.61.92.84-.47,2.05ZM22.32,49.9l15.46-7.97,6.06,17.18-21.52-9.21Z"/>
        <path class="cls-1" d="M51.06,70.15c-.59-1.86-1.27-3.73-1.86-5.38l-.8-2.21-3.04-8.6c-3.75-10.61-7.49-21.24-11.25-31.84-.27-.73-.51-1.85.38-3.09.67-.95.9-2.08.66-3.38-.34-1.93-1.82-3.47-3.67-3.84-.33-.07-.66-.1-1-.1-1.64,0-3.12.81-4.05,2.22-1.02,1.55-.96,3.7.15,5.37.39.59.65,1.59.34,2.48-3.02,8.61-6.06,17.24-9.11,25.85,0,0-6.49,18.38-8.01,22.71-.29.81-.21,1.34.26,1.81.34.35.68.5,1.12.5.19,0,.43-.03.67-.09,3.7-.97,7.4-1.92,11.1-2.87l22.46-5.79.62,1.51c.09.21.16.39.22.56l.81,2.3c.4,1.12.79,2.24,1.19,3.34.24.64.84,1.07,1.48,1.07h.05c.62-.02,1.21-.42,1.33-.88.11-.5.09-1.15-.06-1.64ZM28.89,25.71l.8-.9h2.05l3.53,9.94c.29.79.57,1.57.81,2.37.28.89-.07,2.15-1.02,2.65-2.83,1.48-5.66,2.94-8.5,4.39l-1.12.57-.43.17-2.88-.02,6.77-19.18ZM37.68,62.63l-23.99,6.18,5.87-16.69,17.68,7.61.92.84-.47,2.05ZM22.32,49.9l15.46-7.97,6.06,17.18-21.52-9.21Z"/>
        <path class="cls-1" d="M7.34,31.71c-.15.66-.61,1.16-1.15,1.25-.16.03-.32.04-.46.04-.57,0-.93-.19-1.22-.67-2.03-3.26-3.38-6.79-4.01-10.49-.19-1.16-.32-2.35-.4-3.21l-.09-.91C-.07,11.27,1.32,5.9,4.37.86c.33-.54.82-.86,1.35-.86.18,0,.37.04.55.11.73.28,1.14,1,.99,1.77-.04.2-.14.46-.3.71-2.92,5-4.16,10.45-3.7,16.19.32,4,1.56,7.9,3.7,11.56.45.78.43,1.1.38,1.37Z"/>
        <path class="cls-1" d="M7.34,31.71c-.15.66-.61,1.16-1.15,1.25-.16.03-.32.04-.46.04-.57,0-.93-.19-1.22-.67-2.03-3.26-3.38-6.79-4.01-10.49-.19-1.16-.32-2.35-.4-3.21l-.09-.91C-.07,11.27,1.32,5.9,4.37.86c.33-.54.82-.86,1.35-.86.18,0,.37.04.55.11.73.28,1.14,1,.99,1.77-.04.2-.14.46-.3.71-2.92,5-4.16,10.45-3.7,16.19.32,4,1.56,7.9,3.7,11.56.45.78.43,1.1.38,1.37Z"/>
        <path class="cls-1" d="M60.95,16.39c-.06,5.75-1.55,11.07-4.43,15.81-.33.54-.78.82-1.34.82-.13,0-.28-.01-.42-.04-.62-.14-1.1-.66-1.12-1.23-.02-.39.12-.93.35-1.34,1.84-3.28,2.97-6.4,3.46-9.52.94-6.1-.03-11.89-2.88-17.21l-.68-1.25c-.45-.87-.26-1.72.52-2.19.27-.15.54-.23.81-.23.54,0,1.04.33,1.38.88,1.71,2.77,2.89,5.64,3.5,8.56.42,2.04.82,6.05.86,6.95Z"/>
        <path class="cls-1" d="M60.95,16.39c-.06,5.75-1.55,11.07-4.43,15.81-.33.54-.78.82-1.34.82-.13,0-.28-.01-.42-.04-.62-.14-1.1-.66-1.12-1.23-.02-.39.12-.93.35-1.34,1.84-3.28,2.97-6.4,3.46-9.52.94-6.1-.03-11.89-2.88-17.21l-.68-1.25c-.45-.87-.26-1.72.52-2.19.27-.15.54-.23.81-.23.54,0,1.04.33,1.38.88,1.71,2.77,2.89,5.64,3.5,8.56.42,2.04.82,6.05.86,6.95Z"/>
        <path class="cls-1" d="M17.73,23.28c.26.53.53,1.06.58,1.48.09.67-.32,1.3-1,1.52-.18.06-.36.08-.53.08-.53,0-1.03-.29-1.33-.78-1.64-2.74-2.61-5.77-2.6-8.12.01-3.89.77-6.92,2.45-9.83.37-.62.9-.99,1.47-.99.27,0,.53.08.81.23.35.2.6.51.7.88.12.43.04.92-.22,1.39-2.57,4.51-2.74,9.16-.49,13.81l.16.33Z"/>
        <path class="cls-1" d="M17.73,23.28c.26.53.53,1.06.58,1.48.09.67-.32,1.3-1,1.52-.18.06-.36.08-.53.08-.53,0-1.03-.29-1.33-.78-1.64-2.74-2.61-5.77-2.6-8.12.01-3.89.77-6.92,2.45-9.83.37-.62.9-.99,1.47-.99.27,0,.53.08.81.23.35.2.6.51.7.88.12.43.04.92-.22,1.39-2.57,4.51-2.74,9.16-.49,13.81l.16.33Z"/>
        <path class="cls-1" d="M48.09,16.5c0,3.05-.84,6.06-2.51,8.95-.33.57-.87.92-1.43.92-.26,0-.5-.07-.73-.19-.4-.22-.67-.56-.79-.96-.11-.41-.04-.86.19-1.27,1.75-3.02,2.41-6.02,2.01-9.19-.23-1.87-.88-3.74-1.97-5.68-.31-.55-.34-1.13-.09-1.62.22-.44.67-.72,1.21-.79.09-.01.17-.02.24-.02.57,0,.99.27,1.33.83,1.68,2.85,2.53,5.89,2.53,9.02Z"/>
        <path class="cls-1" d="M48.09,16.5c0,3.05-.84,6.06-2.51,8.95-.33.57-.87.92-1.43.92-.26,0-.5-.07-.73-.19-.4-.22-.67-.56-.79-.96-.11-.41-.04-.86.19-1.27,1.75-3.02,2.41-6.02,2.01-9.19-.23-1.87-.88-3.74-1.97-5.68-.31-.55-.34-1.13-.09-1.62.22-.44.67-.72,1.21-.79.09-.01.17-.02.24-.02.57,0,.99.27,1.33.83,1.68,2.85,2.53,5.89,2.53,9.02Z"/>
      </g>
      <g>
        <path d="M18.43,84.42c-.32.38-.76.67-1.34.88s-1.22.31-1.92.31c-.74,0-1.39-.16-1.94-.48s-.99-.79-1.29-1.4-.46-1.33-.47-2.16v-.58c0-.85.14-1.59.43-2.21s.7-1.1,1.24-1.43,1.17-.5,1.9-.5c1.01,0,1.8.24,2.37.72s.91,1.18,1.01,2.11h-1.71c-.08-.49-.25-.85-.52-1.07s-.64-.34-1.1-.34c-.6,0-1.05.22-1.37.67s-.47,1.12-.47,2v.54c0,.89.17,1.57.51,2.03s.84.69,1.49.69,1.13-.14,1.41-.42v-1.47h-1.6v-1.29h3.36v3.4Z"/>
        <path d="M24.98,81.8h-3.38v2.29h3.96v1.41h-5.72v-8.53h5.71v1.42h-3.95v2.03h3.38v1.38Z"/>
        <path d="M29.76,82.38h-1.4v3.12h-1.76v-8.53h3.17c1.01,0,1.79.22,2.33.67s.82,1.08.82,1.9c0,.58-.13,1.07-.38,1.46s-.63.7-1.15.93l1.85,3.49v.08h-1.89l-1.6-3.12ZM28.36,80.95h1.42c.44,0,.78-.11,1.03-.34s.36-.53.36-.93-.11-.72-.34-.95-.58-.35-1.05-.35h-1.41v2.56Z"/>
        <path d="M39.07,83.74h-3.08l-.59,1.76h-1.87l3.18-8.53h1.63l3.19,8.53h-1.87l-.59-1.76ZM36.47,82.32h2.13l-1.07-3.19-1.06,3.19Z"/>
        <path d="M49.27,85.5h-1.76l-3.42-5.61v5.61h-1.76v-8.53h1.76l3.43,5.62v-5.62h1.75v8.53Z"/>
      </g>
    </g>
  </g>
</svg>