<?xml version="1.0" encoding="UTF-8"?>
<svg id="Layer_2" xmlns="http://www.w3.org/2000/svg" viewBox="0 0 72 72">
  <defs>
    <style>
      .cls-1 {
        fill: #fff;
      }

      .cls-2 {
        fill: #07aea5;
      }

      .cls-3 {
        stroke-linecap: round;
      }

      .cls-3, .cls-4 {
        fill: none;
        stroke: #07aea5;
        stroke-miterlimit: 10;
        stroke-width: 3px;
      }
    </style>
  </defs>
  <g id="_Сине-зеленый" data-name="Сине-зеленый">
    <g id="Comm-пустая">
      <g>
        <path class="cls-1" d="M7.09,1.5h57.83c3.08,0,5.59,2.5,5.59,5.59v57.83c0,3.08-2.5,5.59-5.59,5.59H7.09c-3.08,0-5.59-2.5-5.59-5.59V7.09C1.5,4,4,1.5,7.09,1.5Z"/>
        <path class="cls-2" d="M64.91,3c2.25,0,4.09,1.83,4.09,4.09v57.83c0,2.25-1.83,4.09-4.09,4.09H7.09c-2.25,0-4.09-1.83-4.09-4.09V7.09c0-2.25,1.83-4.09,4.09-4.09h57.83M64.91,0H7.09C3.19,0,0,3.19,0,7.09v57.83c0,3.9,3.19,7.09,7.09,7.09h57.83c3.9,0,7.09-3.19,7.09-7.09V7.09c0-3.9-3.19-7.09-7.09-7.09h0Z"/>
      </g>
      <g>
        <polyline class="cls-3" points="46.88 31.67 51.28 35.99 46.88 40.32"/>
        <polyline class="cls-3" points="22.72 36 31.68 36 41.56 35.99 50.52 35.99"/>
        <polyline class="cls-3" points="26.36 40.32 21.96 36 26.36 31.67"/>
        <line class="cls-3" x1="36.01" y1="35.99" x2="36.01" y2="51.14"/>
        <polyline class="cls-3" points="40.32 47.49 36.01 51.89 31.68 47.49"/>
        <line class="cls-3" x1="35.99" y1="35.99" x2="35.99" y2="20.85"/>
        <polyline class="cls-3" points="31.68 24.49 35.99 20.1 40.32 24.49"/>
        <rect class="cls-4" x="12.91" y="12.91" width="46.17" height="46.17" rx="2.13" ry="2.13"/>
      </g>
    </g>
  </g>
</svg>