<?xml version="1.0" encoding="UTF-8"?>
<svg id="Layer_2" xmlns="http://www.w3.org/2000/svg" viewBox="0 0 72 72">
  <defs>
    <style>
      .cls-1 {
        fill: #fff;
      }

      .cls-2 {
        fill: #07aea5;
      }
    </style>
  </defs>
  <g id="_Сине-зеленый" data-name="Сине-зеленый">
    <g id="DataBase-HLR_x2F_HSS">
      <path class="cls-2" d="M36,0C16.12,0,0,4.03,0,9v54c0,4.97,16.12,9,36,9s36-4.03,36-9V9c0-4.97-16.12-9-36-9ZM12.67,5.22c6.39-1.43,14.68-2.22,23.33-2.22s16.94.79,23.33,2.22c6.9,1.54,8.99,3.2,9.53,3.78-.54.58-2.63,2.24-9.53,3.78-6.39,1.43-14.68,2.22-23.33,2.22s-16.94-.79-23.33-2.22c-6.9-1.54-8.99-3.2-9.53-3.78.54-.58,2.63-2.24,9.53-3.78ZM59.33,66.78c-6.39,1.43-14.68,2.22-23.33,2.22s-16.94-.79-23.33-2.22c-6.9-1.54-9.12-3.2-9.67-3.78V12.6c5.55,3.18,18.24,5.4,33,5.4s27.45-2.22,33-5.4v50.4c-.55.58-2.77,2.24-9.67,3.78Z"/>
      <path class="cls-1" d="M68.86,9c-.54.58-2.63,2.24-9.53,3.78-6.39,1.43-14.68,2.22-23.33,2.22s-16.94-.79-23.33-2.22c-6.9-1.54-8.99-3.2-9.53-3.78.54-.58,2.63-2.24,9.53-3.78,6.39-1.43,14.68-2.22,23.33-2.22s16.94.79,23.33,2.22c6.9,1.54,8.99,3.2,9.53,3.78Z"/>
      <path class="cls-1" d="M69,12.6v50.4c-.55.58-2.77,2.24-9.67,3.78-6.39,1.43-14.68,2.22-23.33,2.22s-16.94-.79-23.33-2.22c-6.9-1.54-9.12-3.2-9.67-3.78V12.6c5.55,3.18,18.24,5.4,33,5.4s27.45-2.22,33-5.4Z"/>
      <g>
        <path d="M29.66,37.58h-1.9v-3.96h-3.71v3.96h-1.9v-9.24h1.9v3.75h3.71v-3.75h1.9v9.24Z"/>
        <path d="M33.23,36.05h4.04v1.53h-5.95v-9.24h1.9v7.71Z"/>
        <path d="M41.78,34.19h-1.52v3.38h-1.9v-9.24h3.43c1.09,0,1.93.24,2.53.73s.89,1.17.89,2.06c0,.63-.14,1.16-.41,1.58-.27.42-.69.76-1.24,1.01l2,3.78v.09h-2.04l-1.73-3.38ZM40.26,32.65h1.54c.48,0,.85-.12,1.11-.37.26-.24.39-.58.39-1.01s-.12-.78-.37-1.03-.63-.37-1.14-.37h-1.53v2.77Z"/>
        <path d="M47.11,38.37h-1.37l3.4-10.04h1.37l-3.4,10.04Z"/>
        <path d="M31.76,53.17h-1.9v-3.96h-3.71v3.96h-1.9v-9.24h1.9v3.75h3.71v-3.75h1.9v9.24Z"/>
        <path d="M38.22,50.75c0-.36-.13-.64-.38-.83-.25-.19-.71-.4-1.37-.61-.66-.21-1.18-.42-1.57-.63-1.05-.57-1.57-1.33-1.57-2.29,0-.5.14-.94.42-1.34.28-.39.69-.7,1.21-.92.53-.22,1.12-.33,1.77-.33s1.25.12,1.76.36c.52.24.92.58,1.2,1.01.29.44.43.93.43,1.49h-1.9c0-.42-.13-.75-.4-.99-.27-.23-.64-.35-1.12-.35s-.83.1-1.08.3c-.26.2-.39.46-.39.78,0,.3.15.55.45.76s.75.39,1.34.57c1.08.33,1.87.73,2.37,1.21.5.48.74,1.08.74,1.8,0,.8-.3,1.43-.91,1.88-.61.46-1.42.68-2.44.68-.71,0-1.36-.13-1.94-.39-.58-.26-1.03-.62-1.34-1.07s-.46-.98-.46-1.57h1.91c0,1.02.61,1.53,1.83,1.53.45,0,.81-.09,1.06-.28.25-.18.38-.44.38-.77Z"/>
        <path d="M46.21,50.75c0-.36-.13-.64-.38-.83-.25-.19-.71-.4-1.37-.61-.66-.21-1.18-.42-1.57-.63-1.05-.57-1.57-1.33-1.57-2.29,0-.5.14-.94.42-1.34.28-.39.69-.7,1.21-.92s1.12-.33,1.77-.33,1.25.12,1.76.36c.52.24.92.58,1.2,1.01s.43.93.43,1.49h-1.9c0-.42-.13-.75-.4-.99-.27-.23-.64-.35-1.12-.35s-.83.1-1.08.3c-.26.2-.39.46-.39.78,0,.3.15.55.46.76.3.2.75.39,1.34.57,1.08.33,1.87.73,2.37,1.21s.74,1.08.74,1.8c0,.8-.3,1.43-.91,1.88-.6.46-1.42.68-2.44.68-.71,0-1.36-.13-1.94-.39-.58-.26-1.03-.62-1.34-1.07-.31-.45-.46-.98-.46-1.57h1.91c0,1.02.61,1.53,1.83,1.53.45,0,.81-.09,1.06-.28.25-.18.38-.44.38-.77Z"/>
      </g>
    </g>
  </g>
</svg>