<?xml version="1.0" encoding="UTF-8"?>
<svg id="Layer_2" data-name="Layer 2" xmlns="http://www.w3.org/2000/svg" viewBox="0 0 72 72">
  <defs>
    <style>
      .cls-1 {
        fill: #07aea5;
      }

      .cls-2 {
        fill: #fff;
      }
    </style>
  </defs>
  <g id="_Оригинал" data-name="Оригинал">
    <g>
      <g>
        <rect class="cls-2" width="72" height="72" rx="7.09" ry="7.09"/>
        <path class="cls-1" d="M64.91,3c2.25,0,4.09,1.83,4.09,4.09v57.83c0,2.25-1.83,4.09-4.09,4.09H7.09c-2.25,0-4.09-1.83-4.09-4.09V7.09c0-2.25,1.83-4.09,4.09-4.09h57.83M64.91,0H7.09C3.19,0,0,3.19,0,7.09v57.83c0,3.9,3.19,7.09,7.09,7.09h57.83c3.9,0,7.09-3.19,7.09-7.09V7.09C72,3.19,68.81,0,64.91,0h0Z"/>
      </g>
      <path class="cls-1" d="M56.96,60.59H15.04c-2,0-3.63-1.63-3.63-3.63V15.04c0-2,1.63-3.63,3.63-3.63h41.92c2,0,3.63,1.63,3.63,3.63v41.92c0,2-1.63,3.63-3.63,3.63ZM15.04,14.41c-.35,0-.63.28-.63.63v41.92c0,.35.28.63.63.63h41.92c.35,0,.63-.28.63-.63V15.04c0-.35-.28-.63-.63-.63H15.04Z"/>
      <path class="cls-1" d="M45.99,41.37c.29.3.68.45,1.07.45s.76-.14,1.05-.43l5.49-5.4-5.49-5.39c-.59-.58-1.54-.57-2.12.02-.58.59-.57,1.54.02,2.12l1.79,1.75h-12.91s10.27-10.27,10.27-10.27l-.02,2.5c0,.83.66,1.51,1.49,1.51h.01c.82,0,1.49-.66,1.5-1.49l.06-7.7-7.69.07c-.83,0-1.49.69-1.49,1.51,0,.83.69,1.5,1.51,1.49l2.5-.02-12.39,12.39h-6.54c-.52-.89-1.48-1.5-2.58-1.5-1.66,0-3,1.34-3,3s1.34,3,3,3c1.11,0,2.06-.61,2.58-1.5h6.53l12.4,12.4-2.5-.02c-.83.03-1.51.66-1.51,1.49,0,.83.66,1.51,1.49,1.51l7.69.07-.06-7.7c0-.82-.68-1.49-1.5-1.49h-.01c-.83,0-1.49.68-1.49,1.51l.02,2.5-10.28-10.28h12.91s-1.78,1.74-1.78,1.74c-.59.58-.6,1.53-.02,2.12Z"/>
    </g>
  </g>
</svg>