<?xml version="1.0" encoding="UTF-8"?>
<svg id="Layer_2" xmlns="http://www.w3.org/2000/svg" viewBox="0 0 72.5 64.87">
  <defs>
    <style>
      .cls-1 {
        fill: #fff;
      }

      .cls-2 {
        fill: #07aea5;
      }

      .cls-3 {
        fill: none;
        stroke: #07aea5;
        stroke-linecap: round;
        stroke-miterlimit: 10;
        stroke-width: 3px;
      }
    </style>
  </defs>
  <g id="_Сине-зеленый" data-name="Сине-зеленый">
    <g id="Monitor-NMS">
      <g>
        <g>
          <path class="cls-2" d="M70.75,42.25c.82,0,1.5.67,1.5,1.5,0,4.12-3.38,7.5-7.5,7.5H7.75c-4.13,0-7.5-3.38-7.5-7.5,0-.83.67-1.5,1.5-1.5h3.82c-.52-.9-.82-1.88-.82-3V6.25C4.75,2.87,7.37.25,10.75.25h51c3.37,0,6,2.62,6,6v33c0,1.12-.3,2.1-.83,3h3.83ZM69.02,45.25H3.47c.68,1.72,2.33,3,4.28,3h57c2.02,0,3.67-1.28,4.27-3ZM64.75,39.25V6.25c0-1.73-1.28-3-3-3H10.75c-1.73,0-3,1.27-3,3v33c0,1.72,1.27,3,3,3h51c1.72,0,3-1.28,3-3Z"/>
          <path class="cls-1" d="M61.75,45.25h7.27c-.6,1.72-2.25,3-4.27,3H7.75c-1.95,0-3.6-1.28-4.28-3h58.28Z"/>
          <path class="cls-1" d="M64.75,6.25v33c0,1.72-1.28,3-3,3H10.75c-1.73,0-3-1.28-3-3V6.25c0-1.73,1.27-3,3-3h51c1.72,0,3,1.27,3,3Z"/>
        </g>
        <g>
          <circle class="cls-2" cx="17.75" cy="30.73" r="3"/>
          <circle class="cls-2" cx="30.25" cy="16.44" r="3"/>
          <circle class="cls-2" cx="46.61" cy="26.93" r="3"/>
          <polyline class="cls-3" points="17.75 30.73 30.25 16.44 46.61 26.93 58.14 14.88"/>
        </g>
      </g>
      <g>
        <path d="M30.77,64.75h-1.76l-3.42-5.61v5.61h-1.76v-8.53h1.76l3.43,5.62v-5.62h1.75v8.53Z"/>
        <path d="M34.6,56.22l2.19,6.19,2.18-6.19h2.31v8.53h-1.76v-2.33l.18-4.03-2.3,6.36h-1.21l-2.3-6.35.18,4.02v2.33h-1.76v-8.53h2.3Z"/>
        <path d="M47.24,62.51c0-.33-.12-.59-.35-.76s-.66-.37-1.27-.56-1.09-.39-1.45-.58c-.97-.52-1.45-1.23-1.45-2.12,0-.46.13-.87.39-1.23s.63-.64,1.12-.85,1.03-.3,1.64-.3,1.15.11,1.63.33.85.53,1.11.93.4.86.4,1.37h-1.76c0-.39-.12-.69-.37-.91s-.59-.33-1.04-.33-.76.09-1,.27-.36.42-.36.72c0,.28.14.51.42.7s.69.36,1.23.53c1,.3,1.73.67,2.19,1.12s.69,1,.69,1.66c0,.74-.28,1.32-.84,1.74s-1.31.63-2.26.63c-.66,0-1.25-.12-1.79-.36s-.95-.57-1.23-.99-.42-.9-.42-1.45h1.76c0,.94.56,1.41,1.69,1.41.42,0,.74-.08.98-.25s.35-.41.35-.71Z"/>
      </g>
    </g>
  </g>
</svg>