<?xml version="1.0" encoding="UTF-8"?>
<svg id="Layer_2" xmlns="http://www.w3.org/2000/svg" viewBox="0 0 72 72">
  <defs>
    <style>
      .cls-1 {
        fill: #fff;
      }

      .cls-2 {
        fill: #07aea5;
      }

      .cls-3 {
        fill: none;
        stroke: #07aea5;
        stroke-miterlimit: 10;
        stroke-width: 3px;
      }
    </style>
  </defs>
  <g id="_Сине-зеленый" data-name="Сине-зеленый">
    <g id="Protect-пустая">
      <g>
        <path class="cls-1" d="M7.09,1.5h57.83c3.08,0,5.59,2.5,5.59,5.59v57.83c0,3.08-2.5,5.59-5.59,5.59H7.09c-3.08,0-5.59-2.5-5.59-5.59V7.09C1.5,4,4,1.5,7.09,1.5Z"/>
        <path class="cls-2" d="M64.91,3c2.25,0,4.09,1.83,4.09,4.09v57.83c0,2.25-1.83,4.09-4.09,4.09H7.09c-2.25,0-4.09-1.83-4.09-4.09V7.09c0-2.25,1.83-4.09,4.09-4.09h57.83M64.91,0H7.09C3.19,0,0,3.19,0,7.09v57.83c0,3.9,3.19,7.09,7.09,7.09h57.83c3.9,0,7.09-3.19,7.09-7.09V7.09c0-3.9-3.19-7.09-7.09-7.09h0Z"/>
      </g>
      <g>
        <path class="cls-2" d="M58.56,21.56v28.89H13.44v-28.89h45.11M61.56,18.56H10.44v34.89h51.11V18.56h0Z"/>
        <line class="cls-3" x1="11.94" y1="30.14" x2="59.61" y2="30.14"/>
        <line class="cls-3" x1="11.94" y1="40.56" x2="59.61" y2="40.56"/>
        <line class="cls-3" x1="27.83" y1="19.89" x2="27.83" y2="30.14"/>
        <line class="cls-3" x1="44.17" y1="19.89" x2="44.17" y2="30.14"/>
        <line class="cls-3" x1="27.83" y1="41.99" x2="27.83" y2="52.24"/>
        <line class="cls-3" x1="44.17" y1="41.99" x2="44.17" y2="52.24"/>
        <line class="cls-3" x1="36.22" y1="29.47" x2="36.22" y2="39.72"/>
        <line class="cls-3" x1="52.33" y1="29.47" x2="52.33" y2="39.72"/>
        <line class="cls-3" x1="20.11" y1="29.47" x2="20.11" y2="39.72"/>
      </g>
    </g>
  </g>
</svg>