<?xml version="1.0" encoding="UTF-8"?>
<svg id="Layer_2" xmlns="http://www.w3.org/2000/svg" viewBox="0 0 72 85.5">
  <defs>
    <style>
      .cls-1 {
        fill: #fff;
      }

      .cls-2 {
        fill: #07aea5;
      }

      .cls-3 {
        fill: none;
        stroke: #07aea5;
        stroke-miterlimit: 10;
        stroke-width: 3px;
      }
    </style>
  </defs>
  <g id="_Сине-зеленый" data-name="Сине-зеленый">
    <g id="Protect-Firewall">
      <g>
        <path d="M20.18,5.51h-3.38v3.49h-1.76V.47h5.55v1.42h-3.8v2.2h3.38v1.42Z"/>
        <path d="M21.5,1.02c0-.25.08-.46.25-.63s.4-.25.69-.25.52.08.69.25.26.37.26.63-.09.47-.26.63-.4.25-.69.25-.51-.08-.69-.25-.26-.38-.26-.63ZM23.3,9h-1.7V2.66h1.7v6.34Z"/>
        <path d="M28.26,4.25c-.23-.03-.43-.05-.61-.05-.64,0-1.06.22-1.26.65v4.15h-1.69V2.66h1.6l.05.76c.34-.58.81-.87,1.41-.87.19,0,.36.03.53.08l-.02,1.63Z"/>
        <path d="M31.88,9.12c-.93,0-1.69-.29-2.27-.86s-.88-1.33-.88-2.28v-.16c0-.64.12-1.21.37-1.71s.59-.89,1.05-1.16.97-.41,1.54-.41c.87,0,1.55.27,2.05.82s.75,1.32.75,2.33v.69h-4.04c.05.41.22.75.5,1s.62.38,1.05.38c.65,0,1.16-.24,1.53-.71l.83.93c-.25.36-.6.64-1.03.84s-.91.3-1.44.3ZM31.68,3.91c-.34,0-.61.11-.82.34s-.34.55-.4.98h2.36v-.14c0-.38-.11-.67-.3-.87s-.47-.31-.83-.31Z"/>
        <path d="M40.96,6.7l.83-4.04h1.63l-1.62,6.34h-1.42l-1.2-3.99-1.2,3.99h-1.41l-1.62-6.34h1.63l.83,4.03,1.16-4.03h1.22l1.15,4.04Z"/>
        <path d="M47.94,9c-.08-.15-.13-.34-.17-.57-.41.46-.94.69-1.6.69-.62,0-1.14-.18-1.54-.54s-.61-.81-.61-1.36c0-.67.25-1.19.75-1.55s1.22-.54,2.16-.54h.78v-.36c0-.29-.08-.53-.23-.7s-.39-.26-.71-.26c-.29,0-.51.07-.67.21s-.24.32-.24.56h-1.69c0-.37.11-.71.34-1.02s.55-.56.96-.74.88-.27,1.39-.27c.78,0,1.4.2,1.86.59s.69.94.69,1.66v2.75c0,.6.09,1.06.25,1.37v.1h-1.71ZM46.54,7.82c.25,0,.48-.06.69-.17s.37-.26.47-.45v-1.09h-.63c-.85,0-1.3.29-1.35.88v.1c0,.21.07.38.22.52s.35.21.61.21Z"/>
        <path d="M52.49,9h-1.7V0h1.7v9Z"/>
        <path d="M55.67,9h-1.7V0h1.7v9Z"/>
      </g>
      <g>
        <g>
          <path class="cls-1" d="M7.09,15h57.83c3.08,0,5.59,2.5,5.59,5.59v57.83c0,3.08-2.5,5.59-5.59,5.59H7.09c-3.08,0-5.59-2.5-5.59-5.59V20.59c0-3.08,2.5-5.59,5.59-5.59Z"/>
          <path class="cls-2" d="M64.91,16.5c2.25,0,4.09,1.83,4.09,4.09v57.83c0,2.25-1.83,4.09-4.09,4.09H7.09c-2.25,0-4.09-1.83-4.09-4.09V20.59c0-2.25,1.83-4.09,4.09-4.09h57.83M64.91,13.5H7.09c-3.9,0-7.09,3.19-7.09,7.09v57.83c0,3.9,3.19,7.09,7.09,7.09h57.83c3.9,0,7.09-3.19,7.09-7.09V20.59c0-3.9-3.19-7.09-7.09-7.09h0Z"/>
        </g>
        <g>
          <path class="cls-2" d="M58.56,35.06v28.89H13.44v-28.89h45.11M61.56,32.06H10.44v34.89h51.11v-34.89h0Z"/>
          <line class="cls-3" x1="11.94" y1="43.64" x2="59.61" y2="43.64"/>
          <line class="cls-3" x1="11.94" y1="54.06" x2="59.61" y2="54.06"/>
          <line class="cls-3" x1="27.83" y1="33.39" x2="27.83" y2="43.64"/>
          <line class="cls-3" x1="44.17" y1="33.39" x2="44.17" y2="43.64"/>
          <line class="cls-3" x1="27.83" y1="55.49" x2="27.83" y2="65.74"/>
          <line class="cls-3" x1="44.17" y1="55.49" x2="44.17" y2="65.74"/>
          <line class="cls-3" x1="36.22" y1="42.97" x2="36.22" y2="53.22"/>
          <line class="cls-3" x1="52.33" y1="42.97" x2="52.33" y2="53.22"/>
          <line class="cls-3" x1="20.11" y1="42.97" x2="20.11" y2="53.22"/>
        </g>
      </g>
    </g>
  </g>
</svg>