<?xml version="1.0" encoding="UTF-8"?>
<svg id="Layer_2" xmlns="http://www.w3.org/2000/svg" viewBox="0 0 72 85.15">
  <defs>
    <style>
      .cls-1 {
        fill: #fff;
      }

      .cls-2 {
        fill: #07aea5;
      }

      .cls-3 {
        stroke-linecap: round;
      }

      .cls-3, .cls-4 {
        fill: none;
        stroke: #07aea5;
        stroke-miterlimit: 10;
        stroke-width: 3px;
      }
    </style>
  </defs>
  <g id="_Сине-зеленый" data-name="Сине-зеленый">
    <g id="Router-DSR">
      <g>
        <g>
          <path class="cls-1" d="M7.09,14.65h57.83c3.08,0,5.59,2.5,5.59,5.59v57.83c0,3.08-2.5,5.59-5.59,5.59H7.09c-3.08,0-5.59-2.5-5.59-5.59V20.24c0-3.08,2.5-5.59,5.59-5.59Z"/>
          <path class="cls-2" d="M64.91,16.15c2.25,0,4.09,1.83,4.09,4.09v57.83c0,2.25-1.83,4.09-4.09,4.09H7.09c-2.25,0-4.09-1.83-4.09-4.09V20.23c0-2.25,1.83-4.09,4.09-4.09h57.83M64.91,13.15H7.09c-3.9,0-7.09,3.19-7.09,7.09v57.83c0,3.9,3.19,7.09,7.09,7.09h57.83c3.9,0,7.09-3.19,7.09-7.09V20.23c0-3.9-3.19-7.09-7.09-7.09h0Z"/>
        </g>
        <g>
          <circle class="cls-4" cx="36" cy="49.15" r="22.24"/>
          <line class="cls-3" x1="20.38" y1="49.14" x2="29.18" y2="49.14"/>
          <polyline class="cls-3" points="25.6 44.9 29.93 49.14 25.6 53.4"/>
          <line class="cls-3" x1="51.62" y1="49.15" x2="42.82" y2="49.15"/>
          <polyline class="cls-3" points="46.4 53.4 42.08 49.15 46.4 44.9"/>
          <line class="cls-3" x1="36.01" y1="55.22" x2="36.01" y2="64.03"/>
          <polyline class="cls-3" points="40.25 60.45 36.01 64.77 31.75 60.45"/>
          <line class="cls-3" x1="35.99" y1="43.07" x2="35.99" y2="34.27"/>
          <polyline class="cls-3" points="31.75 37.85 35.99 33.53 40.25 37.85"/>
        </g>
      </g>
      <g>
        <path d="M25.35,8.65V.12h2.62c.75,0,1.42.17,2.01.51s1.05.82,1.39,1.44.5,1.33.5,2.12v.39c0,.79-.16,1.5-.49,2.12s-.79,1.1-1.38,1.44-1.26.51-2.01.52h-2.64ZM27.1,1.54v5.7h.85c.69,0,1.21-.22,1.58-.67s.55-1.09.56-1.93v-.45c0-.87-.18-1.52-.54-1.97s-.88-.67-1.58-.67h-.87Z"/>
        <path d="M37.57,6.41c0-.33-.12-.59-.35-.76s-.66-.37-1.27-.56-1.09-.39-1.45-.58c-.97-.52-1.45-1.23-1.45-2.12,0-.46.13-.87.39-1.23s.63-.64,1.12-.85,1.03-.3,1.64-.3,1.15.11,1.63.33.85.53,1.11.93.4.86.4,1.37h-1.76c0-.39-.12-.69-.37-.91s-.59-.33-1.04-.33-.76.09-1,.27-.36.42-.36.72c0,.28.14.51.42.7s.69.36,1.23.53c1,.3,1.73.67,2.19,1.12s.69,1,.69,1.66c0,.74-.28,1.32-.84,1.74s-1.31.63-2.26.63c-.66,0-1.25-.12-1.79-.36s-.95-.57-1.23-.99-.42-.9-.42-1.45h1.76c0,.94.56,1.41,1.69,1.41.42,0,.74-.08.98-.25s.35-.41.35-.71Z"/>
        <path d="M43.68,5.53h-1.4v3.12h-1.76V.12h3.17c1.01,0,1.79.22,2.33.67s.82,1.08.82,1.9c0,.58-.13,1.07-.38,1.46s-.63.7-1.15.93l1.85,3.49v.08h-1.89l-1.6-3.12ZM42.28,4.1h1.42c.44,0,.78-.11,1.03-.34s.36-.53.36-.93-.11-.72-.34-.95-.58-.35-1.05-.35h-1.41v2.56Z"/>
      </g>
    </g>
  </g>
</svg>