<?xml version="1.0" encoding="UTF-8"?>
<svg id="Layer_2" xmlns="http://www.w3.org/2000/svg" viewBox="0 0 69.64 85.87">
  <defs>
    <style>
      .cls-1 {
        fill: #fff;
      }

      .cls-2 {
        fill: #07aea5;
      }
    </style>
  </defs>
  <g id="_Сине-зеленый" data-name="Сине-зеленый">
    <g id="voIP">
      <g>
        <path d="M27.27,83.68l1.18-4.27h1.77l-2.14,6.34h-1.62l-2.14-6.34h1.77l1.18,4.27Z"/>
        <path d="M30.61,82.52c0-.63.12-1.19.36-1.68s.59-.87,1.05-1.14.98-.4,1.58-.4c.86,0,1.55.26,2.09.79s.84,1.23.91,2.13v.43c.01.97-.26,1.75-.8,2.34s-1.27.88-2.19.88-1.64-.29-2.19-.88-.82-1.38-.82-2.39v-.08ZM32.31,82.64c0,.6.11,1.06.34,1.38.23.32.55.48.97.48s.73-.16.96-.47c.23-.31.35-.82.35-1.51,0-.59-.12-1.05-.35-1.37s-.55-.49-.97-.49-.73.16-.96.48-.34.82-.34,1.5Z"/>
        <path d="M39.64,85.75h-1.76v-8.53h1.76v8.53Z"/>
        <path d="M43.03,82.74v3.01h-1.76v-8.53h3.33c.64,0,1.2.12,1.69.35s.86.57,1.12,1,.39.92.39,1.47c0,.84-.29,1.5-.86,1.98s-1.36.72-2.38.72h-1.54ZM43.03,81.32h1.57c.46,0,.82-.11,1.06-.33s.37-.53.37-.94-.12-.76-.37-1.01-.59-.39-1.02-.4h-1.61v2.68Z"/>
      </g>
      <g>
        <path class="cls-1" d="M69.64,52.49c0,10.92-8.85,19.76-19.76,19.76s-19.23-8.32-19.73-18.79h-.02s-2.58,0-2.58,0c-.76,0-1.37-.62-1.37-1.37V4.34c0-.74.61-1.36,1.37-1.36h27.28s1.4.21,2.73,3.42c1.36,3.27,2.73,9.68,2.73,21.14,0,2.98-.09,5.63-.25,8,5.76,3.45,9.6,9.75,9.6,16.95Z"/>
        <path class="cls-2" d="M35.72,23.45h-2.72c-.76,0-1.36.61-1.36,1.37v2.72c0,.75.61,1.36,1.36,1.36h2.72c.76,0,1.37-.61,1.37-1.36v-2.72c0-.76-.61-1.37-1.37-1.37ZM35.72,31.63h-2.72c-.76,0-1.36.61-1.36,1.36v2.73c0,.75.61,1.36,1.36,1.36h2.72c.76,0,1.37-.61,1.37-1.36v-2.73c0-.75-.61-1.36-1.37-1.36ZM33,39.82c-.76,0-1.36.61-1.36,1.36v2.73c0,.22.05.43.14.61.76-1.71,1.75-3.29,2.93-4.7h-1.71ZM43.91,23.45h-2.72c-.76,0-1.37.61-1.37,1.37v2.72c0,.75.61,1.36,1.37,1.36h2.72c.75,0,1.36-.61,1.36-1.36v-2.72c0-.76-.61-1.37-1.36-1.37ZM43.91,31.63h-2.72c-.76,0-1.37.61-1.37,1.36v2.5c1.67-.99,3.51-1.75,5.46-2.2v-.29c0-.75-.61-1.36-1.36-1.36ZM52.1,7.08h-19.38c-.68.13-1.09.68-1.09,1.36v10.91c0,.76.61,1.37,1.36,1.37h19.1c.75,0,1.36-.61,1.36-1.37v-10.91c0-.75-.61-1.36-1.36-1.36ZM50.74,17.99h-16.38v-8.19h16.38v8.19ZM52.1,23.45h-2.73c-.75,0-1.36.61-1.36,1.37v2.72c0,.75.61,1.36,1.36,1.36h2.73c.75,0,1.36-.61,1.36-1.36v-2.72c0-.76-.61-1.37-1.36-1.37ZM52.1,31.63h-2.73c-.7,0-1.28.53-1.34,1.21.6-.07,1.21-.09,1.83-.09,1.24,0,2.44.11,3.61.33v-.09c0-.75-.61-1.36-1.36-1.36ZM52.1,31.63h-2.73c-.7,0-1.28.53-1.34,1.21.6-.07,1.21-.09,1.83-.09,1.24,0,2.44.11,3.61.33v-.09c0-.75-.61-1.36-1.36-1.36ZM52.1,23.45h-2.73c-.75,0-1.36.61-1.36,1.37v2.72c0,.75.61,1.36,1.36,1.36h2.73c.75,0,1.36-.61,1.36-1.36v-2.72c0-.76-.61-1.37-1.36-1.37ZM52.1,7.08h-19.38c-.68.13-1.09.68-1.09,1.36v10.91c0,.76.61,1.37,1.36,1.37h19.1c.75,0,1.36-.61,1.36-1.37v-10.91c0-.75-.61-1.36-1.36-1.36ZM50.74,17.99h-16.38v-8.19h16.38v8.19ZM43.91,31.63h-2.72c-.76,0-1.37.61-1.37,1.36v2.5c1.67-.99,3.51-1.75,5.46-2.2v-.29c0-.75-.61-1.36-1.36-1.36ZM43.91,23.45h-2.72c-.76,0-1.37.61-1.37,1.37v2.72c0,.75.61,1.36,1.37,1.36h2.72c.75,0,1.36-.61,1.36-1.36v-2.72c0-.76-.61-1.37-1.36-1.37ZM33,39.82c-.76,0-1.36.61-1.36,1.36v2.73c0,.22.05.43.14.61.76-1.71,1.75-3.29,2.93-4.7h-1.71ZM35.72,31.63h-2.72c-.76,0-1.36.61-1.36,1.36v2.73c0,.75.61,1.36,1.36,1.36h2.72c.76,0,1.37-.61,1.37-1.36v-2.73c0-.75-.61-1.36-1.37-1.36ZM35.72,23.45h-2.72c-.76,0-1.36.61-1.36,1.37v2.72c0,.75.61,1.36,1.36,1.36h2.72c.76,0,1.37-.61,1.37-1.36v-2.72c0-.76-.61-1.37-1.37-1.37ZM35.72,23.45h-2.72c-.76,0-1.36.61-1.36,1.37v2.72c0,.75.61,1.36,1.36,1.36h2.72c.76,0,1.37-.61,1.37-1.36v-2.72c0-.76-.61-1.37-1.37-1.37ZM35.72,31.63h-2.72c-.76,0-1.36.61-1.36,1.36v2.73c0,.75.61,1.36,1.36,1.36h2.72c.76,0,1.37-.61,1.37-1.36v-2.73c0-.75-.61-1.36-1.37-1.36ZM33,39.82c-.76,0-1.36.61-1.36,1.36v2.73c0,.22.05.43.14.61.76-1.71,1.75-3.29,2.93-4.7h-1.71ZM43.91,23.45h-2.72c-.76,0-1.37.61-1.37,1.37v2.72c0,.75.61,1.36,1.37,1.36h2.72c.75,0,1.36-.61,1.36-1.36v-2.72c0-.76-.61-1.37-1.36-1.37ZM43.91,31.63h-2.72c-.76,0-1.37.61-1.37,1.36v2.5c1.67-.99,3.51-1.75,5.46-2.2v-.29c0-.75-.61-1.36-1.36-1.36ZM52.1,7.08h-19.38c-.68.13-1.09.68-1.09,1.36v10.91c0,.76.61,1.37,1.36,1.37h19.1c.75,0,1.36-.61,1.36-1.37v-10.91c0-.75-.61-1.36-1.36-1.36ZM50.74,17.99h-16.38v-8.19h16.38v8.19ZM52.1,23.45h-2.73c-.75,0-1.36.61-1.36,1.37v2.72c0,.75.61,1.36,1.36,1.36h2.73c.75,0,1.36-.61,1.36-1.36v-2.72c0-.76-.61-1.37-1.36-1.37ZM52.1,31.63h-2.73c-.7,0-1.28.53-1.34,1.21.6-.07,1.21-.09,1.83-.09,1.24,0,2.44.11,3.61.33v-.09c0-.75-.61-1.36-1.36-1.36ZM52.1,31.63h-2.73c-.7,0-1.28.53-1.34,1.21.6-.07,1.21-.09,1.83-.09,1.24,0,2.44.11,3.61.33v-.09c0-.75-.61-1.36-1.36-1.36ZM52.1,23.45h-2.73c-.75,0-1.36.61-1.36,1.37v2.72c0,.75.61,1.36,1.36,1.36h2.73c.75,0,1.36-.61,1.36-1.36v-2.72c0-.76-.61-1.37-1.36-1.37ZM52.1,7.08h-19.38c-.68.13-1.09.68-1.09,1.36v10.91c0,.76.61,1.37,1.36,1.37h19.1c.75,0,1.36-.61,1.36-1.37v-10.91c0-.75-.61-1.36-1.36-1.36ZM50.74,17.99h-16.38v-8.19h16.38v8.19ZM43.91,31.63h-2.72c-.76,0-1.37.61-1.37,1.36v2.5c1.67-.99,3.51-1.75,5.46-2.2v-.29c0-.75-.61-1.36-1.36-1.36ZM43.91,23.45h-2.72c-.76,0-1.37.61-1.37,1.37v2.72c0,.75.61,1.36,1.37,1.36h2.72c.75,0,1.36-.61,1.36-1.36v-2.72c0-.76-.61-1.37-1.36-1.37ZM35.72,31.63h-2.72c-.76,0-1.36.61-1.36,1.36v2.73c0,.75.61,1.36,1.36,1.36h2.72c.76,0,1.37-.61,1.37-1.36v-2.73c0-.75-.61-1.36-1.37-1.36ZM35.72,23.45h-2.72c-.76,0-1.36.61-1.36,1.37v2.72c0,.75.61,1.36,1.36,1.36h2.72c.76,0,1.37-.61,1.37-1.36v-2.72c0-.76-.61-1.37-1.37-1.37ZM33,39.82c-.76,0-1.36.61-1.36,1.36v2.73c0,.22.05.43.14.61.76-1.71,1.75-3.29,2.93-4.7h-1.71ZM33,39.82c-.76,0-1.36.61-1.36,1.36v2.73c0,.22.05.43.14.61.76-1.71,1.75-3.29,2.93-4.7h-1.71ZM35.72,23.45h-2.72c-.76,0-1.36.61-1.36,1.37v2.72c0,.75.61,1.36,1.36,1.36h2.72c.76,0,1.37-.61,1.37-1.36v-2.72c0-.76-.61-1.37-1.37-1.37ZM35.72,31.63h-2.72c-.76,0-1.36.61-1.36,1.36v2.73c0,.75.61,1.36,1.36,1.36h2.72c.76,0,1.37-.61,1.37-1.36v-2.73c0-.75-.61-1.36-1.37-1.36ZM43.91,23.45h-2.72c-.76,0-1.37.61-1.37,1.37v2.72c0,.75.61,1.36,1.37,1.36h2.72c.75,0,1.36-.61,1.36-1.36v-2.72c0-.76-.61-1.37-1.36-1.37ZM43.91,31.63h-2.72c-.76,0-1.37.61-1.37,1.36v2.5c1.67-.99,3.51-1.75,5.46-2.2v-.29c0-.75-.61-1.36-1.36-1.36ZM52.1,7.08h-19.38c-.68.13-1.09.68-1.09,1.36v10.91c0,.76.61,1.37,1.36,1.37h19.1c.75,0,1.36-.61,1.36-1.37v-10.91c0-.75-.61-1.36-1.36-1.36ZM50.74,17.99h-16.38v-8.19h16.38v8.19ZM52.1,23.45h-2.73c-.75,0-1.36.61-1.36,1.37v2.72c0,.75.61,1.36,1.36,1.36h2.73c.75,0,1.36-.61,1.36-1.36v-2.72c0-.76-.61-1.37-1.36-1.37ZM52.1,31.63h-2.73c-.7,0-1.28.53-1.34,1.21.6-.07,1.21-.09,1.83-.09,1.24,0,2.44.11,3.61.33v-.09c0-.75-.61-1.36-1.36-1.36ZM52.1,31.63h-2.73c-.7,0-1.28.53-1.34,1.21.6-.07,1.21-.09,1.83-.09,1.24,0,2.44.11,3.61.33v-.09c0-.75-.61-1.36-1.36-1.36ZM52.1,23.45h-2.73c-.75,0-1.36.61-1.36,1.37v2.72c0,.75.61,1.36,1.36,1.36h2.73c.75,0,1.36-.61,1.36-1.36v-2.72c0-.76-.61-1.37-1.36-1.37ZM52.1,7.08h-19.38c-.68.13-1.09.68-1.09,1.36v10.91c0,.76.61,1.37,1.36,1.37h19.1c.75,0,1.36-.61,1.36-1.37v-10.91c0-.75-.61-1.36-1.36-1.36ZM50.74,17.99h-16.38v-8.19h16.38v8.19ZM43.91,31.63h-2.72c-.76,0-1.37.61-1.37,1.36v2.5c1.67-.99,3.51-1.75,5.46-2.2v-.29c0-.75-.61-1.36-1.36-1.36ZM43.91,23.45h-2.72c-.76,0-1.37.61-1.37,1.37v2.72c0,.75.61,1.36,1.37,1.36h2.72c.75,0,1.36-.61,1.36-1.36v-2.72c0-.76-.61-1.37-1.36-1.37ZM35.72,31.63h-2.72c-.76,0-1.36.61-1.36,1.36v2.73c0,.75.61,1.36,1.36,1.36h2.72c.76,0,1.37-.61,1.37-1.36v-2.73c0-.75-.61-1.36-1.37-1.36ZM35.72,23.45h-2.72c-.76,0-1.36.61-1.36,1.37v2.72c0,.75.61,1.36,1.36,1.36h2.72c.76,0,1.37-.61,1.37-1.36v-2.72c0-.76-.61-1.37-1.37-1.37ZM33,39.82c-.76,0-1.36.61-1.36,1.36v2.73c0,.22.05.43.14.61.76-1.71,1.75-3.29,2.93-4.7h-1.71ZM60.08,5.37c-1.64-3.89-3.69-5.12-5.26-5.12h-27.28c-2.25,0-4.09,1.84-4.09,4.09v47.75c0,2.25,1.84,4.09,4.09,4.09h2.9c-.17-.89-.28-1.8-.32-2.72h-2.58c-.76,0-1.37-.61-1.37-1.37V4.34c0-.75.61-1.36,1.37-1.36h27.28s1.4.21,2.73,3.41c1.36,3.27,2.73,9.68,2.73,21.14,0,3-.09,5.66-.26,8.04.92.56,1.8,1.19,2.61,1.89.24-2.86.37-6.15.37-9.93,0-11.74-1.3-18.28-2.93-22.17ZM52.1,31.63h-2.73c-.7,0-1.28.53-1.34,1.21.6-.07,1.21-.09,1.83-.09,1.24,0,2.44.11,3.61.33v-.09c0-.75-.61-1.36-1.36-1.36ZM52.1,23.45h-2.73c-.75,0-1.36.61-1.36,1.37v2.72c0,.75.61,1.36,1.36,1.36h2.73c.75,0,1.36-.61,1.36-1.36v-2.72c0-.76-.61-1.37-1.36-1.37ZM52.1,7.08h-19.38c-.68.13-1.09.68-1.09,1.36v10.91c0,.76.61,1.37,1.36,1.37h19.1c.75,0,1.36-.61,1.36-1.37v-10.91c0-.75-.61-1.36-1.36-1.36ZM50.74,17.99h-16.38v-8.19h16.38v8.19ZM43.91,31.63h-2.72c-.76,0-1.37.61-1.37,1.36v2.5c1.67-.99,3.51-1.75,5.46-2.2v-.29c0-.75-.61-1.36-1.36-1.36ZM43.91,23.45h-2.72c-.76,0-1.37.61-1.37,1.37v2.72c0,.75.61,1.36,1.37,1.36h2.72c.75,0,1.36-.61,1.36-1.36v-2.72c0-.76-.61-1.37-1.36-1.37ZM35.72,31.63h-2.72c-.76,0-1.36.61-1.36,1.36v2.73c0,.75.61,1.36,1.36,1.36h2.72c.76,0,1.37-.61,1.37-1.36v-2.73c0-.75-.61-1.36-1.37-1.36ZM35.72,23.45h-2.72c-.76,0-1.36.61-1.36,1.37v2.72c0,.75.61,1.36,1.36,1.36h2.72c.76,0,1.37-.61,1.37-1.36v-2.72c0-.76-.61-1.37-1.37-1.37ZM33,39.82c-.76,0-1.36.61-1.36,1.36v2.73c0,.22.05.43.14.61.76-1.71,1.75-3.29,2.93-4.7h-1.71ZM33,39.82c-.76,0-1.36.61-1.36,1.36v2.73c0,.22.05.43.14.61.76-1.71,1.75-3.29,2.93-4.7h-1.71ZM35.72,23.45h-2.72c-.76,0-1.36.61-1.36,1.37v2.72c0,.75.61,1.36,1.36,1.36h2.72c.76,0,1.37-.61,1.37-1.36v-2.72c0-.76-.61-1.37-1.37-1.37ZM35.72,31.63h-2.72c-.76,0-1.36.61-1.36,1.36v2.73c0,.75.61,1.36,1.36,1.36h2.72c.76,0,1.37-.61,1.37-1.36v-2.73c0-.75-.61-1.36-1.37-1.36ZM43.91,23.45h-2.72c-.76,0-1.37.61-1.37,1.37v2.72c0,.75.61,1.36,1.37,1.36h2.72c.75,0,1.36-.61,1.36-1.36v-2.72c0-.76-.61-1.37-1.36-1.37ZM43.91,31.63h-2.72c-.76,0-1.37.61-1.37,1.36v2.5c1.67-.99,3.51-1.75,5.46-2.2v-.29c0-.75-.61-1.36-1.36-1.36ZM52.1,7.08h-19.38c-.68.13-1.09.68-1.09,1.36v10.91c0,.76.61,1.37,1.36,1.37h19.1c.75,0,1.36-.61,1.36-1.37v-10.91c0-.75-.61-1.36-1.36-1.36ZM50.74,17.99h-16.38v-8.19h16.38v8.19ZM52.1,23.45h-2.73c-.75,0-1.36.61-1.36,1.37v2.72c0,.75.61,1.36,1.36,1.36h2.73c.75,0,1.36-.61,1.36-1.36v-2.72c0-.76-.61-1.37-1.36-1.37ZM52.1,31.63h-2.73c-.7,0-1.28.53-1.34,1.21.6-.07,1.21-.09,1.83-.09,1.24,0,2.44.11,3.61.33v-.09c0-.75-.61-1.36-1.36-1.36ZM52.1,31.63h-2.73c-.7,0-1.28.53-1.34,1.21.6-.07,1.21-.09,1.83-.09,1.24,0,2.44.11,3.61.33v-.09c0-.75-.61-1.36-1.36-1.36ZM52.1,23.45h-2.73c-.75,0-1.36.61-1.36,1.37v2.72c0,.75.61,1.36,1.36,1.36h2.73c.75,0,1.36-.61,1.36-1.36v-2.72c0-.76-.61-1.37-1.36-1.37ZM52.1,7.08h-19.38c-.68.13-1.09.68-1.09,1.36v10.91c0,.76.61,1.37,1.36,1.37h19.1c.75,0,1.36-.61,1.36-1.37v-10.91c0-.75-.61-1.36-1.36-1.36ZM50.74,17.99h-16.38v-8.19h16.38v8.19ZM43.91,31.63h-2.72c-.76,0-1.37.61-1.37,1.36v2.5c1.67-.99,3.51-1.75,5.46-2.2v-.29c0-.75-.61-1.36-1.36-1.36ZM43.91,23.45h-2.72c-.76,0-1.37.61-1.37,1.37v2.72c0,.75.61,1.36,1.37,1.36h2.72c.75,0,1.36-.61,1.36-1.36v-2.72c0-.76-.61-1.37-1.36-1.37ZM35.72,31.63h-2.72c-.76,0-1.36.61-1.36,1.36v2.73c0,.75.61,1.36,1.36,1.36h2.72c.76,0,1.37-.61,1.37-1.36v-2.73c0-.75-.61-1.36-1.37-1.36ZM35.72,23.45h-2.72c-.76,0-1.36.61-1.36,1.37v2.72c0,.75.61,1.36,1.36,1.36h2.72c.76,0,1.37-.61,1.37-1.36v-2.72c0-.76-.61-1.37-1.37-1.37ZM33,39.82c-.76,0-1.36.61-1.36,1.36v2.73c0,.22.05.43.14.61.76-1.71,1.75-3.29,2.93-4.7h-1.71ZM35.72,23.45h-2.72c-.76,0-1.36.61-1.36,1.37v2.72c0,.75.61,1.36,1.36,1.36h2.72c.76,0,1.37-.61,1.37-1.36v-2.72c0-.76-.61-1.37-1.37-1.37ZM35.72,31.63h-2.72c-.76,0-1.36.61-1.36,1.36v2.73c0,.75.61,1.36,1.36,1.36h2.72c.76,0,1.37-.61,1.37-1.36v-2.73c0-.75-.61-1.36-1.37-1.36ZM33,39.82c-.76,0-1.36.61-1.36,1.36v2.73c0,.22.05.43.14.61.76-1.71,1.75-3.29,2.93-4.7h-1.71ZM43.91,23.45h-2.72c-.76,0-1.37.61-1.37,1.37v2.72c0,.75.61,1.36,1.37,1.36h2.72c.75,0,1.36-.61,1.36-1.36v-2.72c0-.76-.61-1.37-1.36-1.37ZM43.91,31.63h-2.72c-.76,0-1.37.61-1.37,1.36v2.5c1.67-.99,3.51-1.75,5.46-2.2v-.29c0-.75-.61-1.36-1.36-1.36ZM52.1,7.08h-19.38c-.68.13-1.09.68-1.09,1.36v10.91c0,.76.61,1.37,1.36,1.37h19.1c.75,0,1.36-.61,1.36-1.37v-10.91c0-.75-.61-1.36-1.36-1.36ZM50.74,17.99h-16.38v-8.19h16.38v8.19ZM52.1,23.45h-2.73c-.75,0-1.36.61-1.36,1.37v2.72c0,.75.61,1.36,1.36,1.36h2.73c.75,0,1.36-.61,1.36-1.36v-2.72c0-.76-.61-1.37-1.36-1.37ZM52.1,31.63h-2.73c-.7,0-1.28.53-1.34,1.21.6-.07,1.21-.09,1.83-.09,1.24,0,2.44.11,3.61.33v-.09c0-.75-.61-1.36-1.36-1.36ZM52.1,31.63h-2.73c-.7,0-1.28.53-1.34,1.21.6-.07,1.21-.09,1.83-.09,1.24,0,2.44.11,3.61.33v-.09c0-.75-.61-1.36-1.36-1.36ZM52.1,23.45h-2.73c-.75,0-1.36.61-1.36,1.37v2.72c0,.75.61,1.36,1.36,1.36h2.73c.75,0,1.36-.61,1.36-1.36v-2.72c0-.76-.61-1.37-1.36-1.37ZM52.1,7.08h-19.38c-.68.13-1.09.68-1.09,1.36v10.91c0,.76.61,1.37,1.36,1.37h19.1c.75,0,1.36-.61,1.36-1.37v-10.91c0-.75-.61-1.36-1.36-1.36ZM50.74,17.99h-16.38v-8.19h16.38v8.19ZM43.91,31.63h-2.72c-.76,0-1.37.61-1.37,1.36v2.5c1.67-.99,3.51-1.75,5.46-2.2v-.29c0-.75-.61-1.36-1.36-1.36ZM43.91,23.45h-2.72c-.76,0-1.37.61-1.37,1.37v2.72c0,.75.61,1.36,1.37,1.36h2.72c.75,0,1.36-.61,1.36-1.36v-2.72c0-.76-.61-1.37-1.36-1.37ZM33,39.82c-.76,0-1.36.61-1.36,1.36v2.73c0,.22.05.43.14.61.76-1.71,1.75-3.29,2.93-4.7h-1.71ZM35.72,31.63h-2.72c-.76,0-1.36.61-1.36,1.36v2.73c0,.75.61,1.36,1.36,1.36h2.72c.76,0,1.37-.61,1.37-1.36v-2.73c0-.75-.61-1.36-1.37-1.36ZM35.72,23.45h-2.72c-.76,0-1.36.61-1.36,1.37v2.72c0,.75.61,1.36,1.36,1.36h2.72c.76,0,1.37-.61,1.37-1.36v-2.72c0-.76-.61-1.37-1.37-1.37ZM35.72,23.45h-2.72c-.76,0-1.36.61-1.36,1.37v2.72c0,.75.61,1.36,1.36,1.36h2.72c.76,0,1.37-.61,1.37-1.36v-2.72c0-.76-.61-1.37-1.37-1.37ZM35.72,31.63h-2.72c-.76,0-1.36.61-1.36,1.36v2.73c0,.75.61,1.36,1.36,1.36h2.72c.76,0,1.37-.61,1.37-1.36v-2.73c0-.75-.61-1.36-1.37-1.36ZM33,39.82c-.76,0-1.36.61-1.36,1.36v2.73c0,.22.05.43.14.61.76-1.71,1.75-3.29,2.93-4.7h-1.71ZM43.91,23.45h-2.72c-.76,0-1.37.61-1.37,1.37v2.72c0,.75.61,1.36,1.37,1.36h2.72c.75,0,1.36-.61,1.36-1.36v-2.72c0-.76-.61-1.37-1.36-1.37ZM43.91,31.63h-2.72c-.76,0-1.37.61-1.37,1.36v2.5c1.67-.99,3.51-1.75,5.46-2.2v-.29c0-.75-.61-1.36-1.36-1.36ZM52.1,7.08h-19.38c-.68.13-1.09.68-1.09,1.36v10.91c0,.76.61,1.37,1.36,1.37h19.1c.75,0,1.36-.61,1.36-1.37v-10.91c0-.75-.61-1.36-1.36-1.36ZM50.74,17.99h-16.38v-8.19h16.38v8.19ZM52.1,23.45h-2.73c-.75,0-1.36.61-1.36,1.37v2.72c0,.75.61,1.36,1.36,1.36h2.73c.75,0,1.36-.61,1.36-1.36v-2.72c0-.76-.61-1.37-1.36-1.37ZM52.1,31.63h-2.73c-.7,0-1.28.53-1.34,1.21.6-.07,1.21-.09,1.83-.09,1.24,0,2.44.11,3.61.33v-.09c0-.75-.61-1.36-1.36-1.36ZM52.1,7.08h-19.38c-.68.13-1.09.68-1.09,1.36v10.91c0,.76.61,1.37,1.36,1.37h19.1c.75,0,1.36-.61,1.36-1.37v-10.91c0-.75-.61-1.36-1.36-1.36ZM50.74,17.99h-16.38v-8.19h16.38v8.19ZM35.72,23.45h-2.72c-.76,0-1.36.61-1.36,1.37v2.72c0,.75.61,1.36,1.36,1.36h2.72c.76,0,1.37-.61,1.37-1.36v-2.72c0-.76-.61-1.37-1.37-1.37ZM43.91,23.45h-2.72c-.76,0-1.37.61-1.37,1.37v2.72c0,.75.61,1.36,1.37,1.36h2.72c.75,0,1.36-.61,1.36-1.36v-2.72c0-.76-.61-1.37-1.36-1.37ZM52.1,23.45h-2.73c-.75,0-1.36.61-1.36,1.37v2.72c0,.75.61,1.36,1.36,1.36h2.73c.75,0,1.36-.61,1.36-1.36v-2.72c0-.76-.61-1.37-1.36-1.37ZM35.72,31.63h-2.72c-.76,0-1.36.61-1.36,1.36v2.73c0,.75.61,1.36,1.36,1.36h2.72c.76,0,1.37-.61,1.37-1.36v-2.73c0-.75-.61-1.36-1.37-1.36ZM43.91,31.63h-2.72c-.76,0-1.37.61-1.37,1.36v2.5c1.67-.99,3.51-1.75,5.46-2.2v-.29c0-.75-.61-1.36-1.36-1.36ZM52.1,31.63h-2.73c-.7,0-1.28.53-1.34,1.21.6-.07,1.21-.09,1.83-.09,1.24,0,2.44.11,3.61.33v-.09c0-.75-.61-1.36-1.36-1.36ZM33,39.82c-.76,0-1.36.61-1.36,1.36v2.73c0,.22.05.43.14.61.76-1.71,1.75-3.29,2.93-4.7h-1.71Z"/>
        <g>
          <path class="cls-2" d="M31.39,59.54c.43,1.15.98,2.23,1.61,3.27-1.86,3.37-5.45,5.67-9.56,5.67h-1.36c-6.01,0-10.93-4.92-10.93-10.92v-1.36h-6.82c-2.25,0-4.09-1.85-4.09-4.09v-12.28c0-2.86.4-4.16.75-5.32.27-1.16.61-2.25.61-5.6s-.27-5.25-.61-7.1c-.35-1.84-.75-3.67-.75-6.54V4.34C.25,2.09,2.09.25,4.34.25h13.65c2.24,0,4.09,1.84,4.09,4.09v10.92c0,2.87-.42,4.64-.76,6.54-.34,1.92-.61,3.76-.61,7.1s.27,4.43.61,5.6.76,2.46.76,5.32v12.28c0,2.24-1.85,4.09-4.09,4.09h-4.1v1.36c0,4.51,3.68,8.19,8.2,8.19h1.36c3.82,0,7.05-2.65,7.94-6.21ZM19.35,52.1v-12.28c0-2.59-.22-3.34-.62-4.57s-.74-2.87-.74-6.35.4-5.65.74-7.57c.34-1.91.62-3.48.62-6.07V4.34c0-.74-.62-1.36-1.36-1.36H4.34c-.75,0-1.36.62-1.36,1.36v10.92c0,2.59.26,4.23.61,6.07.35,1.83.75,4.08.75,7.57s-.4,5.12-.75,6.35-.61,1.98-.61,4.57v12.28c0,.75.61,1.37,1.36,1.37h7.91c.2-.08.34-.08.54,0h5.19c.74,0,1.36-.62,1.36-1.37Z"/>
          <path class="cls-1" d="M19.35,39.82v12.28c0,.75-.62,1.37-1.36,1.37h-5.19c-.21-.08-.35-.08-.54,0h-7.91c-.75,0-1.36-.62-1.36-1.37v-12.28c0-2.59.26-3.34.61-4.57s.75-2.87.75-6.35-.4-5.74-.75-7.57c-.35-1.84-.61-3.48-.61-6.07V4.34c0-.74.61-1.36,1.36-1.36h13.65c.74,0,1.36.62,1.36,1.36v10.92c0,2.59-.28,4.17-.62,6.07-.34,1.92-.74,4.08-.74,7.57s.34,5.12.74,6.35.62,1.98.62,4.57Z"/>
        </g>
        <g>
          <path class="cls-2" d="M49.88,46.37c-3.78,0-7.31,2.03-9.25,5.32-.29.44-.15,1.06.29,1.36.44.29,1.06.15,1.36-.29l.05-.05c1.55-2.71,4.45-4.36,7.55-4.36s6,1.65,7.55,4.36c.24.48.82.68,1.31.39.48-.24.68-.82.39-1.31l-.05-.05c-1.89-3.34-5.42-5.37-9.2-5.37Z"/>
          <path class="cls-2" d="M49.88,51.18c-2.42,0-4.65,1.31-5.86,3.39-.29.48-.1,1.06.34,1.31s1.06.1,1.31-.34c.87-1.5,2.47-2.42,4.21-2.42s3.34.92,4.21,2.42c.29.48.87.63,1.31.34s.63-.87.34-1.31c-1.21-2.08-3.44-3.39-5.86-3.39Z"/>
          <path class="cls-2" d="M49.88,55.71c-1.02,0-1.98.53-2.52,1.45-.29.48-.1,1.06.34,1.31s1.06.1,1.31-.34c.19-.29.48-.48.82-.48s.68.19.82.48c.29.48.87.63,1.31.34s.63-.87.34-1.31c-.44-.92-1.4-1.45-2.42-1.45Z"/>
        </g>
        <path class="cls-2" d="M49.87,68.75c-8.96,0-16.26-7.29-16.26-16.26s7.29-16.26,16.26-16.26,16.26,7.29,16.26,16.26-7.29,16.26-16.26,16.26ZM49.87,39.05c-7.41,0-13.44,6.03-13.44,13.44s6.03,13.44,13.44,13.44,13.44-6.03,13.44-13.44-6.03-13.44-13.44-13.44Z"/>
      </g>
    </g>
  </g>
</svg>