<?xml version="1.0" encoding="UTF-8"?>
<svg id="Layer_2" xmlns="http://www.w3.org/2000/svg" viewBox="0 0 71.64 85.44">
  <defs>
    <style>
      .cls-1 {
        fill: #fff;
      }

      .cls-2 {
        fill: #07aea5;
      }
    </style>
  </defs>
  <g id="_Сине-зеленый" data-name="Сине-зеленый">
    <g id="wi-fi_trusted">
      <g>
        <path d="M19.58,77.43v1.56h1.08v1.24h-1.08v3.16c0,.23.04.4.13.5s.26.15.52.15c.19,0,.35-.01.5-.04v1.28c-.33.1-.67.15-1.03.15-1.19,0-1.79-.6-1.82-1.8v-3.42h-.93v-1.24h.93v-1.56h1.69Z"/>
        <path d="M25.17,80.57c-.23-.03-.43-.05-.61-.05-.64,0-1.06.22-1.26.65v4.15h-1.69v-6.34h1.6l.05.76c.34-.58.81-.87,1.41-.87.19,0,.36.03.53.08l-.02,1.63Z"/>
        <path d="M29.78,84.68c-.42.51-1,.76-1.73.76-.68,0-1.2-.2-1.56-.59s-.54-.96-.55-1.72v-4.15h1.69v4.1c0,.66.3.99.9.99s.97-.2,1.18-.6v-4.49h1.7v6.34h-1.59l-.05-.64Z"/>
        <path d="M36.13,83.57c0-.21-.1-.37-.31-.49s-.53-.23-.99-.32c-1.51-.32-2.26-.96-2.26-1.92,0-.56.23-1.03.7-1.41s1.08-.57,1.83-.57c.8,0,1.45.19,1.93.57s.72.87.72,1.48h-1.69c0-.24-.08-.44-.23-.6s-.4-.24-.73-.24c-.29,0-.51.06-.66.19s-.23.29-.23.49c0,.19.09.34.27.45s.48.21.9.3.78.18,1.07.28c.89.33,1.34.9,1.34,1.71,0,.58-.25,1.05-.74,1.4s-1.14.54-1.92.54c-.53,0-1-.09-1.42-.28s-.74-.45-.97-.78-.35-.69-.35-1.07h1.61c.02.3.13.53.33.69s.48.24.83.24c.32,0,.57-.06.74-.18s.25-.28.25-.48Z"/>
        <path d="M40.9,77.43v1.56h1.08v1.24h-1.08v3.16c0,.23.04.4.13.5s.26.15.52.15c.19,0,.35-.01.5-.04v1.28c-.33.1-.67.15-1.03.15-1.19,0-1.79-.6-1.82-1.8v-3.42h-.93v-1.24h.93v-1.56h1.69Z"/>
        <path d="M45.84,85.44c-.93,0-1.69-.29-2.27-.86s-.88-1.33-.88-2.28v-.16c0-.64.12-1.21.37-1.71s.59-.89,1.05-1.16.97-.41,1.54-.41c.87,0,1.55.27,2.05.82s.75,1.32.75,2.33v.69h-4.04c.05.41.22.75.5,1s.62.38,1.05.38c.65,0,1.16-.24,1.53-.71l.83.93c-.25.36-.6.64-1.03.84s-.91.3-1.44.3ZM45.65,80.23c-.34,0-.61.11-.82.34s-.34.55-.4.98h2.36v-.14c0-.38-.11-.67-.3-.87s-.47-.31-.83-.31Z"/>
        <path d="M49.15,82.11c0-.99.22-1.78.67-2.36s1.05-.88,1.82-.88c.62,0,1.13.23,1.53.69v-3.23h1.7v9h-1.53l-.08-.67c-.42.53-.96.79-1.63.79-.75,0-1.34-.29-1.8-.88s-.68-1.41-.68-2.45ZM50.84,82.24c0,.59.1,1.05.31,1.37.21.32.51.48.9.48.52,0,.89-.22,1.11-.66v-2.51c-.21-.44-.58-.66-1.1-.66-.82,0-1.22.66-1.22,1.99Z"/>
      </g>
      <g>
        <path class="cls-1" d="M57.35,42.02c4.11,8.18,6.26,17.1,6.54,26.05l-7.5.06c-.28-8.61-2.54-17.15-6.84-24.83-11.44-.21-20.72-9.31-21.22-20.67-7.72-4.17-16.36-6.69-24.3-7.28l.07-7.5c8.22.6,17.12,2.97,25.31,6.97C32.26,6.21,40.39,0,49.97,0c11.97,0,21.67,9.69,21.67,21.65,0,9.36-5.96,17.35-14.29,20.37Z"/>
        <path class="cls-1" d="M57.35,42.02c-2.31.83-4.79,1.29-7.38,1.29-.14,0-.28,0-.42,0,0-.02-.03-.05-.04-.07l7.81-1.28s.02.05.03.07Z"/>
        <g>
          <path class="cls-2" d="M67.83,70.05l-.03,1.85h-15l.04-1.86c-.08-9.55-2.72-19.08-8.06-27.38,1.52.38,3.11.59,4.73.62,4.32,7.7,6.59,16.26,6.88,24.9l7.5-.06c-.28-8.98-2.44-17.92-6.57-26.12,1.21-.43,2.36-.97,3.45-1.6,4.69,9.3,7.04,19.48,7.05,29.65Z"/>
          <path class="cls-2" d="M45.34,69.96l-.04,1.86-15.06.06.03-1.86c0-7.03-2.53-13.98-7.81-19.45s-13.34-8.41-20.37-8.67l-1.86-.03v-15.06l1.86.04c10.68.39,23.16,4.99,31.17,13.3,8.01,8.3,12.05,19.13,12.06,29.8ZM33.83,68.16h7.56c-.43-9.22-3.91-18.25-10.82-25.4S12.97,31.63,3.76,30.86v7.6c7.29.66,15.95,3.84,21.42,9.5,5.47,5.68,8.26,12.89,8.66,20.2Z"/>
          <path class="cls-1" d="M41.4,68.17h-7.56c-.4-7.32-3.19-14.53-8.66-20.21-5.47-5.67-14.13-8.85-21.42-9.5v-7.6c9.21.77,19.92,4.74,26.82,11.9s10.38,16.18,10.82,25.41Z"/>
          <path class="cls-2" d="M30.99,11.25c-.62,1.13-1.14,2.31-1.54,3.55-8.2-4.01-17.12-6.39-25.36-6.99l-.07,7.5c7.95.59,16.6,3.12,24.33,7.3.07,1.63.31,3.21.73,4.73-8.34-5.12-18.16-8.07-26.92-8.41l-1.92-.1V3.82l2.39.05c9.28.36,19.23,2.9,28.35,7.38Z"/>
          <path class="cls-2" d="M22.85,70.02l-.03,1.86-20.64.08-1.92.04v-22.48l1.86.03c5.04.23,11.12,2.25,14.95,6.23,3.85,3.99,5.74,9.19,5.78,14.24ZM4.17,68.22h14.6c-.46-3.59-1.73-7.06-4.4-9.83-2.66-2.77-7.04-4.1-10.6-4.69l.4,14.52Z"/>
          <path class="cls-1" d="M18.77,68.22H4.17l-.4-14.52c3.56.59,7.94,1.92,10.6,4.69,2.67,2.77,3.94,6.24,4.4,9.83Z"/>
        </g>
        <path class="cls-2" d="M49.97,7.58c7.76,0,14.07,6.31,14.07,14.07s-6.31,14.07-14.07,14.07-14.07-6.31-14.07-14.07,6.31-14.07,14.07-14.07M49.97,3.83c-9.84,0-17.82,7.98-17.82,17.82s7.98,17.82,17.82,17.82,17.82-7.98,17.82-17.82S59.81,3.83,49.97,3.83h0Z"/>
        <path class="cls-2" d="M47.43,28.44l-5.27-5.27c-.73-.73-.73-1.93,0-2.66.73-.73,1.93-.73,2.66,0l2.61,2.61,7.7-7.7c.73-.73,1.93-.73,2.66,0,.73.73.73,1.93,0,2.66l-10.36,10.36Z"/>
      </g>
    </g>
  </g>
</svg>