<?xml version="1.0" encoding="UTF-8"?>
<svg id="Layer_2" xmlns="http://www.w3.org/2000/svg" viewBox="0 0 72 72">
  <defs>
    <style>
      .cls-1 {
        fill: #fff;
      }

      .cls-2 {
        fill: #55b364;
      }
    </style>
  </defs>
  <g id="_Зеленый" data-name="Зеленый">
    <g id="DataBase-UDSF">
      <path class="cls-2" d="M36,0C16.12,0,0,4.03,0,9v54c0,4.97,16.12,9,36,9s36-4.03,36-9V9c0-4.97-16.12-9-36-9ZM12.67,5.22c6.39-1.43,14.68-2.22,23.33-2.22s16.94.79,23.33,2.22c6.9,1.54,8.99,3.2,9.53,3.78-.54.58-2.63,2.24-9.53,3.78-6.39,1.43-14.68,2.22-23.33,2.22s-16.94-.79-23.33-2.22c-6.9-1.54-8.99-3.2-9.53-3.78.54-.58,2.63-2.24,9.53-3.78ZM59.33,66.78c-6.39,1.43-14.68,2.22-23.33,2.22s-16.94-.79-23.33-2.22c-6.9-1.54-9.12-3.2-9.67-3.78V12.6c5.55,3.18,18.24,5.4,33,5.4s27.45-2.22,33-5.4v50.4c-.55.58-2.77,2.24-9.67,3.78Z"/>
      <path class="cls-1" d="M68.86,9c-.54.58-2.63,2.24-9.53,3.78-6.39,1.43-14.68,2.22-23.33,2.22s-16.94-.79-23.33-2.22c-6.9-1.54-8.99-3.2-9.53-3.78.54-.58,2.63-2.24,9.53-3.78,6.39-1.43,14.68-2.22,23.33-2.22s16.94.79,23.33,2.22c6.9,1.54,8.99,3.2,9.53,3.78Z"/>
      <path class="cls-1" d="M69,12.6v50.4c-.55.58-2.77,2.24-9.67,3.78-6.39,1.43-14.68,2.22-23.33,2.22s-16.94-.79-23.33-2.22c-6.9-1.54-9.12-3.2-9.67-3.78V12.6c5.55,3.18,18.24,5.4,33,5.4s27.45-2.22,33-5.4Z"/>
      <g>
        <path d="M27.76,36.13v6.09c0,1.01-.32,1.81-.95,2.4s-1.5.88-2.59.88-1.94-.29-2.57-.86-.96-1.36-.97-2.35v-6.16h1.9v6.1c0,.6.14,1.05.43,1.32.29.28.69.42,1.2.42,1.07,0,1.62-.56,1.63-1.69v-6.15h1.91Z"/>
        <path d="M29.32,45.38v-9.24h2.84c.81,0,1.54.18,2.18.55.64.37,1.14.89,1.5,1.56.36.68.54,1.44.54,2.3v.43c0,.86-.18,1.62-.53,2.29s-.85,1.19-1.49,1.56c-.64.37-1.37.55-2.18.56h-2.86ZM31.23,37.68v6.17h.92c.75,0,1.31-.24,1.71-.73.39-.49.59-1.18.6-2.09v-.49c0-.94-.19-1.65-.58-2.14-.39-.48-.96-.73-1.71-.73h-.94Z"/>
        <path d="M42.56,42.95c0-.36-.13-.64-.38-.83-.25-.19-.71-.4-1.37-.61-.66-.21-1.18-.42-1.57-.63-1.05-.57-1.57-1.33-1.57-2.29,0-.5.14-.94.42-1.34.28-.39.69-.7,1.21-.92.53-.22,1.12-.33,1.77-.33s1.25.12,1.77.36c.52.24.92.58,1.2,1.01.29.44.43.93.43,1.49h-1.9c0-.42-.13-.75-.4-.99-.27-.23-.64-.35-1.12-.35s-.83.1-1.09.3c-.26.2-.39.46-.39.78,0,.3.15.55.45.76.3.2.75.39,1.34.57,1.08.33,1.87.73,2.37,1.21.49.48.74,1.08.74,1.8,0,.8-.3,1.43-.91,1.88-.6.46-1.42.68-2.44.68-.71,0-1.36-.13-1.94-.39-.58-.26-1.03-.62-1.34-1.07-.31-.45-.46-.98-.46-1.57h1.91c0,1.02.61,1.53,1.83,1.53.45,0,.81-.09,1.06-.28.25-.18.38-.44.38-.77Z"/>
        <path d="M51.32,41.6h-3.66v3.78h-1.9v-9.24h6.02v1.54h-4.11v2.39h3.66v1.54Z"/>
      </g>
    </g>
  </g>
</svg>