<?xml version="1.0" encoding="UTF-8"?>
<svg id="Layer_2" xmlns="http://www.w3.org/2000/svg" viewBox="0 0 72 72">
  <defs>
    <style>
      .cls-1 {
        stroke-width: 3px;
      }

      .cls-1, .cls-2 {
        fill: none;
        stroke: #55b364;
        stroke-miterlimit: 10;
      }

      .cls-3 {
        fill: #fff;
      }

      .cls-4 {
        fill: #55b364;
      }

      .cls-2 {
        stroke-width: 3px;
      }
    </style>
  </defs>
  <g id="_Зеленый" data-name="Зеленый">
    <g id="Exposure-пустая">
      <g>
        <path class="cls-3" d="M7.09,1.5h57.83c3.08,0,5.59,2.5,5.59,5.59v57.83c0,3.08-2.5,5.59-5.59,5.59H7.09c-3.08,0-5.59-2.5-5.59-5.59V7.09C1.5,4,4,1.5,7.09,1.5Z"/>
        <path class="cls-4" d="M64.91,3c2.25,0,4.09,1.83,4.09,4.09v57.83c0,2.25-1.83,4.09-4.09,4.09H7.09c-2.25,0-4.09-1.83-4.09-4.09V7.09c0-2.25,1.83-4.09,4.09-4.09h57.83M64.91,0H7.09C3.19,0,0,3.19,0,7.09v57.83c0,3.9,3.19,7.09,7.09,7.09h57.83c3.9,0,7.09-3.19,7.09-7.09V7.09c0-3.9-3.19-7.09-7.09-7.09h0Z"/>
      </g>
      <g>
        <path class="cls-4" d="M36,45.09c-5.01,0-9.09-4.08-9.09-9.09s4.08-9.09,9.09-9.09,9.09,4.08,9.09,9.09-4.08,9.09-9.09,9.09ZM36,29.91c-3.36,0-6.09,2.73-6.09,6.09s2.73,6.09,6.09,6.09,6.09-2.73,6.09-6.09-2.73-6.09-6.09-6.09Z"/>
        <g>
          <g id="_x3C_Radial_Repeat_x3E_">
            <circle class="cls-2" cx="16.26" cy="29.67" r="4.85"/>
          </g>
          <g id="_x3C_Radial_Repeat_x3E_-2" data-name="_x3C_Radial_Repeat_x3E_">
            <circle class="cls-2" cx="35.92" cy="15.27" r="4.85"/>
          </g>
          <g id="_x3C_Radial_Repeat_x3E_-3" data-name="_x3C_Radial_Repeat_x3E_">
            <circle class="cls-2" cx="55.69" cy="29.52" r="4.85"/>
          </g>
          <g id="_x3C_Radial_Repeat_x3E_-4" data-name="_x3C_Radial_Repeat_x3E_">
            <circle class="cls-2" cx="48.25" cy="52.73" r="4.85"/>
          </g>
          <g id="_x3C_Radial_Repeat_x3E_-5" data-name="_x3C_Radial_Repeat_x3E_">
            <circle class="cls-2" cx="23.88" cy="52.82" r="4.85"/>
          </g>
        </g>
        <g>
          <g id="_x3C_Radial_Repeat_x3E_-6" data-name="_x3C_Radial_Repeat_x3E_">
            <line class="cls-1" x1="36.01" y1="28.49" x2="36.03" y2="19.78"/>
          </g>
          <g id="_x3C_Radial_Repeat_x3E_-7" data-name="_x3C_Radial_Repeat_x3E_">
            <line class="cls-1" x1="43.14" y1="33.69" x2="51.43" y2="31.02"/>
          </g>
          <g id="_x3C_Radial_Repeat_x3E_-8" data-name="_x3C_Radial_Repeat_x3E_">
            <line class="cls-1" x1="40.4" y1="42.08" x2="45.51" y2="49.14"/>
          </g>
          <g id="_x3C_Radial_Repeat_x3E_-9" data-name="_x3C_Radial_Repeat_x3E_">
            <line class="cls-1" x1="31.58" y1="42.07" x2="26.44" y2="49.1"/>
          </g>
          <g id="_x3C_Radial_Repeat_x3E_-10" data-name="_x3C_Radial_Repeat_x3E_">
            <line class="cls-1" x1="28.86" y1="33.67" x2="20.59" y2="30.96"/>
          </g>
        </g>
      </g>
    </g>
  </g>
</svg>