<?xml version="1.0" encoding="UTF-8"?>
<svg id="Layer_2" xmlns="http://www.w3.org/2000/svg" viewBox="0 0 72.5 64.87">
  <defs>
    <style>
      .cls-1 {
        fill: none;
        stroke: #55b364;
        stroke-linecap: round;
        stroke-miterlimit: 10;
        stroke-width: 3px;
      }

      .cls-2 {
        fill: #fff;
      }

      .cls-3 {
        fill: #55b364;
      }
    </style>
  </defs>
  <g id="_Зеленый" data-name="Зеленый">
    <g id="Monitor-OSS">
      <g>
        <g>
          <path class="cls-3" d="M70.75,42.25c.82,0,1.5.67,1.5,1.5,0,4.12-3.38,7.5-7.5,7.5H7.75c-4.13,0-7.5-3.38-7.5-7.5,0-.83.67-1.5,1.5-1.5h3.82c-.52-.9-.82-1.88-.82-3V6.25C4.75,2.87,7.37.25,10.75.25h51c3.37,0,6,2.62,6,6v33c0,1.12-.3,2.1-.83,3h3.83ZM69.02,45.25H3.47c.68,1.72,2.33,3,4.28,3h57c2.02,0,3.67-1.28,4.27-3ZM64.75,39.25V6.25c0-1.73-1.28-3-3-3H10.75c-1.73,0-3,1.27-3,3v33c0,1.72,1.27,3,3,3h51c1.72,0,3-1.28,3-3Z"/>
          <path class="cls-2" d="M61.75,45.25h7.27c-.6,1.72-2.25,3-4.27,3H7.75c-1.95,0-3.6-1.28-4.28-3h58.28Z"/>
          <path class="cls-2" d="M64.75,6.25v33c0,1.72-1.28,3-3,3H10.75c-1.73,0-3-1.28-3-3V6.25c0-1.73,1.27-3,3-3h51c1.72,0,3,1.27,3,3Z"/>
        </g>
        <g>
          <circle class="cls-3" cx="17.75" cy="30.73" r="3"/>
          <circle class="cls-3" cx="30.25" cy="16.44" r="3"/>
          <circle class="cls-3" cx="46.61" cy="26.93" r="3"/>
          <polyline class="cls-1" points="17.75 30.73 30.25 16.44 46.61 26.93 58.14 14.88"/>
        </g>
      </g>
      <g>
        <path d="M32.5,60.68c0,.84-.15,1.58-.45,2.21s-.72,1.12-1.27,1.46-1.19.52-1.9.52-1.34-.17-1.89-.51-.98-.83-1.29-1.46-.46-1.36-.46-2.18v-.42c0-.84.15-1.58.45-2.22s.73-1.13,1.28-1.47,1.18-.51,1.9-.51,1.34.17,1.9.51.98.83,1.28,1.47.45,1.38.45,2.21v.38ZM30.72,60.29c0-.89-.16-1.57-.48-2.04s-.78-.7-1.37-.7-1.04.23-1.37.69-.48,1.13-.49,2.02v.42c0,.87.16,1.55.48,2.03s.78.72,1.38.72,1.04-.23,1.36-.69.48-1.14.48-2.02v-.42Z"/>
        <path d="M38.2,62.51c0-.33-.12-.59-.35-.76s-.66-.37-1.27-.56-1.09-.39-1.45-.58c-.97-.52-1.45-1.23-1.45-2.12,0-.46.13-.87.39-1.23s.63-.64,1.12-.85,1.03-.3,1.64-.3,1.15.11,1.63.33.85.53,1.11.93.4.86.4,1.37h-1.76c0-.39-.12-.69-.37-.91s-.59-.33-1.04-.33-.76.09-1,.27-.36.42-.36.72c0,.28.14.51.42.7s.69.36,1.23.53c1,.3,1.73.67,2.19,1.12s.69,1,.69,1.66c0,.74-.28,1.32-.84,1.74s-1.31.63-2.26.63c-.66,0-1.25-.12-1.79-.36s-.95-.57-1.23-.99-.42-.9-.42-1.45h1.76c0,.94.56,1.41,1.69,1.41.42,0,.74-.08.98-.25s.35-.41.35-.71Z"/>
        <path d="M45.58,62.51c0-.33-.12-.59-.35-.76s-.66-.37-1.27-.56-1.09-.39-1.45-.58c-.97-.52-1.45-1.23-1.45-2.12,0-.46.13-.87.39-1.23s.63-.64,1.12-.85,1.03-.3,1.64-.3,1.15.11,1.63.33.85.53,1.11.93.4.86.4,1.37h-1.76c0-.39-.12-.69-.37-.91s-.59-.33-1.04-.33-.76.09-1,.27-.36.42-.36.72c0,.28.14.51.42.7s.69.36,1.23.53c1,.3,1.73.67,2.19,1.12s.69,1,.69,1.66c0,.74-.28,1.32-.84,1.74s-1.31.63-2.26.63c-.66,0-1.25-.12-1.79-.36s-.95-.57-1.23-.99-.42-.9-.42-1.45h1.76c0,.94.56,1.41,1.69,1.41.42,0,.74-.08.98-.25s.35-.41.35-.71Z"/>
      </g>
    </g>
  </g>
</svg>