<?xml version="1.0" encoding="UTF-8"?>
<svg id="Layer_2" xmlns="http://www.w3.org/2000/svg" viewBox="0 0 72.5 51.5">
  <defs>
    <style>
      .cls-1 {
        fill: none;
        stroke: #55b364;
        stroke-linecap: round;
        stroke-miterlimit: 10;
        stroke-width: 3px;
      }

      .cls-2 {
        fill: #fff;
      }

      .cls-3 {
        fill: #55b364;
      }
    </style>
  </defs>
  <g id="_Зеленый" data-name="Зеленый">
    <g id="Monitor-пустая">
      <g>
        <path class="cls-3" d="M70.75,42.25c.82,0,1.5.67,1.5,1.5,0,4.12-3.38,7.5-7.5,7.5H7.75c-4.13,0-7.5-3.38-7.5-7.5,0-.83.67-1.5,1.5-1.5h3.82c-.52-.9-.82-1.88-.82-3V6.25C4.75,2.87,7.37.25,10.75.25h51c3.37,0,6,2.62,6,6v33c0,1.12-.3,2.1-.83,3h3.83ZM69.02,45.25H3.47c.68,1.72,2.33,3,4.28,3h57c2.02,0,3.67-1.28,4.27-3ZM64.75,39.25V6.25c0-1.73-1.28-3-3-3H10.75c-1.73,0-3,1.27-3,3v33c0,1.72,1.27,3,3,3h51c1.72,0,3-1.28,3-3Z"/>
        <path class="cls-2" d="M61.75,45.25h7.27c-.6,1.72-2.25,3-4.27,3H7.75c-1.95,0-3.6-1.28-4.28-3h58.28Z"/>
        <path class="cls-2" d="M64.75,6.25v33c0,1.72-1.28,3-3,3H10.75c-1.73,0-3-1.28-3-3V6.25c0-1.73,1.27-3,3-3h51c1.72,0,3,1.27,3,3Z"/>
      </g>
      <g>
        <circle class="cls-3" cx="17.75" cy="30.73" r="3"/>
        <circle class="cls-3" cx="30.25" cy="16.44" r="3"/>
        <circle class="cls-3" cx="46.61" cy="26.93" r="3"/>
        <polyline class="cls-1" points="17.75 30.73 30.25 16.44 46.61 26.93 58.14 14.88"/>
      </g>
    </g>
  </g>
</svg>