<?xml version="1.0" encoding="UTF-8"?>
<svg id="Layer_2" xmlns="http://www.w3.org/2000/svg" viewBox="0 0 72 85.15">
  <defs>
    <style>
      .cls-1 {
        fill: #fff;
      }

      .cls-2 {
        fill: #55b364;
      }

      .cls-3 {
        fill: none;
        stroke: #55b364;
        stroke-miterlimit: 10;
        stroke-width: 3px;
      }
    </style>
  </defs>
  <g id="_Зеленый" data-name="Зеленый">
    <g id="Protect-SS7FW">
      <g>
        <path d="M21.83,6.41c0-.33-.12-.59-.35-.76s-.66-.37-1.27-.56-1.09-.39-1.45-.58c-.97-.52-1.45-1.23-1.45-2.12,0-.46.13-.87.39-1.23s.63-.64,1.12-.85,1.03-.3,1.64-.3,1.15.11,1.63.33.85.53,1.11.93.4.86.4,1.37h-1.76c0-.39-.12-.69-.37-.91s-.59-.33-1.04-.33-.76.09-1,.27-.36.42-.36.72c0,.28.14.51.42.7s.69.36,1.23.53c1,.3,1.73.67,2.19,1.12s.69,1,.69,1.66c0,.74-.28,1.32-.84,1.74s-1.31.63-2.26.63c-.66,0-1.25-.12-1.79-.36s-.95-.57-1.23-.99-.42-.9-.42-1.45h1.76c0,.94.56,1.41,1.69,1.41.42,0,.74-.08.98-.25s.35-.41.35-.71Z"/>
        <path d="M29.21,6.41c0-.33-.12-.59-.35-.76s-.66-.37-1.27-.56-1.09-.39-1.45-.58c-.97-.52-1.45-1.23-1.45-2.12,0-.46.13-.87.39-1.23s.63-.64,1.12-.85,1.03-.3,1.64-.3,1.15.11,1.63.33.85.53,1.11.93.4.86.4,1.37h-1.76c0-.39-.12-.69-.37-.91s-.59-.33-1.04-.33-.76.09-1,.27-.36.42-.36.72c0,.28.14.51.42.7s.69.36,1.23.53c1,.3,1.73.67,2.19,1.12s.69,1,.69,1.66c0,.74-.28,1.32-.84,1.74s-1.31.63-2.26.63c-.66,0-1.25-.12-1.79-.36s-.95-.57-1.23-.99-.42-.9-.42-1.45h1.76c0,.94.56,1.41,1.69,1.41.42,0,.74-.08.98-.25s.35-.41.35-.71Z"/>
        <path d="M37.78,1.06l-3.3,7.59h-1.79l3.3-7.17h-4.24V.12h6.02v.95Z"/>
        <path d="M44.18,5.16h-3.38v3.49h-1.76V.12h5.55v1.42h-3.8v2.2h3.38v1.42Z"/>
        <path d="M52.27,6.19L53.41.12h1.75l-1.89,8.53h-1.77l-1.39-5.71-1.39,5.71h-1.77L45.06.12h1.75l1.15,6.06L49.38.12h1.49l1.4,6.07Z"/>
      </g>
      <g>
        <g>
          <path class="cls-1" d="M7.09,14.65h57.83c3.08,0,5.59,2.5,5.59,5.59v57.83c0,3.08-2.5,5.59-5.59,5.59H7.09c-3.08,0-5.59-2.5-5.59-5.59V20.24c0-3.08,2.5-5.59,5.59-5.59Z"/>
          <path class="cls-2" d="M64.91,16.15c2.25,0,4.09,1.83,4.09,4.09v57.83c0,2.25-1.83,4.09-4.09,4.09H7.09c-2.25,0-4.09-1.83-4.09-4.09V20.24c0-2.25,1.83-4.09,4.09-4.09h57.83M64.91,13.15H7.09c-3.9,0-7.09,3.19-7.09,7.09v57.83c0,3.9,3.19,7.09,7.09,7.09h57.83c3.9,0,7.09-3.19,7.09-7.09V20.24c0-3.9-3.19-7.09-7.09-7.09h0Z"/>
        </g>
        <g>
          <path class="cls-2" d="M58.56,34.7v28.89H13.44v-28.89h45.11M61.56,31.7H10.44v34.89h51.11V31.7h0Z"/>
          <line class="cls-3" x1="11.94" y1="43.29" x2="59.61" y2="43.29"/>
          <line class="cls-3" x1="11.94" y1="53.7" x2="59.61" y2="53.7"/>
          <line class="cls-3" x1="27.83" y1="33.04" x2="27.83" y2="43.29"/>
          <line class="cls-3" x1="44.17" y1="33.04" x2="44.17" y2="43.29"/>
          <line class="cls-3" x1="27.83" y1="55.13" x2="27.83" y2="65.38"/>
          <line class="cls-3" x1="44.17" y1="55.13" x2="44.17" y2="65.38"/>
          <line class="cls-3" x1="36.22" y1="42.62" x2="36.22" y2="52.87"/>
          <line class="cls-3" x1="52.33" y1="42.62" x2="52.33" y2="52.87"/>
          <line class="cls-3" x1="20.11" y1="42.62" x2="20.11" y2="52.87"/>
        </g>
      </g>
    </g>
  </g>
</svg>