<?xml version="1.0" encoding="UTF-8"?>
<svg id="Layer_2" xmlns="http://www.w3.org/2000/svg" viewBox="0 0 72 72">
  <defs>
    <style>
      .cls-1 {
        fill: #fff;
      }

      .cls-2 {
        fill: #55b364;
      }
    </style>
  </defs>
  <g id="_Зеленый" data-name="Зеленый">
    <g id="VAS-пустая">
      <g>
        <rect class="cls-1" width="72" height="72" rx="7.09" ry="7.09"/>
        <path class="cls-2" d="M64.91,3c2.25,0,4.09,1.83,4.09,4.09v57.83c0,2.25-1.83,4.09-4.09,4.09H7.09c-2.25,0-4.09-1.83-4.09-4.09V7.09c0-2.25,1.83-4.09,4.09-4.09h57.83M64.91,0H7.09C3.19,0,0,3.19,0,7.09v57.83c0,3.9,3.19,7.09,7.09,7.09h57.83c3.9,0,7.09-3.19,7.09-7.09V7.09C72,3.19,68.81,0,64.91,0h0Z"/>
      </g>
      <g>
        <path class="cls-2" d="M35.37,45.6c-9.28,0-16.83-7.55-16.83-16.83s7.55-16.83,16.83-16.83,16.83,7.55,16.83,16.83-7.55,16.83-16.83,16.83ZM35.37,14.93c-7.63,0-13.83,6.21-13.83,13.83s6.21,13.83,13.83,13.83,13.83-6.21,13.83-13.83-6.21-13.83-13.83-13.83Z"/>
        <path class="cls-2" d="M28.33,60.07c-9.28,0-16.83-7.55-16.83-16.83s7.55-16.83,16.83-16.83,16.83,7.55,16.83,16.83-7.55,16.83-16.83,16.83ZM28.33,29.4c-7.63,0-13.83,6.21-13.83,13.83s6.21,13.83,13.83,13.83,13.83-6.21,13.83-13.83-6.21-13.83-13.83-13.83Z"/>
        <path class="cls-2" d="M43.67,60.07c-9.28,0-16.83-7.55-16.83-16.83s7.55-16.83,16.83-16.83,16.83,7.55,16.83,16.83-7.55,16.83-16.83,16.83ZM43.67,29.4c-7.63,0-13.83,6.21-13.83,13.83s6.21,13.83,13.83,13.83,13.83-6.21,13.83-13.83-6.21-13.83-13.83-13.83Z"/>
      </g>
    </g>
  </g>
</svg>