<?xml version="1.0" encoding="UTF-8"?>
<svg id="Layer_2" xmlns="http://www.w3.org/2000/svg" viewBox="0 0 72 85.15">
  <defs>
    <style>
      .cls-1 {
        fill: #fff;
      }

      .cls-2, .cls-3 {
        fill: none;
        stroke: #19a0db;
        stroke-miterlimit: 10;
        stroke-width: 3px;
      }

      .cls-4 {
        fill: #19a0db;
      }

      .cls-3 {
        stroke-linecap: round;
      }
    </style>
  </defs>
  <g id="Layer_1-2" data-name="Layer_1">
    <g id="Comm-DCGW">
      <g>
        <path d="M19.6,8.65V.12h2.62c.75,0,1.42.17,2.01.51s1.05.82,1.39,1.44.5,1.33.5,2.12v.39c0,.79-.16,1.5-.49,2.12s-.79,1.1-1.38,1.44-1.26.51-2.01.52h-2.64ZM21.36,1.54v5.7h.85c.69,0,1.21-.22,1.58-.67s.55-1.09.56-1.93v-.45c0-.87-.18-1.52-.54-1.97s-.88-.67-1.58-.67h-.87Z"/>
        <path d="M34.1,5.81c-.07.92-.41,1.64-1.02,2.17s-1.42.79-2.42.79c-1.09,0-1.96-.37-2.58-1.1s-.94-1.75-.94-3.03v-.52c0-.82.14-1.54.43-2.17s.7-1.1,1.24-1.44,1.16-.5,1.87-.5c.98,0,1.78.26,2.38.79s.95,1.27,1.04,2.22h-1.76c-.04-.55-.2-.95-.46-1.2s-.66-.37-1.2-.37c-.59,0-1.03.21-1.32.63s-.44,1.07-.45,1.95v.64c0,.92.14,1.6.42,2.02s.72.64,1.32.64c.54,0,.95-.12,1.21-.37s.42-.63.46-1.15h1.76Z"/>
        <path d="M42,7.57c-.32.38-.76.67-1.34.88s-1.22.31-1.92.31c-.74,0-1.39-.16-1.94-.48s-.99-.79-1.29-1.4-.46-1.33-.46-2.16v-.58c0-.85.14-1.59.43-2.21s.7-1.1,1.24-1.43,1.18-.5,1.9-.5c1.01,0,1.8.24,2.37.72s.91,1.18,1.01,2.11h-1.71c-.08-.49-.25-.85-.52-1.07s-.63-.34-1.1-.34c-.6,0-1.05.22-1.37.67s-.47,1.12-.47,2v.54c0,.89.17,1.57.51,2.03s.84.69,1.49.69,1.13-.14,1.41-.42v-1.47h-1.6v-1.29h3.36v3.4Z"/>
        <path d="M50.07,6.19L51.22.12h1.75l-1.89,8.53h-1.77l-1.39-5.71-1.39,5.71h-1.77L42.87.12h1.75l1.15,6.06L47.18.12h1.49l1.4,6.07Z"/>
      </g>
      <g>
        <g>
          <path class="cls-1" d="M7.09,14.65h57.83c3.08,0,5.59,2.5,5.59,5.59v57.83c0,3.08-2.5,5.59-5.59,5.59H7.09c-3.08,0-5.59-2.5-5.59-5.59V20.23c0-3.08,2.5-5.59,5.59-5.59Z"/>
          <path class="cls-4" d="M64.91,16.15c2.25,0,4.09,1.83,4.09,4.09v57.83c0,2.25-1.83,4.09-4.09,4.09H7.09c-2.25,0-4.09-1.83-4.09-4.09V20.24c0-2.25,1.83-4.09,4.09-4.09h57.83M64.91,13.15H7.09c-3.9,0-7.09,3.19-7.09,7.09v57.83c0,3.9,3.19,7.09,7.09,7.09h57.83c3.9,0,7.09-3.19,7.09-7.09V20.24c0-3.9-3.19-7.09-7.09-7.09h0Z"/>
        </g>
        <g>
          <polyline class="cls-3" points="46.88 44.82 51.28 49.14 46.88 53.47"/>
          <polyline class="cls-3" points="22.72 49.15 31.68 49.15 41.56 49.14 50.52 49.14"/>
          <polyline class="cls-3" points="26.36 53.47 21.96 49.15 26.36 44.82"/>
          <line class="cls-3" x1="36.01" y1="49.14" x2="36.01" y2="64.29"/>
          <polyline class="cls-3" points="40.32 60.64 36.01 65.04 31.68 60.64"/>
          <line class="cls-3" x1="35.99" y1="49.14" x2="35.99" y2="34"/>
          <polyline class="cls-3" points="31.68 37.64 35.99 33.24 40.32 37.64"/>
          <rect class="cls-2" x="12.91" y="26.06" width="46.17" height="46.17" rx="2.13" ry="2.13"/>
        </g>
      </g>
    </g>
  </g>
</svg>