<?xml version="1.0" encoding="UTF-8"?>
<svg id="Layer_2" xmlns="http://www.w3.org/2000/svg" viewBox="0 0 72 72">
  <defs>
    <style>
      .cls-1 {
        fill: #fff;
      }

      .cls-2, .cls-3 {
        fill: none;
        stroke: #19a0db;
        stroke-miterlimit: 10;
        stroke-width: 3px;
      }

      .cls-4 {
        fill: #19a0db;
      }

      .cls-3 {
        stroke-linecap: round;
      }
    </style>
  </defs>
  <g id="Layer_1-2" data-name="Layer_1">
    <g id="Router-пустая">
      <g>
        <path class="cls-1" d="M7.09,1.5h57.83c3.08,0,5.59,2.5,5.59,5.59v57.83c0,3.08-2.5,5.59-5.59,5.59H7.09c-3.08,0-5.59-2.5-5.59-5.59V7.09C1.5,4,4,1.5,7.09,1.5Z"/>
        <path class="cls-4" d="M64.91,3c2.25,0,4.09,1.83,4.09,4.09v57.83c0,2.25-1.83,4.09-4.09,4.09H7.09c-2.25,0-4.09-1.83-4.09-4.09V7.09c0-2.25,1.83-4.09,4.09-4.09h57.83M64.91,0H7.09C3.19,0,0,3.19,0,7.09v57.83c0,3.9,3.19,7.09,7.09,7.09h57.83c3.9,0,7.09-3.19,7.09-7.09V7.09c0-3.9-3.19-7.09-7.09-7.09h0Z"/>
      </g>
      <g>
        <circle class="cls-2" cx="36" cy="36" r="22.24"/>
        <line class="cls-3" x1="20.38" y1="35.99" x2="29.18" y2="35.99"/>
        <polyline class="cls-3" points="25.6 31.75 29.93 35.99 25.6 40.25"/>
        <line class="cls-3" x1="51.62" y1="36.01" x2="42.82" y2="36.01"/>
        <polyline class="cls-3" points="46.4 40.25 42.08 36.01 46.4 31.75"/>
        <line class="cls-3" x1="36.01" y1="42.08" x2="36.01" y2="50.88"/>
        <polyline class="cls-3" points="40.25 47.3 36.01 51.62 31.75 47.3"/>
        <line class="cls-3" x1="35.99" y1="29.92" x2="35.99" y2="21.12"/>
        <polyline class="cls-3" points="31.75 24.7 35.99 20.38 40.25 24.7"/>
      </g>
    </g>
  </g>
</svg>