<?xml version="1.0" encoding="UTF-8"?>
<svg id="Layer_2" xmlns="http://www.w3.org/2000/svg" viewBox="0 0 72 85.15">
  <defs>
    <style>
      .cls-1 {
        fill: #fff;
      }

      .cls-2, .cls-3 {
        fill: none;
        stroke: #19a0db;
        stroke-miterlimit: 10;
        stroke-width: 3px;
      }

      .cls-4 {
        fill: #19a0db;
      }

      .cls-3 {
        stroke-linecap: round;
      }
    </style>
  </defs>
  <g id="Layer_1-2" data-name="Layer_1">
    <g id="Router-STP">
      <g>
        <g>
          <path class="cls-1" d="M7.09,14.65h57.83c3.08,0,5.59,2.5,5.59,5.59v57.83c0,3.08-2.5,5.59-5.59,5.59H7.09c-3.08,0-5.59-2.5-5.59-5.59V20.24c0-3.08,2.5-5.59,5.59-5.59Z"/>
          <path class="cls-4" d="M64.91,16.15c2.25,0,4.09,1.83,4.09,4.09v57.83c0,2.25-1.83,4.09-4.09,4.09H7.09c-2.25,0-4.09-1.83-4.09-4.09V20.23c0-2.25,1.83-4.09,4.09-4.09h57.83M64.91,13.15H7.09c-3.9,0-7.09,3.19-7.09,7.09v57.83c0,3.9,3.19,7.09,7.09,7.09h57.83c3.9,0,7.09-3.19,7.09-7.09V20.23c0-3.9-3.19-7.09-7.09-7.09h0Z"/>
        </g>
        <g>
          <circle class="cls-2" cx="36" cy="49.15" r="22.24"/>
          <line class="cls-3" x1="20.38" y1="49.14" x2="29.18" y2="49.14"/>
          <polyline class="cls-3" points="25.6 44.9 29.93 49.14 25.6 53.4"/>
          <line class="cls-3" x1="51.62" y1="49.15" x2="42.82" y2="49.15"/>
          <polyline class="cls-3" points="46.4 53.4 42.08 49.15 46.4 44.9"/>
          <line class="cls-3" x1="36.01" y1="55.22" x2="36.01" y2="64.03"/>
          <polyline class="cls-3" points="40.25 60.45 36.01 64.77 31.75 60.45"/>
          <line class="cls-3" x1="35.99" y1="43.07" x2="35.99" y2="34.27"/>
          <polyline class="cls-3" points="31.75 37.85 35.99 33.53 40.25 37.85"/>
        </g>
      </g>
      <g>
        <path d="M29.92,6.41c0-.33-.12-.59-.35-.76s-.66-.37-1.27-.56-1.09-.39-1.45-.58c-.97-.52-1.45-1.23-1.45-2.12,0-.46.13-.87.39-1.23s.63-.64,1.12-.85,1.03-.3,1.64-.3,1.15.11,1.63.33.85.53,1.11.93.4.86.4,1.37h-1.76c0-.39-.12-.69-.37-.91s-.59-.33-1.04-.33-.76.09-1,.27-.36.42-.36.72c0,.28.14.51.42.7s.69.36,1.23.53c1,.3,1.73.67,2.19,1.12s.69,1,.69,1.66c0,.74-.28,1.32-.84,1.74s-1.31.63-2.26.63c-.66,0-1.25-.12-1.79-.36s-.95-.57-1.23-.99-.42-.9-.42-1.45h1.76c0,.94.56,1.41,1.69,1.41.42,0,.74-.08.98-.25s.35-.41.35-.71Z"/>
        <path d="M39.29,1.54h-2.61v7.11h-1.76V1.54h-2.58V.12h6.95v1.42Z"/>
        <path d="M42.05,5.64v3.01h-1.76V.12h3.33c.64,0,1.2.12,1.69.35s.86.57,1.12,1,.39.92.39,1.47c0,.84-.29,1.5-.86,1.98s-1.36.72-2.38.72h-1.54ZM42.05,4.22h1.57c.46,0,.82-.11,1.06-.33s.37-.53.37-.94-.12-.76-.37-1.01-.59-.39-1.02-.4h-1.61v2.68Z"/>
      </g>
    </g>
  </g>
</svg>