<?xml version="1.0" encoding="UTF-8"?>
<svg id="Layer_2" xmlns="http://www.w3.org/2000/svg" viewBox="0 0 72 72">
  <defs>
    <style>
      .cls-1 {
        fill: #fff;
      }

      .cls-2 {
        fill: none;
        stroke: #19a0db;
        stroke-miterlimit: 10;
        stroke-width: 3px;
      }

      .cls-3 {
        fill: #19a0db;
      }
    </style>
  </defs>
  <g id="Layer_1-2" data-name="Layer_1">
    <g id="VAS-пустая">
      <g>
        <path class="cls-1" d="M7.09,1.5h57.83c3.08,0,5.59,2.5,5.59,5.59v57.83c0,3.08-2.5,5.59-5.59,5.59H7.09c-3.08,0-5.59-2.5-5.59-5.59V7.09C1.5,4,4,1.5,7.09,1.5Z"/>
        <path class="cls-3" d="M64.91,3c2.25,0,4.09,1.83,4.09,4.09v57.83c0,2.25-1.83,4.09-4.09,4.09H7.09c-2.25,0-4.09-1.83-4.09-4.09V7.09c0-2.25,1.83-4.09,4.09-4.09h57.83M64.91,0H7.09C3.19,0,0,3.19,0,7.09v57.83c0,3.9,3.19,7.09,7.09,7.09h57.83c3.9,0,7.09-3.19,7.09-7.09V7.09c0-3.9-3.19-7.09-7.09-7.09h0Z"/>
      </g>
      <g>
        <circle class="cls-2" cx="35.37" cy="28.76" r="15.33"/>
        <circle class="cls-2" cx="28.33" cy="43.24" r="15.33"/>
        <circle class="cls-2" cx="43.67" cy="43.24" r="15.33"/>
      </g>
    </g>
  </g>
</svg>