<?xml version="1.0" encoding="UTF-8"?>
<svg id="Layer_2" xmlns="http://www.w3.org/2000/svg" viewBox="0 0 54.25 85.4">
  <defs>
    <style>
      .cls-1 {
        fill: #fff;
      }

      .cls-2 {
        fill: #ceac04;
      }
    </style>
  </defs>
  <g id="_Желтый" data-name="Желтый">
    <g id="Billing-OCS">
      <g>
        <path d="M14.26,4.58c0,.84-.15,1.58-.45,2.21s-.72,1.12-1.27,1.46-1.19.52-1.9.52-1.34-.17-1.89-.51-.98-.83-1.29-1.46-.46-1.36-.46-2.18v-.42c0-.84.15-1.58.45-2.22s.73-1.13,1.28-1.47,1.18-.51,1.9-.51,1.34.17,1.9.51.98.83,1.28,1.47.45,1.38.45,2.21v.38ZM12.48,4.19c0-.89-.16-1.57-.48-2.04s-.78-.7-1.37-.7-1.04.23-1.37.69-.48,1.13-.49,2.02v.42c0,.87.16,1.55.48,2.03s.78.72,1.38.72,1.04-.23,1.36-.69.48-1.14.48-2.02v-.42Z"/>
        <path d="M22.24,5.81c-.07.92-.41,1.64-1.02,2.17s-1.42.79-2.42.79c-1.09,0-1.95-.37-2.58-1.1s-.94-1.75-.94-3.03v-.52c0-.82.14-1.54.43-2.17s.7-1.1,1.24-1.44,1.16-.5,1.87-.5c.98,0,1.78.26,2.38.79s.95,1.27,1.04,2.22h-1.76c-.04-.55-.2-.95-.46-1.2s-.67-.37-1.2-.37c-.59,0-1.02.21-1.32.63s-.44,1.07-.45,1.95v.64c0,.92.14,1.6.42,2.02s.72.64,1.32.64c.54,0,.95-.12,1.22-.37s.42-.63.46-1.15h1.76Z"/>
        <path d="M27.82,6.41c0-.33-.12-.59-.35-.76s-.66-.37-1.27-.56-1.09-.39-1.45-.58c-.97-.52-1.45-1.23-1.45-2.12,0-.46.13-.87.39-1.23s.63-.64,1.12-.85,1.03-.3,1.64-.3,1.15.11,1.63.33.85.53,1.11.93.4.86.4,1.37h-1.76c0-.39-.12-.69-.37-.91s-.59-.33-1.04-.33-.76.09-1,.27-.36.42-.36.72c0,.28.14.51.42.7s.69.36,1.23.53c1,.3,1.73.67,2.19,1.12s.69,1,.69,1.66c0,.74-.28,1.32-.84,1.74s-1.31.63-2.26.63c-.66,0-1.25-.12-1.79-.36s-.95-.57-1.23-.99-.42-.9-.42-1.45h1.76c0,.94.56,1.41,1.69,1.41.42,0,.74-.08.98-.25s.35-.41.35-.71Z"/>
      </g>
      <g>
        <g>
          <path class="cls-2" d="M39.11,18.19c.02,17.46.02,34.93,0,52.39v9.67c0,2.07-.85,3.63-2.75,4.51-.53.24-1.16.37-1.74.37-9.93.03-19.86.03-29.79.02-2.45,0-4.57-1.93-4.58-4.66-.01-5.41,0-10.82,0-16.23-.01-4.99,0-9.98,0-14.97,0-10.3,0-20.61-.01-30.91,0-2.07.82-3.65,2.72-4.52.59-.27,1.28-.41,1.93-.41,5-.03,10-.02,15.01-.02s9.65,0,14.48.01c2.07,0,3.73,1.09,4.46,3.03.2.53.26,1.14.26,1.72ZM36.07,80.21c.01-20.56.01-41.12,0-61.68,0-.29,0-.58-.03-.87-.06-.53-.37-.9-.87-1.06-.34-.1-.7-.16-1.04-.17-2.71-.01-5.41,0-8.12,0h-3.25c-.32,0-.59.05-.7.39-.12.35-.22.71-.34,1.06-.29.85-.87,1.4-1.77,1.53-.75.11-1.44-.14-1.87-.77-.31-.47-.53-1.04-.68-1.59-.13-.46-.36-.63-.82-.63-.96.02-1.91.01-2.87.01H5.35c-.19,0-.39-.01-.58.02-.85.11-1.46.56-1.46,1.55.02,2.57,0,5.15,0,7.72v49.43c0,1.78.01,3.56,0,5.34-.02,1.18.73,1.61,1.66,1.66.14.01.29.01.43.01h28.81c.64,0,1.29-.09,1.61-.7.19-.37.25-.83.25-1.25Z"/>
          <path class="cls-1" d="M36.07,18.53c.01,20.56.01,41.12,0,61.68,0,.42-.06.88-.25,1.25-.32.61-.97.7-1.61.7H5.4c-.14,0-.29,0-.43-.01-.93-.05-1.68-.48-1.66-1.66.01-1.78,0-3.56,0-5.34V25.72c0-2.57.02-5.15,0-7.72,0-.99.61-1.44,1.46-1.55.19-.03.39-.02.58-.02h8.36c.96,0,1.91.01,2.87-.01.46,0,.69.17.82.63.15.55.37,1.12.68,1.59.43.63,1.12.88,1.87.77.9-.13,1.48-.68,1.77-1.53.12-.35.22-.71.34-1.06.11-.34.38-.39.7-.39h3.25c2.71,0,5.41-.01,8.12,0,.34.01.7.07,1.04.17.5.16.81.53.87,1.06.03.29.03.58.03.87Z"/>
        </g>
        <g>
          <path class="cls-2" d="M30.23,34.23c-.05,2.65-.98,5.1-2.84,7.2-.32.37-.84.4-1.19.08-.36-.32-.39-.83-.05-1.21,1.26-1.41,2.05-3.04,2.29-4.91.37-2.79-.36-5.26-2.19-7.41-.33-.39-.39-.75-.17-1.11.3-.48.96-.54,1.35-.11.66.73,1.21,1.54,1.65,2.42.77,1.54,1.14,3.18,1.15,5.04Z"/>
          <path class="cls-2" d="M9.14,34.36c.05-3.05.95-5.47,2.75-7.54.17-.19.37-.33.63-.33.36-.01.63.13.79.45.17.31.13.62-.08.91-.31.41-.64.8-.92,1.23-.85,1.3-1.33,2.73-1.44,4.27-.19,2.63.6,4.94,2.33,6.93.36.41.34.91-.03,1.24-.37.33-.87.27-1.23-.14-1.35-1.53-2.23-3.29-2.6-5.3-.12-.66-.16-1.34-.2-1.71Z"/>
          <path class="cls-2" d="M26.02,33.85c-.03,1.83-.56,3.23-1.62,4.43-.33.38-.85.42-1.21.1-.35-.31-.39-.82-.06-1.2.91-1.04,1.3-2.25,1.16-3.62-.09-.92-.45-1.75-1.05-2.45-.21-.25-.37-.52-.29-.86.08-.33.29-.55.63-.64.33-.08.61.01.83.26.72.81,1.21,1.74,1.43,2.8.1.46.13.93.16,1.18Z"/>
          <path class="cls-2" d="M13.36,34.03c.03-1.52.52-2.9,1.53-4.09.34-.4.85-.46,1.22-.15.37.31.42.82.08,1.23-.58.69-.96,1.46-1.08,2.36-.19,1.37.15,2.59,1.02,3.67.13.16.25.34.3.52.1.39-.1.75-.45.92-.34.17-.74.09-1.01-.21-.59-.66-1.02-1.41-1.29-2.24-.21-.64-.31-1.3-.32-2.01Z"/>
          <path class="cls-2" d="M17.59,34.06c0-1.18.94-2.11,2.12-2.1,1.16,0,2.09.95,2.08,2.12,0,1.16-.95,2.09-2.11,2.09-1.17,0-2.1-.94-2.09-2.11Z"/>
        </g>
        <g>
          <g>
            <path class="cls-1" d="M37.78,83.65c-8.26,0-14.97-6.72-14.97-14.97s6.72-14.97,14.97-14.97,14.97,6.72,14.97,14.97-6.72,14.97-14.97,14.97Z"/>
            <path class="cls-2" d="M37.78,55.2c7.43,0,13.47,6.04,13.47,13.47s-6.04,13.47-13.47,13.47-13.47-6.04-13.47-13.47,6.04-13.47,13.47-13.47M37.78,52.2c-9.1,0-16.47,7.38-16.47,16.47s7.38,16.47,16.47,16.47,16.47-7.38,16.47-16.47-7.38-16.47-16.47-16.47h0Z"/>
          </g>
          <path class="cls-2" d="M39.36,73.9h-3.11v1.9h-2.94v-1.9h-1.99v-2.38h1.99v-.74h-1.99v-2.38h1.99v-6.85h5.54c1.07,0,2.01.19,2.82.58s1.44.93,1.88,1.65c.45.71.67,1.53.67,2.44,0,1.41-.48,2.52-1.43,3.34s-2.29,1.22-3.99,1.22h-2.56v.74h3.11v2.38ZM36.25,68.4h2.54c1.64,0,2.47-.72,2.47-2.16,0-.69-.21-1.24-.63-1.66-.42-.42-1-.64-1.73-.64h-2.64v4.46Z"/>
        </g>
      </g>
    </g>
  </g>
</svg>