<?xml version="1.0" encoding="UTF-8"?>
<svg id="Layer_2" xmlns="http://www.w3.org/2000/svg" viewBox="0 0 363 229.72">
  <defs>
    <style>
      .cls-1 {
        fill: #ceac04;
      }
    </style>
  </defs>
  <g id="_Желтый" data-name="Желтый">
    <g id="Cloud-360">
      <path class="cls-1" d="M211.7,4.5c20.76,0,40.13,7.32,57.56,21.74,14.79,12.24,24.8,28.08,29.76,47.1,2.56,9.8,3.42,18.01,2.7,25.84-.2,2.18.42,4.91,4.47,5.6,22.44,3.82,38.39,15.89,47.38,35.88,11.1,24.68,2.76,55.65-19.4,72.05-11.18,8.27-23.95,12.47-37.96,12.47-13.56,0-27.14,0-40.7,0h-42.63s-42.63,0-42.63,0c-32.2,0-64.39,0-96.59.03h-.07c-23.24,0-41.27-8.49-55.14-25.94-11.15-14.04-15.96-32.36-13.21-50.29,2.75-17.91,12.83-33.93,27.66-43.97,3.34-2.26,6.99-4.05,10.85-5.95,1.14-.56,2.28-1.12,3.41-1.69,1.75-.88,3.57-2.22,3.84-5.48,2.03-23.96,22.41-42.73,46.39-42.73,1.4,0,2.83.07,4.23.2,6.54.61,13.09,3.02,20.02,7.37.47.29.93.59,1.45.92l.86.55,2.69,1.71,1.54-2.78.76-1.38c.54-.97,1.05-1.89,1.56-2.81,14.01-25,34.41-40.54,60.64-46.18,6.95-1.49,13.85-2.25,20.5-2.25M211.7,1.5c-6.88,0-13.92.77-21.13,2.32-28.06,6.04-48.65,22.7-62.62,47.65-.75,1.34-1.49,2.69-2.33,4.2-.9-.57-1.61-1.03-2.33-1.48-6.56-4.12-13.57-7.09-21.34-7.81-1.52-.14-3.02-.21-4.52-.21-25.29,0-47.2,19.74-49.38,45.48-.14,1.68-.81,2.35-2.21,3.05-4.93,2.49-10.04,4.75-14.59,7.83C-1.33,124.58-8.33,170.34,16.13,201.14c14.66,18.46,34.03,27.08,57.49,27.08.02,0,.04,0,.07,0,32.2-.02,64.39-.03,96.59-.03,28.42,0,56.83,0,85.25,0,13.56,0,27.14,0,40.71,0,14.66,0,27.91-4.3,39.75-13.06,23.18-17.16,32.13-49.51,20.35-75.69-9.63-21.41-26.56-33.69-49.61-37.61-1.52-.26-2.14-.69-1.99-2.37.83-9.13-.49-18.07-2.79-26.87-5.08-19.47-15.27-35.84-30.75-48.65C253.27,9.12,233.34,1.5,211.7,1.5h0Z"/>
    </g>
  </g>
</svg>