<?xml version="1.0" encoding="UTF-8"?>
<svg id="Layer_2" xmlns="http://www.w3.org/2000/svg" viewBox="0 0 147 93.69">
  <defs>
    <style>
      .cls-1 {
        fill: #ceac04;
      }
    </style>
  </defs>
  <g id="_Желтый" data-name="Желтый">
    <g id="Cloud-144">
      <path class="cls-1" d="M85.58,4.5c7.87,0,15.24,2.79,21.88,8.28,5.62,4.65,9.42,10.67,11.31,17.91.97,3.71,1.3,6.8,1.03,9.72-.16,1.72.62,3.73,3.28,4.18,8.47,1.44,14.23,5.8,17.61,13.32,4.1,9.12,1.01,20.57-7.19,26.63-4.21,3.12-8.83,4.63-14.11,4.64h-16.29s-17.05,0-17.05,0h-17.05c-12.87,0-25.75,0-38.64.01-8.71,0-15.46-3.17-20.64-9.7-4.15-5.22-5.94-12.05-4.91-18.72,1.02-6.67,4.78-12.64,10.29-16.37,1.23-.84,2.64-1.52,4.13-2.25.46-.23.92-.45,1.38-.68.57-.29,2.31-1.17,2.52-3.65.73-8.66,8.1-15.44,16.76-15.45.51,0,1.02.02,1.53.07,2.33.22,4.69,1.09,7.22,2.68l.59.38.33.21,2.69,1.71,1.54-2.78.29-.53c.22-.39.42-.77.63-1.14,5.34-9.53,13.1-15.45,23.06-17.59,2.66-.57,5.29-.86,7.82-.86M85.58,1.5c-2.75,0-5.57.31-8.45.93-11.22,2.41-19.46,9.08-25.05,19.06-.3.54-.6,1.08-.93,1.68-.36-.23-.65-.41-.93-.59-2.62-1.65-5.43-2.84-8.54-3.12-.61-.06-1.21-.08-1.81-.08-10.12,0-18.88,7.9-19.75,18.19-.06.67-.33.94-.88,1.22-1.97,1-4.02,1.9-5.84,3.13C.37,50.73-2.43,69.04,7.35,81.36c5.86,7.39,13.61,10.83,22.99,10.83h.03c12.87,0,25.75-.01,38.62-.01,11.37,0,22.74,0,34.11,0,5.43,0,10.86,0,16.29,0,5.87,0,11.16-1.72,15.9-5.22,9.27-6.86,12.85-19.8,8.14-30.28-3.85-8.56-10.62-13.48-19.85-15.04-.61-.1-.86-.28-.8-.95.33-3.65-.2-7.23-1.11-10.75-2.03-7.79-6.11-14.34-12.3-19.46-7.16-5.93-15.13-8.97-23.79-8.97h0Z"/>
    </g>
  </g>
</svg>