<?xml version="1.0" encoding="UTF-8"?>
<svg id="Layer_2" xmlns="http://www.w3.org/2000/svg" viewBox="0 0 72 85.62">
  <defs>
    <style>
      .cls-1, .cls-2 {
        fill: none;
        stroke: #ceac04;
        stroke-miterlimit: 10;
        stroke-width: 3px;
      }

      .cls-3 {
        fill: #fff;
      }

      .cls-2 {
        stroke-linecap: round;
      }

      .cls-4 {
        fill: #ceac04;
      }
    </style>
  </defs>
  <g id="_Желтый" data-name="Желтый">
    <g id="Comm-Leaf">
      <g>
        <path d="M26.66,7.71h3.73v1.41h-5.49V.59h1.76v7.12Z"/>
        <path d="M34.21,9.24c-.93,0-1.69-.29-2.27-.86s-.88-1.33-.88-2.28v-.16c0-.64.12-1.21.37-1.71s.59-.89,1.05-1.16.97-.41,1.54-.41c.87,0,1.55.27,2.05.82s.75,1.32.75,2.33v.69h-4.04c.05.41.22.75.5,1s.62.38,1.05.38c.65,0,1.16-.24,1.53-.71l.83.93c-.25.36-.6.64-1.03.84s-.91.3-1.44.3ZM34.01,4.03c-.34,0-.61.11-.82.34s-.34.55-.4.98h2.36v-.14c0-.38-.11-.67-.3-.87s-.47-.31-.83-.31Z"/>
        <path d="M41.45,9.12c-.08-.15-.13-.34-.17-.57-.41.46-.94.69-1.6.69-.62,0-1.14-.18-1.54-.54s-.61-.81-.61-1.36c0-.67.25-1.19.75-1.55s1.22-.54,2.16-.54h.78v-.36c0-.29-.08-.53-.23-.7s-.39-.26-.71-.26c-.29,0-.51.07-.67.21s-.24.32-.24.56h-1.69c0-.37.11-.71.34-1.02s.55-.56.96-.74.88-.27,1.39-.27c.78,0,1.4.2,1.86.59s.69.94.69,1.66v2.75c0,.6.09,1.06.25,1.37v.1h-1.71ZM40.05,7.95c.25,0,.48-.06.69-.17s.37-.26.47-.45v-1.09h-.63c-.85,0-1.3.29-1.35.88v.1c0,.21.07.38.22.52s.35.21.61.21Z"/>
        <path d="M44.67,9.12v-5.1h-.94v-1.24h.94v-.54c0-.71.2-1.26.61-1.66s.98-.59,1.71-.59c.23,0,.52.04.86.12l-.02,1.31c-.14-.04-.31-.05-.52-.05-.64,0-.96.3-.96.9v.51h1.26v1.24h-1.26v5.1h-1.7Z"/>
      </g>
      <g>
        <g>
          <path class="cls-3" d="M7.09,15.12h57.83c3.08,0,5.59,2.5,5.59,5.59v57.83c0,3.08-2.5,5.59-5.59,5.59H7.09c-3.08,0-5.59-2.5-5.59-5.59V20.71c0-3.08,2.5-5.59,5.59-5.59Z"/>
          <path class="cls-4" d="M64.91,16.62c2.25,0,4.09,1.83,4.09,4.09v57.83c0,2.25-1.83,4.09-4.09,4.09H7.09c-2.25,0-4.09-1.83-4.09-4.09V20.71c0-2.25,1.83-4.09,4.09-4.09h57.83M64.91,13.62H7.09c-3.9,0-7.09,3.19-7.09,7.09v57.83c0,3.9,3.19,7.09,7.09,7.09h57.83c3.9,0,7.09-3.19,7.09-7.09V20.71c0-3.9-3.19-7.09-7.09-7.09h0Z"/>
        </g>
        <g>
          <polyline class="cls-2" points="46.88 45.29 51.28 49.61 46.88 53.94"/>
          <polyline class="cls-2" points="22.72 49.62 31.68 49.62 41.56 49.61 50.52 49.61"/>
          <polyline class="cls-2" points="26.36 53.94 21.96 49.62 26.36 45.29"/>
          <line class="cls-2" x1="36.01" y1="49.61" x2="36.01" y2="64.76"/>
          <polyline class="cls-2" points="40.32 61.12 36.01 65.52 31.68 61.12"/>
          <line class="cls-2" x1="35.99" y1="49.61" x2="35.99" y2="34.47"/>
          <polyline class="cls-2" points="31.68 38.12 35.99 33.72 40.32 38.12"/>
          <rect class="cls-1" x="12.91" y="26.54" width="46.17" height="46.17" rx="2.13" ry="2.13"/>
        </g>
      </g>
    </g>
  </g>
</svg>