<?xml version="1.0" encoding="UTF-8"?>
<svg id="Layer_2" data-name="Layer 2" xmlns="http://www.w3.org/2000/svg" viewBox="0 0 74.51 85.03">
  <defs>
    <style>
      .cls-1 {
        fill: #ceac04;
      }

      .cls-2 {
        fill: #fff;
      }
    </style>
  </defs>
  <g id="_Оригинал" data-name="Оригинал">
    <g>
      <g>
        <rect class="cls-2" x="1.77" y="13.03" width="72" height="72" rx="7.09" ry="7.09"/>
        <path class="cls-1" d="M66.69,16.03c2.25,0,4.09,1.83,4.09,4.09v57.83c0,2.25-1.83,4.09-4.09,4.09H8.86c-2.25,0-4.09-1.83-4.09-4.09V20.12c0-2.25,1.83-4.09,4.09-4.09h57.83M66.69,13.03H8.86c-3.9,0-7.09,3.19-7.09,7.09v57.83c0,3.9,3.19,7.09,7.09,7.09h57.83c3.9,0,7.09-3.19,7.09-7.09V20.12c0-3.9-3.19-7.09-7.09-7.09h0Z"/>
      </g>
      <path class="cls-1" d="M58.73,73.62H16.82c-2,0-3.63-1.63-3.63-3.63V28.07c0-2,1.63-3.63,3.63-3.63h41.92c2,0,3.63,1.63,3.63,3.63v41.92c0,2-1.63,3.63-3.63,3.63ZM16.82,27.44c-.35,0-.63.28-.63.63v41.92c0,.35.28.63.63.63h41.92c.35,0,.63-.28.63-.63V28.07c0-.35-.28-.63-.63-.63H16.82Z"/>
      <g>
        <path d="M0,8.53V0h2.62c.75,0,1.42.17,2.01.51s1.05.82,1.39,1.44.5,1.33.5,2.12v.39c0,.79-.16,1.5-.49,2.12s-.79,1.1-1.38,1.44-1.26.51-2.01.52H0ZM1.76,1.42v5.7h.85c.69,0,1.21-.22,1.58-.67s.55-1.09.56-1.93v-.45c0-.87-.18-1.52-.54-1.97s-.88-.67-1.58-.67h-.87Z"/>
        <path d="M9.67,8.53h-1.76V0h1.76v8.53Z"/>
        <path d="M16.22,6.77h-3.08l-.59,1.76h-1.87L13.86,0h1.63l3.19,8.53h-1.87l-.59-1.76ZM13.61,5.35h2.13l-1.07-3.19-1.06,3.19Z"/>
        <path d="M21.77,0l2.19,6.19,2.18-6.19h2.31v8.53h-1.76v-2.33l.18-4.03-2.3,6.36h-1.21l-2.3-6.35.18,4.02v2.33h-1.76V0h2.3Z"/>
        <path d="M35.12,4.83h-3.38v2.29h3.96v1.41h-5.72V0h5.71v1.42h-3.95v2.03h3.38v1.38Z"/>
        <path d="M43.28,1.42h-2.61v7.11h-1.76V1.42h-2.58V0h6.95v1.42Z"/>
        <path d="M49.41,4.83h-3.38v2.29h3.96v1.41h-5.72V0h5.71v1.42h-3.95v2.03h3.38v1.38Z"/>
        <path d="M54.19,5.41h-1.4v3.12h-1.76V0h3.17c1.01,0,1.79.22,2.33.67s.82,1.08.82,1.9c0,.58-.13,1.07-.38,1.46s-.63.7-1.15.93l1.85,3.49v.08h-1.89l-1.6-3.12ZM52.79,3.98h1.42c.44,0,.78-.11,1.03-.34s.36-.53.36-.93-.11-.72-.34-.95-.58-.35-1.05-.35h-1.41v2.56Z"/>
        <path d="M63.43,7.12h3.73v1.41h-5.49V0h1.76v7.12Z"/>
        <path d="M68.17,8.53V0h2.99c1.04,0,1.82.2,2.36.59s.8.98.8,1.74c0,.42-.11.79-.32,1.1s-.51.55-.9.7c.44.11.78.33,1.03.66s.38.74.38,1.22c0,.82-.26,1.44-.79,1.86s-1.27.64-2.24.64h-3.32ZM69.93,3.57h1.3c.89-.02,1.33-.37,1.33-1.06,0-.39-.11-.67-.34-.83s-.58-.25-1.06-.25h-1.23v2.15ZM69.93,4.82v2.3h1.51c.41,0,.74-.1.97-.3s.35-.47.35-.82c0-.78-.4-1.18-1.21-1.19h-1.61Z"/>
      </g>
      <path class="cls-1" d="M47.76,54.4c.29.3.68.45,1.07.45s.76-.14,1.05-.43l5.49-5.4-5.49-5.39c-.59-.58-1.54-.57-2.12.02-.58.59-.57,1.54.02,2.12l1.79,1.75h-12.92s10.27-10.27,10.27-10.27l-.02,2.5c0,.83.66,1.51,1.49,1.51h.01c.82,0,1.49-.66,1.5-1.49l.06-7.7-7.69.07c-.83,0-1.49.69-1.49,1.51,0,.83.7,1.5,1.51,1.49l2.5-.02-12.39,12.39h-6.54c-.52-.89-1.48-1.5-2.58-1.5-1.66,0-3,1.34-3,3s1.34,3,3,3c1.11,0,2.06-.61,2.58-1.5h6.53l12.4,12.4-2.5-.02c-.82.03-1.51.66-1.51,1.49,0,.83.66,1.51,1.49,1.51l7.69.07-.06-7.7c0-.82-.68-1.49-1.5-1.49h-.01c-.83,0-1.49.68-1.49,1.51l.02,2.5-10.28-10.28h12.91s-1.78,1.74-1.78,1.74c-.59.58-.6,1.53-.02,2.12Z"/>
    </g>
  </g>
</svg>