<?xml version="1.0" encoding="UTF-8"?>
<svg id="Layer_2" xmlns="http://www.w3.org/2000/svg" viewBox="0 0 72 72">
  <defs>
    <style>
      .cls-1 {
        fill: none;
        stroke: #ceac04;
        stroke-miterlimit: 10;
        stroke-width: 3px;
      }

      .cls-2 {
        fill: #fff;
      }

      .cls-3 {
        fill: #ceac04;
      }
    </style>
  </defs>
  <g id="_Желтый" data-name="Желтый">
    <g id="Gateway-пустая">
      <g>
        <g>
          <path class="cls-2" d="M7.09,1.5h57.83c3.08,0,5.59,2.5,5.59,5.59v57.83c0,3.08-2.5,5.59-5.59,5.59H7.09c-3.08,0-5.59-2.5-5.59-5.59V7.09C1.5,4,4,1.5,7.09,1.5Z"/>
          <path class="cls-3" d="M64.91,3c2.25,0,4.09,1.83,4.09,4.09v57.83c0,2.25-1.83,4.09-4.09,4.09H7.09c-2.25,0-4.09-1.83-4.09-4.09V7.09c0-2.25,1.83-4.09,4.09-4.09h57.83M64.91,0H7.09C3.19,0,0,3.19,0,7.09v57.83c0,3.9,3.19,7.09,7.09,7.09h57.83c3.9,0,7.09-3.19,7.09-7.09V7.09c0-3.9-3.19-7.09-7.09-7.09h0Z"/>
        </g>
        <circle class="cls-1" cx="36" cy="36" r="15.44"/>
        <g>
          <line class="cls-1" x1="36" y1="51.44" x2="17.49" y2="51.44"/>
          <polygon class="cls-3" points="18.59 47.71 12.11 51.44 18.59 55.18 18.59 47.71"/>
        </g>
      </g>
      <g>
        <line class="cls-1" x1="36" y1="20.56" x2="54.51" y2="20.56"/>
        <polygon class="cls-3" points="53.41 24.29 59.89 20.56 53.41 16.82 53.41 24.29"/>
      </g>
    </g>
  </g>
</svg>