<?xml version="1.0" encoding="UTF-8"?>
<svg id="Layer_2" xmlns="http://www.w3.org/2000/svg" viewBox="0 0 72 85.15">
  <defs>
    <style>
      .cls-1 {
        fill: none;
        stroke: #ceac04;
        stroke-miterlimit: 10;
        stroke-width: 3px;
      }

      .cls-2 {
        fill: #fff;
      }

      .cls-3 {
        fill: #ceac04;
      }
    </style>
  </defs>
  <g id="_Желтый" data-name="Желтый">
    <g id="Gateway-CGNAT">
      <g>
        <path d="M23.94,5.81c-.07.92-.41,1.64-1.02,2.17s-1.42.79-2.42.79c-1.09,0-1.95-.37-2.58-1.1s-.94-1.75-.94-3.03v-.52c0-.82.14-1.54.43-2.17s.7-1.1,1.24-1.44,1.16-.5,1.87-.5c.98,0,1.78.26,2.38.79s.95,1.27,1.04,2.22h-1.76c-.04-.55-.2-.95-.46-1.2s-.67-.37-1.2-.37c-.59,0-1.02.21-1.32.63s-.44,1.07-.45,1.95v.64c0,.92.14,1.6.42,2.02s.72.64,1.32.64c.54,0,.95-.12,1.22-.37s.42-.63.46-1.15h1.76Z"/>
        <path d="M31.84,7.57c-.32.38-.76.67-1.34.88s-1.22.31-1.92.31c-.74,0-1.39-.16-1.94-.48s-.99-.79-1.29-1.4-.46-1.33-.47-2.16v-.58c0-.85.14-1.59.43-2.21s.7-1.1,1.24-1.43,1.17-.5,1.9-.5c1.01,0,1.8.24,2.37.72s.91,1.18,1.01,2.11h-1.71c-.08-.49-.25-.85-.52-1.07s-.64-.34-1.1-.34c-.6,0-1.05.22-1.37.67s-.47,1.12-.47,2v.54c0,.89.17,1.57.51,2.03s.84.69,1.49.69,1.13-.14,1.41-.42v-1.47h-1.6v-1.29h3.36v3.4Z"/>
        <path d="M40.2,8.65h-1.76l-3.42-5.61v5.61h-1.76V.12h1.76l3.43,5.62V.12h1.75v8.53Z"/>
        <path d="M46.66,6.89h-3.08l-.59,1.76h-1.87L44.3.12h1.63l3.19,8.53h-1.87l-.59-1.76ZM44.05,5.47h2.13l-1.07-3.19-1.06,3.19Z"/>
        <path d="M55.63,1.54h-2.61v7.11h-1.76V1.54h-2.58V.12h6.95v1.42Z"/>
      </g>
      <g>
        <g>
          <g>
            <path class="cls-2" d="M7.09,14.65h57.83c3.08,0,5.59,2.5,5.59,5.59v57.83c0,3.08-2.5,5.59-5.59,5.59H7.09c-3.08,0-5.59-2.5-5.59-5.59V20.23c0-3.08,2.5-5.59,5.59-5.59Z"/>
            <path class="cls-3" d="M64.91,16.15c2.25,0,4.09,1.83,4.09,4.09v57.83c0,2.25-1.83,4.09-4.09,4.09H7.09c-2.25,0-4.09-1.83-4.09-4.09V20.23c0-2.25,1.83-4.09,4.09-4.09h57.83M64.91,13.15H7.09c-3.9,0-7.09,3.19-7.09,7.09v57.83c0,3.9,3.19,7.09,7.09,7.09h57.83c3.9,0,7.09-3.19,7.09-7.09V20.23c0-3.9-3.19-7.09-7.09-7.09h0Z"/>
          </g>
          <circle class="cls-1" cx="36" cy="49.15" r="15.44"/>
          <g>
            <line class="cls-1" x1="36" y1="64.59" x2="17.49" y2="64.59"/>
            <polygon class="cls-3" points="18.59 60.85 12.11 64.59 18.59 68.33 18.59 60.85"/>
          </g>
        </g>
        <g>
          <line class="cls-1" x1="36" y1="33.7" x2="54.51" y2="33.7"/>
          <polygon class="cls-3" points="53.41 37.44 59.89 33.7 53.41 29.96 53.41 37.44"/>
        </g>
      </g>
    </g>
  </g>
</svg>