<?xml version="1.0" encoding="UTF-8"?>
<svg id="Layer_2" data-name="Layer 2" xmlns="http://www.w3.org/2000/svg" viewBox="0 0 72 85.15">
  <defs>
    <style>
      .cls-1 {
        fill: #ceac04;
      }

      .cls-2 {
        fill: #fff;
      }
    </style>
  </defs>
  <g id="_Оригинал" data-name="Оригинал">
    <g>
      <g>
        <rect class="cls-2" y="13.15" width="72" height="72" rx="7.09" ry="7.09"/>
        <path class="cls-1" d="M64.91,16.15c2.25,0,4.09,1.83,4.09,4.09v57.83c0,2.25-1.83,4.09-4.09,4.09H7.09c-2.25,0-4.09-1.83-4.09-4.09V20.23c0-2.25,1.83-4.09,4.09-4.09h57.83M64.91,13.15H7.09C3.19,13.15,0,16.34,0,20.23v57.83C0,81.96,3.19,85.15,7.09,85.15h57.83c3.9,0,7.09-3.19,7.09-7.09V20.23c0-3.9-3.19-7.09-7.09-7.09h0Z"/>
      </g>
      <path class="cls-1" d="M56.96,73.74H15.04c-2,0-3.63-1.63-3.63-3.63V28.19c0-2,1.63-3.63,3.63-3.63h41.92c2,0,3.63,1.63,3.63,3.63v41.92c0,2-1.63,3.63-3.63,3.63ZM15.04,27.56c-.35,0-.63.28-.63.63v41.92c0,.35.28.63.63.63h41.92c.35,0,.63-.28.63-.63V28.19c0-.35-.28-.63-.63-.63H15.04Z"/>
      <g>
        <path d="M22.65,7.57c-.32.38-.76.67-1.34.88s-1.22.31-1.92.31c-.74,0-1.39-.16-1.94-.48s-.99-.79-1.29-1.4-.46-1.33-.47-2.16v-.58c0-.85.14-1.59.43-2.21s.7-1.1,1.24-1.43,1.17-.5,1.9-.5c1.01,0,1.8.24,2.37.72s.91,1.18,1.01,2.11h-1.71c-.08-.49-.25-.85-.52-1.07s-.64-.34-1.1-.34c-.6,0-1.05.22-1.37.67s-.47,1.12-.47,2v.54c0,.89.17,1.57.51,2.03s.84.69,1.49.69,1.13-.14,1.41-.42v-1.47h-1.6v-1.29h3.36v3.4Z"/>
        <path d="M30.5,1.54h-2.61v7.11h-1.76V1.54h-2.58V.12h6.95v1.42Z"/>
        <path d="M33.26,5.64v3.01h-1.76V.12h3.33c.64,0,1.2.12,1.69.35s.86.57,1.12,1,.39.92.39,1.47c0,.84-.29,1.5-.86,1.98s-1.36.72-2.38.72h-1.54ZM33.26,4.22h1.57c.46,0,.82-.11,1.06-.33s.37-.53.37-.94-.12-.76-.37-1.01-.59-.39-1.02-.4h-1.61v2.68Z"/>
        <path d="M43.99,7.24h3.73v1.41h-5.49V.12h1.76v7.12Z"/>
        <path d="M48.73,8.65V.12h2.99c1.04,0,1.82.2,2.36.59s.8.98.8,1.74c0,.42-.11.79-.32,1.1s-.51.55-.9.7c.44.11.78.33,1.03.66s.38.74.38,1.22c0,.82-.26,1.44-.79,1.86s-1.27.64-2.24.64h-3.32ZM50.48,3.69h1.3c.89-.02,1.33-.37,1.33-1.06,0-.39-.11-.67-.34-.83s-.58-.25-1.06-.25h-1.23v2.15ZM50.48,4.93v2.3h1.51c.41,0,.74-.1.97-.3s.35-.47.35-.82c0-.78-.4-1.18-1.21-1.19h-1.61Z"/>
      </g>
      <path class="cls-1" d="M45.99,54.52c.29.3.68.45,1.07.45s.76-.14,1.05-.43l5.49-5.4-5.49-5.39c-.59-.58-1.54-.57-2.12.02-.58.59-.57,1.54.02,2.12l1.79,1.75h-12.91s10.27-10.27,10.27-10.27l-.02,2.5c0,.83.66,1.51,1.49,1.51h.01c.82,0,1.49-.66,1.5-1.49l.06-7.7-7.69.07c-.83,0-1.49.69-1.49,1.51,0,.83.72,1.5,1.51,1.49l2.5-.02-12.39,12.39h-6.54c-.52-.89-1.48-1.5-2.58-1.5-1.66,0-3,1.34-3,3s1.34,3,3,3c1.11,0,2.06-.61,2.58-1.5h6.53l12.4,12.4-2.5-.02c-.83.03-1.51.66-1.51,1.49,0,.83.66,1.51,1.49,1.51l7.69.07-.06-7.7c0-.83-.72-1.51-1.51-1.49-.83,0-1.49.68-1.49,1.51l.02,2.5-10.28-10.28h12.91s-1.78,1.74-1.78,1.74c-.59.58-.6,1.53-.02,2.12Z"/>
    </g>
  </g>
</svg>