<?xml version="1.0" encoding="UTF-8"?>
<svg id="Layer_2" xmlns="http://www.w3.org/2000/svg" viewBox="0 0 72.5 67.19">
  <defs>
    <style>
      .cls-1 {
        fill: #fff;
      }

      .cls-2 {
        fill: #ceac04;
      }
    </style>
  </defs>
  <g id="_Желтый" data-name="Желтый">
    <g id="Laptop">
      <g>
        <path d="M20.22,63.34h3.73v1.41h-5.49v-8.53h1.76v7.12Z"/>
        <path d="M28.52,64.75c-.08-.15-.13-.34-.17-.57-.41.46-.94.69-1.6.69-.62,0-1.14-.18-1.54-.54s-.61-.81-.61-1.36c0-.67.25-1.19.75-1.55s1.22-.54,2.16-.54h.78v-.36c0-.29-.08-.53-.23-.7s-.39-.26-.71-.26c-.29,0-.51.07-.67.21s-.24.32-.24.56h-1.69c0-.37.11-.71.34-1.02s.55-.56.96-.74.88-.27,1.39-.27c.78,0,1.4.2,1.86.59s.69.94.69,1.66v2.75c0,.6.09,1.06.25,1.37v.1h-1.71ZM27.12,63.57c.25,0,.48-.06.69-.17s.37-.26.47-.45v-1.09h-.63c-.85,0-1.3.29-1.35.88v.1c0,.21.07.38.22.52s.35.21.61.21Z"/>
        <path d="M36.99,61.64c0,.98-.22,1.76-.67,2.35s-1.04.88-1.79.88c-.64,0-1.16-.22-1.55-.67v2.99h-1.69v-8.78h1.57l.06.62c.41-.49.95-.74,1.61-.74.78,0,1.39.29,1.82.87s.65,1.38.65,2.39v.09ZM35.29,61.52c0-.59-.11-1.04-.31-1.37s-.51-.48-.91-.48c-.53,0-.9.2-1.1.61v2.6c.21.42.58.63,1.11.63.81,0,1.21-.66,1.21-1.99Z"/>
        <path d="M40.06,56.85v1.56h1.08v1.24h-1.08v3.16c0,.23.04.4.13.5s.26.15.52.15c.19,0,.35-.01.5-.04v1.28c-.33.1-.67.15-1.03.15-1.19,0-1.79-.6-1.82-1.8v-3.42h-.93v-1.24h.93v-1.56h1.69Z"/>
        <path d="M41.65,61.52c0-.63.12-1.19.36-1.68s.59-.87,1.04-1.14.98-.4,1.59-.4c.86,0,1.55.26,2.09.79s.84,1.23.91,2.13v.43c.01.97-.26,1.75-.8,2.34s-1.27.88-2.19.88-1.64-.29-2.19-.88-.82-1.38-.82-2.39v-.08ZM43.34,61.64c0,.6.11,1.06.34,1.38.23.32.55.48.97.48s.73-.16.96-.47c.23-.31.35-.82.35-1.51,0-.59-.12-1.05-.35-1.37s-.55-.49-.97-.49-.73.16-.96.48-.34.82-.34,1.5Z"/>
        <path d="M54.41,61.64c0,.98-.22,1.76-.67,2.35s-1.04.88-1.79.88c-.64,0-1.16-.22-1.55-.67v2.99h-1.69v-8.78h1.57l.06.62c.41-.49.95-.74,1.61-.74.78,0,1.39.29,1.82.87s.65,1.38.65,2.39v.09ZM52.71,61.52c0-.59-.11-1.04-.31-1.37s-.51-.48-.91-.48c-.53,0-.9.2-1.1.61v2.6c.21.42.58.63,1.11.63.81,0,1.21-.66,1.21-1.99Z"/>
      </g>
      <g>
        <path class="cls-2" d="M70.75,42.25c.82,0,1.5.67,1.5,1.5,0,4.12-3.38,7.5-7.5,7.5H7.75c-4.12,0-7.5-3.38-7.5-7.5,0-.83.68-1.5,1.5-1.5h3.83c-.53-.9-.83-1.88-.83-3V6.25C4.75,2.87,7.37.25,10.75.25h51c3.38,0,6,2.62,6,6v33c0,1.12-.3,2.1-.82,3h3.82ZM69.02,45.25H3.48c.67,1.72,2.32,3,4.27,3h57c2.02,0,3.67-1.28,4.27-3ZM64.75,39.25V6.25c0-1.73-1.27-3-3-3H10.75c-1.73,0-3,1.27-3,3v33c0,1.72,1.27,3,3,3h51c1.73,0,3-1.28,3-3Z"/>
        <path class="cls-1" d="M3.48,45.25h65.54c-.6,1.72-2.25,3-4.27,3H7.75c-1.95,0-3.6-1.28-4.27-3Z"/>
        <path class="cls-1" d="M64.75,6.25v33c0,1.72-1.27,3-3,3H10.75c-1.73,0-3-1.28-3-3V6.25c0-1.73,1.27-3,3-3h51c1.73,0,3,1.27,3,3Z"/>
      </g>
    </g>
  </g>
</svg>