<?xml version="1.0" encoding="UTF-8"?>
<svg id="Layer_2" xmlns="http://www.w3.org/2000/svg" viewBox="0 0 72.5 64.87">
  <defs>
    <style>
      .cls-1 {
        fill: #fff;
      }

      .cls-2 {
        fill: none;
        stroke: #ceac04;
        stroke-linecap: round;
        stroke-miterlimit: 10;
        stroke-width: 3px;
      }

      .cls-3 {
        fill: #ceac04;
      }
    </style>
  </defs>
  <g id="_Желтый" data-name="Желтый">
    <g id="Monitor-Zabbix">
      <g>
        <g>
          <path class="cls-3" d="M70.75,42.25c.82,0,1.5.67,1.5,1.5,0,4.12-3.38,7.5-7.5,7.5H7.75c-4.13,0-7.5-3.38-7.5-7.5,0-.83.67-1.5,1.5-1.5h3.82c-.52-.9-.82-1.88-.82-3V6.25C4.75,2.87,7.37.25,10.75.25h51c3.37,0,6,2.62,6,6v33c0,1.12-.3,2.1-.83,3h3.83ZM69.02,45.25H3.47c.68,1.72,2.33,3,4.28,3h57c2.02,0,3.67-1.28,4.27-3ZM64.75,39.25V6.25c0-1.73-1.28-3-3-3H10.75c-1.73,0-3,1.27-3,3v33c0,1.72,1.27,3,3,3h51c1.72,0,3-1.28,3-3Z"/>
          <path class="cls-1" d="M61.75,45.25h7.27c-.6,1.72-2.25,3-4.27,3H7.75c-1.95,0-3.6-1.28-4.28-3h58.28Z"/>
          <path class="cls-1" d="M64.75,6.25v33c0,1.72-1.28,3-3,3H10.75c-1.73,0-3-1.28-3-3V6.25c0-1.73,1.27-3,3-3h51c1.72,0,3,1.27,3,3Z"/>
        </g>
        <g>
          <circle class="cls-3" cx="17.75" cy="30.73" r="3"/>
          <circle class="cls-3" cx="30.25" cy="16.44" r="3"/>
          <circle class="cls-3" cx="46.61" cy="26.93" r="3"/>
          <polyline class="cls-2" points="17.75 30.73 30.25 16.44 46.61 26.93 58.14 14.88"/>
        </g>
      </g>
      <g>
        <path d="M20.62,63.34h4.3v1.41h-6.5v-1.03l4.22-6.08h-4.21v-1.42h6.4v1.01l-4.21,6.11Z"/>
        <path d="M29.59,64.75c-.08-.15-.13-.34-.17-.57-.41.46-.94.69-1.6.69-.62,0-1.13-.18-1.54-.54s-.61-.81-.61-1.36c0-.67.25-1.19.75-1.55s1.22-.54,2.16-.54h.78v-.36c0-.29-.07-.53-.22-.7s-.39-.26-.71-.26c-.29,0-.51.07-.67.21s-.24.32-.24.56h-1.69c0-.37.11-.71.34-1.02s.55-.56.96-.74.88-.27,1.39-.27c.78,0,1.4.2,1.86.59s.69.94.69,1.66v2.75c0,.6.09,1.06.25,1.37v.1h-1.71ZM28.19,63.57c.25,0,.48-.06.69-.17s.37-.26.47-.45v-1.09h-.63c-.85,0-1.3.29-1.35.88v.1c0,.21.07.38.22.52s.35.21.61.21Z"/>
        <path d="M38.07,61.64c0,1.02-.22,1.81-.65,2.38s-1.04.85-1.82.85c-.69,0-1.24-.26-1.65-.79l-.08.67h-1.52v-9h1.69v3.23c.39-.46.9-.69,1.54-.69.77,0,1.38.28,1.82.85s.66,1.37.66,2.4v.09ZM36.37,61.52c0-.64-.1-1.11-.3-1.4s-.51-.44-.91-.44c-.54,0-.91.22-1.11.66v2.5c.21.45.58.67,1.12.67s.91-.27,1.08-.81c.08-.26.12-.65.12-1.18Z"/>
        <path d="M44.82,61.64c0,1.02-.22,1.81-.65,2.38s-1.04.85-1.82.85c-.69,0-1.24-.26-1.65-.79l-.08.67h-1.52v-9h1.69v3.23c.39-.46.9-.69,1.54-.69.77,0,1.38.28,1.82.85s.66,1.37.66,2.4v.09ZM43.13,61.52c0-.64-.1-1.11-.3-1.4s-.51-.44-.91-.44c-.54,0-.91.22-1.11.66v2.5c.21.45.58.67,1.12.67s.91-.27,1.08-.81c.08-.26.12-.65.12-1.18Z"/>
        <path d="M45.85,56.77c0-.25.09-.46.26-.63s.4-.25.69-.25.52.08.69.25.26.37.26.63-.09.47-.26.63-.4.25-.69.25-.51-.08-.69-.25-.26-.38-.26-.63ZM47.65,64.75h-1.7v-6.34h1.7v6.34Z"/>
        <path d="M51.46,60.3l1.07-1.89h1.81l-1.8,3.11,1.88,3.23h-1.82l-1.13-1.99-1.12,1.99h-1.82l1.88-3.23-1.8-3.11h1.82l1.04,1.89Z"/>
      </g>
    </g>
  </g>
</svg>