<?xml version="1.0" encoding="UTF-8"?>
<svg id="Layer_2" xmlns="http://www.w3.org/2000/svg" viewBox="0 0 72 85.35">
  <defs>
    <style>
      .cls-1 {
        fill: none;
        stroke: #ceac04;
        stroke-miterlimit: 10;
        stroke-width: 3px;
      }

      .cls-2 {
        fill: #fff;
      }

      .cls-3 {
        fill: #ceac04;
      }
    </style>
  </defs>
  <g id="_Желтый" data-name="Желтый">
    <g id="Protect-SigFW">
      <g>
        <path d="M23.95,6.62c0-.33-.12-.59-.35-.76s-.66-.37-1.27-.56-1.09-.39-1.45-.58c-.97-.52-1.45-1.23-1.45-2.12,0-.46.13-.87.39-1.23s.63-.64,1.12-.85,1.03-.3,1.64-.3,1.15.11,1.63.33.85.53,1.11.93.4.86.4,1.37h-1.76c0-.39-.12-.69-.37-.91s-.59-.33-1.04-.33-.76.09-1,.27-.36.42-.36.72c0,.28.14.51.42.7s.69.36,1.23.53c1,.3,1.73.67,2.19,1.12s.69,1,.69,1.66c0,.74-.28,1.32-.84,1.74s-1.31.63-2.26.63c-.66,0-1.25-.12-1.79-.36s-.95-.57-1.23-.99-.42-.9-.42-1.45h1.76c0,.94.56,1.41,1.69,1.41.42,0,.74-.08.98-.25s.35-.41.35-.71Z"/>
        <path d="M26.78.87c0-.25.08-.46.25-.63s.4-.25.69-.25.52.08.69.25.26.37.26.63-.09.47-.26.63-.4.25-.69.25-.51-.08-.69-.25-.26-.38-.26-.63ZM28.58,8.85h-1.7V2.51h1.7v6.34Z"/>
        <path d="M29.73,5.64c0-.97.23-1.76.69-2.35s1.09-.89,1.87-.89c.7,0,1.24.24,1.62.71l.07-.6h1.54v6.13c0,.55-.13,1.04-.38,1.45s-.61.72-1.06.94-.99.32-1.61.32c-.46,0-.92-.09-1.36-.28s-.78-.42-1-.72l.75-1.03c.42.47.93.71,1.54.71.45,0,.8-.12,1.05-.36s.38-.58.38-1.02v-.34c-.39.44-.9.66-1.54.66-.76,0-1.38-.3-1.85-.89s-.71-1.39-.71-2.37v-.07ZM31.42,5.76c0,.58.12,1.03.35,1.35.23.33.55.49.95.49.52,0,.88-.19,1.11-.58v-2.67c-.23-.39-.59-.58-1.1-.58-.41,0-.73.17-.96.5s-.35.83-.35,1.49Z"/>
        <path d="M42.06,5.37h-3.38v3.49h-1.76V.32h5.55v1.42h-3.8v2.2h3.38v1.42Z"/>
        <path d="M50.15,6.39l1.15-6.07h1.75l-1.89,8.53h-1.77l-1.39-5.71-1.39,5.71h-1.77l-1.89-8.53h1.75l1.15,6.06,1.41-6.06h1.49l1.4,6.07Z"/>
      </g>
      <g>
        <g>
          <path class="cls-2" d="M7.09,14.85h57.83c3.08,0,5.59,2.5,5.59,5.59v57.83c0,3.08-2.5,5.59-5.59,5.59H7.09c-3.08,0-5.59-2.5-5.59-5.59V20.44c0-3.08,2.5-5.59,5.59-5.59Z"/>
          <path class="cls-3" d="M64.91,16.35c2.25,0,4.09,1.83,4.09,4.09v57.83c0,2.25-1.83,4.09-4.09,4.09H7.09c-2.25,0-4.09-1.83-4.09-4.09V20.44c0-2.25,1.83-4.09,4.09-4.09h57.83M64.91,13.35H7.09c-3.9,0-7.09,3.19-7.09,7.09v57.83c0,3.9,3.19,7.09,7.09,7.09h57.83c3.9,0,7.09-3.19,7.09-7.09V20.44c0-3.9-3.19-7.09-7.09-7.09h0Z"/>
        </g>
        <g>
          <path class="cls-3" d="M58.56,34.91v28.89H13.44v-28.89h45.11M61.56,31.91H10.44v34.89h51.11V31.91h0Z"/>
          <line class="cls-1" x1="11.94" y1="43.49" x2="59.61" y2="43.49"/>
          <line class="cls-1" x1="11.94" y1="53.91" x2="59.61" y2="53.91"/>
          <line class="cls-1" x1="27.83" y1="33.24" x2="27.83" y2="43.49"/>
          <line class="cls-1" x1="44.17" y1="33.24" x2="44.17" y2="43.49"/>
          <line class="cls-1" x1="27.83" y1="55.34" x2="27.83" y2="65.59"/>
          <line class="cls-1" x1="44.17" y1="55.34" x2="44.17" y2="65.59"/>
          <line class="cls-1" x1="36.22" y1="42.83" x2="36.22" y2="53.08"/>
          <line class="cls-1" x1="52.33" y1="42.83" x2="52.33" y2="53.08"/>
          <line class="cls-1" x1="20.11" y1="42.83" x2="20.11" y2="53.08"/>
        </g>
      </g>
    </g>
  </g>
</svg>