<?xml version="1.0" encoding="UTF-8"?>
<svg id="Layer_2" xmlns="http://www.w3.org/2000/svg" viewBox="0 0 72 85.15">
  <defs>
    <style>
      .cls-1 {
        fill: none;
        stroke: #ceac04;
        stroke-miterlimit: 10;
        stroke-width: 3px;
      }

      .cls-2 {
        fill: #fff;
      }

      .cls-3 {
        fill: #ceac04;
      }
    </style>
  </defs>
  <g id="_Желтый" data-name="Желтый">
    <g id="Protect-GTPFW">
      <g>
        <path d="M23.31,7.57c-.32.38-.76.67-1.34.88s-1.22.31-1.92.31c-.74,0-1.39-.16-1.94-.48s-.99-.79-1.29-1.4-.46-1.33-.47-2.16v-.58c0-.85.14-1.59.43-2.21s.7-1.1,1.24-1.43,1.17-.5,1.9-.5c1.01,0,1.8.24,2.37.72s.91,1.18,1.01,2.11h-1.71c-.08-.49-.25-.85-.52-1.07s-.64-.34-1.1-.34c-.6,0-1.05.22-1.37.67s-.47,1.12-.47,2v.54c0,.89.17,1.57.51,2.03s.84.69,1.49.69,1.13-.14,1.41-.42v-1.47h-1.6v-1.29h3.36v3.4Z"/>
        <path d="M31.15,1.54h-2.61v7.11h-1.76V1.54h-2.58V.12h6.95v1.42Z"/>
        <path d="M33.91,5.64v3.01h-1.76V.12h3.33c.64,0,1.2.12,1.69.35s.86.57,1.12,1,.39.92.39,1.47c0,.84-.29,1.5-.86,1.98s-1.36.72-2.38.72h-1.54ZM33.91,4.22h1.57c.46,0,.82-.11,1.06-.33s.37-.53.37-.94-.12-.76-.37-1.01-.59-.39-1.02-.4h-1.61v2.68Z"/>
        <path d="M45.03,5.16h-3.38v3.49h-1.76V.12h5.55v1.42h-3.8v2.2h3.38v1.42Z"/>
        <path d="M53.12,6.19L54.26.12h1.75l-1.89,8.53h-1.77l-1.39-5.71-1.39,5.71h-1.77L45.91.12h1.75l1.15,6.06L50.23.12h1.49l1.4,6.07Z"/>
      </g>
      <g>
        <g>
          <path class="cls-2" d="M7.09,14.65h57.83c3.08,0,5.59,2.5,5.59,5.59v57.83c0,3.08-2.5,5.59-5.59,5.59H7.09c-3.08,0-5.59-2.5-5.59-5.59V20.23c0-3.08,2.5-5.59,5.59-5.59Z"/>
          <path class="cls-3" d="M64.91,16.15c2.25,0,4.09,1.83,4.09,4.09v57.83c0,2.25-1.83,4.09-4.09,4.09H7.09c-2.25,0-4.09-1.83-4.09-4.09V20.24c0-2.25,1.83-4.09,4.09-4.09h57.83M64.91,13.15H7.09c-3.9,0-7.09,3.19-7.09,7.09v57.83c0,3.9,3.19,7.09,7.09,7.09h57.83c3.9,0,7.09-3.19,7.09-7.09V20.24c0-3.9-3.19-7.09-7.09-7.09h0Z"/>
        </g>
        <g>
          <path class="cls-3" d="M58.56,34.7v28.89H13.44v-28.89h45.11M61.56,31.7H10.44v34.89h51.11V31.7h0Z"/>
          <line class="cls-1" x1="11.94" y1="43.29" x2="59.61" y2="43.29"/>
          <line class="cls-1" x1="11.94" y1="53.7" x2="59.61" y2="53.7"/>
          <line class="cls-1" x1="27.83" y1="33.04" x2="27.83" y2="43.29"/>
          <line class="cls-1" x1="44.17" y1="33.04" x2="44.17" y2="43.29"/>
          <line class="cls-1" x1="27.83" y1="55.13" x2="27.83" y2="65.38"/>
          <line class="cls-1" x1="44.17" y1="55.13" x2="44.17" y2="65.38"/>
          <line class="cls-1" x1="36.22" y1="42.62" x2="36.22" y2="52.87"/>
          <line class="cls-1" x1="52.33" y1="42.62" x2="52.33" y2="52.87"/>
          <line class="cls-1" x1="20.11" y1="42.62" x2="20.11" y2="52.87"/>
        </g>
      </g>
    </g>
  </g>
</svg>