<?xml version="1.0" encoding="UTF-8"?>
<svg id="Layer_2" xmlns="http://www.w3.org/2000/svg" viewBox="0 0 72 85.5">
  <defs>
    <style>
      .cls-1 {
        fill: #fff;
      }

      .cls-2 {
        fill: #ceac04;
      }
    </style>
  </defs>
  <g id="_Желтый" data-name="Желтый">
    <g id="VAS-WhoCalled">
      <g>
        <rect class="cls-1" x="0" y="13.5" width="72" height="72" rx="7.09" ry="7.09"/>
        <path class="cls-2" d="M64.91,16.5c2.25,0,4.09,1.83,4.09,4.09v57.83c0,2.25-1.83,4.09-4.09,4.09H7.09c-2.25,0-4.09-1.83-4.09-4.09V20.59c0-2.25,1.83-4.09,4.09-4.09h57.83M64.91,13.5H7.09c-3.9,0-7.09,3.19-7.09,7.09v57.83c0,3.9,3.19,7.09,7.09,7.09h57.83c3.9,0,7.09-3.19,7.09-7.09V20.59c0-3.9-3.19-7.09-7.09-7.09h0Z"/>
      </g>
      <g>
        <path d="M13.76,6.54L14.91.47h1.75l-1.89,8.53h-1.77l-1.39-5.71-1.39,5.71h-1.77L6.56.47h1.75l1.15,6.06L10.88.47h1.49l1.4,6.07Z"/>
        <path d="M19.15,3.35c.45-.54,1.01-.81,1.69-.81,1.38,0,2.07.8,2.09,2.4v4.06h-1.69v-4.01c0-.36-.08-.63-.23-.81s-.42-.26-.78-.26c-.5,0-.86.19-1.08.57v4.51h-1.69V0h1.69v3.35Z"/>
        <path d="M23.95,5.77c0-.63.12-1.19.36-1.68s.59-.87,1.05-1.14.98-.4,1.58-.4c.86,0,1.55.26,2.09.79s.84,1.23.91,2.13v.43c.01.97-.26,1.75-.8,2.34s-1.27.88-2.19.88-1.64-.29-2.19-.88-.82-1.38-.82-2.39v-.08ZM25.65,5.89c0,.6.11,1.06.34,1.38.23.32.55.48.97.48s.73-.16.96-.47c.23-.31.35-.82.35-1.51,0-.59-.12-1.05-.35-1.37-.23-.32-.55-.49-.97-.49s-.73.16-.96.48c-.23.32-.34.82-.34,1.5Z"/>
        <path d="M36.63,7.75c.31,0,.57-.09.76-.26s.3-.4.3-.69h1.59c0,.43-.12.82-.35,1.18s-.55.63-.95.83-.84.3-1.33.3c-.91,0-1.62-.29-2.14-.86s-.79-1.37-.79-2.39v-.11c0-.98.26-1.76.78-2.34s1.23-.87,2.14-.87c.79,0,1.43.23,1.91.68s.72,1.05.73,1.8h-1.59c0-.33-.11-.6-.3-.8s-.45-.31-.77-.31c-.39,0-.69.14-.89.43s-.3.75-.3,1.4v.18c0,.65.1,1.12.3,1.41.2.29.5.43.91.43Z"/>
        <path d="M43.92,9c-.08-.15-.13-.34-.17-.57-.41.46-.94.69-1.6.69-.62,0-1.14-.18-1.54-.54s-.61-.81-.61-1.36c0-.67.25-1.19.75-1.55s1.22-.54,2.16-.54h.78v-.36c0-.29-.08-.53-.23-.7s-.39-.26-.71-.26c-.29,0-.51.07-.67.21s-.24.32-.24.56h-1.69c0-.37.11-.71.34-1.02s.55-.56.96-.74.88-.27,1.39-.27c.78,0,1.4.2,1.86.59s.69.94.69,1.66v2.75c0,.6.09,1.06.25,1.37v.1h-1.71ZM42.52,7.82c.25,0,.48-.06.69-.17s.37-.26.47-.45v-1.09h-.63c-.85,0-1.3.29-1.35.88v.1c0,.21.07.38.22.52s.35.21.61.21Z"/>
        <path d="M48.47,9h-1.7V0h1.7v9Z"/>
        <path d="M51.65,9h-1.7V0h1.7v9Z"/>
        <path d="M55.96,9.12c-.93,0-1.69-.29-2.27-.86s-.88-1.33-.88-2.28v-.16c0-.64.12-1.21.37-1.71s.59-.89,1.05-1.16.97-.41,1.54-.41c.87,0,1.55.27,2.05.82s.75,1.32.75,2.33v.69h-4.04c.05.41.22.75.5,1s.62.38,1.05.38c.65,0,1.16-.24,1.53-.71l.83.93c-.25.36-.6.64-1.03.84s-.91.3-1.44.3ZM55.77,3.91c-.34,0-.61.11-.82.34s-.34.55-.4.98h2.36v-.13c0-.38-.11-.67-.3-.87s-.47-.31-.83-.31Z"/>
        <path d="M59.27,5.78c0-.99.22-1.78.67-2.36s1.05-.88,1.82-.88c.62,0,1.13.23,1.53.69V0h1.7v9h-1.53l-.08-.67c-.42.53-.96.79-1.63.79-.75,0-1.34-.29-1.8-.88s-.68-1.41-.68-2.45ZM60.96,5.91c0,.59.1,1.05.31,1.37.21.32.51.48.9.48.52,0,.89-.22,1.11-.66v-2.51c-.21-.44-.58-.66-1.1-.66-.82,0-1.22.66-1.22,1.99Z"/>
      </g>
      <g>
        <path class="cls-2" d="M35.37,59.1c-9.28,0-16.83-7.55-16.83-16.83s7.55-16.83,16.83-16.83,16.83,7.55,16.83,16.83-7.55,16.83-16.83,16.83ZM35.37,28.43c-7.63,0-13.83,6.21-13.83,13.83s6.21,13.83,13.83,13.83,13.83-6.21,13.83-13.83-6.21-13.83-13.83-13.83Z"/>
        <path class="cls-2" d="M28.33,73.57c-9.28,0-16.83-7.55-16.83-16.83s7.55-16.83,16.83-16.83,16.83,7.55,16.83,16.83-7.55,16.83-16.83,16.83ZM28.33,42.9c-7.63,0-13.83,6.21-13.83,13.83s6.21,13.83,13.83,13.83,13.83-6.21,13.83-13.83-6.21-13.83-13.83-13.83Z"/>
        <path class="cls-2" d="M43.67,73.57c-9.28,0-16.83-7.55-16.83-16.83s7.55-16.83,16.83-16.83,16.83,7.55,16.83,16.83-7.55,16.83-16.83,16.83ZM43.67,42.9c-7.63,0-13.83,6.21-13.83,13.83s6.21,13.83,13.83,13.83,13.83-6.21,13.83-13.83-6.21-13.83-13.83-13.83Z"/>
      </g>
    </g>
  </g>
</svg>