<?xml version="1.0" encoding="UTF-8"?>
<svg id="Layer_2" xmlns="http://www.w3.org/2000/svg" viewBox="0 0 54.25 72.22">
  <defs>
    <style>
      .cls-1 {
        fill: #fff;
      }

      .cls-2 {
        fill: #5b6770;
      }
    </style>
  </defs>
  <g id="_Серый" data-name="Серый">
    <g id="Billing-пустая">
      <g>
        <path class="cls-2" d="M39.12,57.4v9.67c0,2.07-.85,3.63-2.76,4.51-.53.24-1.15.37-1.73.37-9.93.03-19.86.03-29.79.02-2.46,0-4.58-1.93-4.58-4.66-.01-5.41-.01-10.82-.01-16.23v-14.97C.25,25.81.26,15.5.25,5.2.25,3.13,1.07,1.55,2.97.68c.58-.27,1.28-.41,1.92-.41,5.01-.03,10.01-.02,15.02-.02s9.65,0,14.48.01c2.06,0,3.73,1.09,4.45,3.03.2.53.27,1.14.27,1.72.01,17.46.01,34.93.01,52.39ZM36.06,67.03c.01-20.56.01-41.12.01-61.68,0-.29,0-.58-.04-.87-.05-.53-.36-.9-.86-1.06-.34-.1-.7-.16-1.05-.17-2.7-.01-5.41,0-8.11,0h-3.26c-.31,0-.58.05-.7.39-.11.35-.22.71-.33,1.06-.29.85-.87,1.4-1.77,1.53-.75.11-1.44-.14-1.87-.77-.32-.47-.53-1.04-.69-1.59-.13-.46-.36-.63-.82-.63-.95.02-1.91.01-2.86.01H5.35c-.19,0-.39-.01-.58.02-.86.11-1.46.56-1.46,1.55.01,2.57,0,5.15,0,7.72v49.43c0,1.78.01,3.56-.01,5.34-.01,1.18.73,1.61,1.66,1.66.15.01.29.01.44.01h28.81c.64,0,1.28-.09,1.6-.7.19-.37.25-.83.25-1.25Z"/>
        <path class="cls-1" d="M36.07,5.35c0,20.56,0,41.12-.01,61.68,0,.42-.06.88-.25,1.25-.32.61-.96.7-1.6.7H5.4c-.15,0-.29,0-.44-.01-.93-.05-1.67-.48-1.66-1.66.02-1.78.01-3.56.01-5.34V12.54c0-2.57.01-5.15,0-7.72,0-.99.6-1.44,1.46-1.55.19-.03.39-.02.58-.02h8.36c.95,0,1.91.01,2.86-.01.46,0,.69.17.82.63.16.55.37,1.12.69,1.59.43.63,1.12.88,1.87.77.9-.13,1.48-.68,1.77-1.53.11-.35.22-.71.33-1.06.12-.34.39-.39.7-.39h3.26c2.7,0,5.41-.01,8.11,0,.35.01.71.07,1.05.17.5.16.81.53.86,1.06.04.29.04.58.04.87Z"/>
      </g>
      <g>
        <g>
          <path class="cls-1" d="M37.78,70.47c-8.26,0-14.97-6.72-14.97-14.97s6.72-14.97,14.97-14.97,14.97,6.72,14.97,14.97-6.72,14.97-14.97,14.97Z"/>
          <path class="cls-2" d="M37.78,42.03c7.43,0,13.47,6.04,13.47,13.47s-6.04,13.47-13.47,13.47-13.47-6.04-13.47-13.47,6.04-13.47,13.47-13.47M37.78,39.03c-9.1,0-16.47,7.38-16.47,16.47s7.38,16.47,16.47,16.47,16.47-7.38,16.47-16.47-7.38-16.47-16.47-16.47h0Z"/>
        </g>
        <path class="cls-2" d="M39.36,60.73h-3.11v1.9h-2.94v-1.9h-1.99v-2.38h1.99v-.74h-1.99v-2.38h1.99v-6.85h5.54c1.07,0,2.01.19,2.82.58s1.44.93,1.88,1.65c.45.71.67,1.53.67,2.44,0,1.41-.48,2.52-1.43,3.34s-2.29,1.22-3.99,1.22h-2.56v.74h3.11v2.38ZM36.25,55.23h2.54c1.64,0,2.47-.72,2.47-2.16,0-.69-.21-1.24-.63-1.66-.42-.42-1-.64-1.73-.64h-2.64v4.46Z"/>
      </g>
    </g>
  </g>
</svg>