<?xml version="1.0" encoding="UTF-8"?>
<svg id="Layer_2" xmlns="http://www.w3.org/2000/svg" viewBox="0 0 219 139.03">
  <defs>
    <style>
      .cls-1 {
        fill: #5b6770;
      }
    </style>
  </defs>
  <g id="_Серый" data-name="Серый">
    <g id="Cloud-216">
      <path class="cls-1" d="M127.62,4.5c12.17,0,23.53,4.3,33.77,12.77,8.68,7.18,14.55,16.48,17.46,27.64,1.5,5.74,2,10.54,1.59,15.09-.08.93-.07,4.02,3.68,4.65,13.05,2.22,22.31,9.23,27.54,20.84,6.44,14.3,1.6,32.26-11.26,41.77-6.59,4.87-13.8,7.25-22.06,7.25h-24.47s-25.56,0-25.56,0h-25.57c-19.31,0-38.62,0-57.97.02-13.55,0-24.07-4.94-32.14-15.11-6.48-8.16-9.28-18.82-7.68-29.24,1.6-10.42,7.46-19.74,16.08-25.57,1.94-1.31,4.09-2.37,6.37-3.48.69-.34,1.38-.67,2.06-1.02,1.17-.59,2.74-1.67,2.96-4.26,1.17-13.76,12.87-24.54,26.64-24.54.81,0,1.62.04,2.43.11,3.73.35,7.49,1.73,11.49,4.24.27.17.55.34.85.54l.53.34,2.69,1.7,1.54-2.78.48-.86c.31-.57.61-1.11.91-1.64,8.23-14.69,20.2-23.81,35.59-27.12,4.09-.88,8.14-1.32,12.05-1.32M127.62,1.5c-4.12,0-8.35.46-12.68,1.39-16.84,3.62-29.19,13.62-37.58,28.59-.45.8-.9,1.61-1.4,2.52-.54-.34-.97-.62-1.4-.89-3.94-2.47-8.14-4.25-12.81-4.69-.91-.08-1.81-.13-2.71-.13-15.17,0-28.32,11.84-29.63,27.29-.09,1.01-.49,1.41-1.32,1.83-2.96,1.49-6.02,2.85-8.75,4.7C-.2,75.35-4.4,102.8,10.28,121.28c8.8,11.08,20.42,16.25,34.49,16.25.01,0,.03,0,.04,0,19.31-.01,38.62-.02,57.93-.02,17.04,0,34.09,0,51.13,0,8.16,0,16.31,0,24.47,0,8.8,0,16.75-2.58,23.85-7.84,13.91-10.29,19.28-29.71,12.21-45.42-5.78-12.85-15.94-20.21-29.77-22.57-.91-.15-1.29-.41-1.19-1.42.5-5.48-.3-10.84-1.67-16.12-3.05-11.68-9.16-21.5-18.45-29.19-10.74-8.89-22.7-13.46-35.69-13.46h0Z"/>
    </g>
  </g>
</svg>