<?xml version="1.0" encoding="UTF-8"?>
<svg id="Layer_2" xmlns="http://www.w3.org/2000/svg" viewBox="0 0 75 48.34">
  <defs>
    <style>
      .cls-1 {
        fill: #5b6770;
      }
    </style>
  </defs>
  <g id="_Серый" data-name="Серый">
    <g id="Cloud-72">
      <path class="cls-1" d="M43.54,4.5c3.58,0,6.94,1.28,9.98,3.8,2.56,2.12,4.3,4.87,5.16,8.18.44,1.68.59,3.06.47,4.34-.17,1.86,1.01,3.39,2.88,3.71,3.7.63,6.22,2.53,7.69,5.8,1.77,3.93.43,8.87-3.12,11.5-1.84,1.36-3.86,2.02-6.17,2.02h-8.11s-8.53,0-8.53,0h-8.53c-6.45,0-12.89,0-19.35,0-3.87,0-6.86-1.4-9.15-4.28-1.81-2.29-2.6-5.27-2.15-8.2.46-2.97,2.06-5.51,4.51-7.17.53-.36,1.19-.68,1.88-1.02.24-.12.47-.23.71-.35,1.57-.8,2-2.09,2.08-3.03.3-3.56,3.33-6.35,6.89-6.35.21,0,.42,0,.62.03.94.09,1.88.44,2.95,1.11l.28.18.17.11,2.69,1.71,1.55-2.78.17-.3.3-.53c2.48-4.43,5.93-7.07,10.54-8.06,1.22-.26,2.43-.4,3.6-.4M43.54,1.5c-1.38,0-2.78.15-4.23.46-5.61,1.21-9.73,4.54-12.52,9.53-.15.27-.3.54-.47.84-.18-.11-.32-.21-.47-.3-1.31-.82-2.71-1.42-4.27-1.56-.3-.03-.6-.04-.9-.04-5.06,0-9.44,3.95-9.88,9.1-.03.34-.16.47-.44.61-.99.5-2.01.95-2.92,1.57C.93,26.12-.47,35.27,4.43,41.43c2.93,3.69,6.81,5.42,11.5,5.42h.01c6.45,0,12.89,0,19.34,0,5.69,0,11.37,0,17.06,0,2.7,0,5.41,0,8.11,0,2.93,0,5.58-.86,7.95-2.61,4.64-3.43,6.43-9.9,4.07-15.14-1.93-4.28-5.31-6.74-9.92-7.52-.3-.05-.43-.14-.4-.47.17-1.83-.1-3.61-.56-5.37-1.02-3.89-3.05-7.17-6.15-9.73-3.58-2.96-7.57-4.49-11.9-4.49h0Z"/>
    </g>
  </g>
</svg>