<?xml version="1.0" encoding="UTF-8"?>
<svg id="Layer_2" xmlns="http://www.w3.org/2000/svg" viewBox="0 0 72 85.03">
  <defs>
    <style>
      .cls-1 {
        fill: none;
        stroke: #5b6770;
        stroke-miterlimit: 10;
        stroke-width: 3px;
      }

      .cls-2 {
        fill: #fff;
      }

      .cls-3 {
        fill: #5b6770;
      }
    </style>
  </defs>
  <g id="_Серый" data-name="Серый">
    <g id="Gateway-UPF">
      <g>
        <path d="M32.11,0v5.62c0,.93-.29,1.67-.88,2.21s-1.38.81-2.39.81-1.79-.26-2.37-.79-.88-1.25-.9-2.17V0h1.76v5.63c0,.56.13.97.4,1.22s.64.38,1.11.38c.99,0,1.49-.52,1.51-1.56V0h1.76Z"/>
        <path d="M35.31,5.53v3.01h-1.76V0h3.33c.64,0,1.2.12,1.69.35s.86.57,1.12,1,.39.92.39,1.47c0,.84-.29,1.5-.86,1.98s-1.36.72-2.38.72h-1.54ZM35.31,4.1h1.57c.46,0,.82-.11,1.06-.33s.37-.53.37-.94-.12-.76-.37-1.01-.59-.39-1.02-.4h-1.61v2.68Z"/>
        <path d="M46.43,5.04h-3.38v3.49h-1.76V0h5.55v1.42h-3.8v2.2h3.38v1.42Z"/>
      </g>
      <g>
        <g>
          <g>
            <path class="cls-2" d="M7.09,14.53h57.83c3.08,0,5.59,2.5,5.59,5.59v57.83c0,3.08-2.5,5.59-5.59,5.59H7.09c-3.08,0-5.59-2.5-5.59-5.59V20.12c0-3.08,2.5-5.59,5.59-5.59Z"/>
            <path class="cls-3" d="M64.91,16.03c2.25,0,4.09,1.83,4.09,4.09v57.83c0,2.25-1.83,4.09-4.09,4.09H7.09c-2.25,0-4.09-1.83-4.09-4.09V20.12c0-2.25,1.83-4.09,4.09-4.09h57.83M64.91,13.03H7.09c-3.9,0-7.09,3.19-7.09,7.09v57.83c0,3.9,3.19,7.09,7.09,7.09h57.83c3.9,0,7.09-3.19,7.09-7.09V20.12c0-3.9-3.19-7.09-7.09-7.09h0Z"/>
          </g>
          <circle class="cls-1" cx="36" cy="49.03" r="15.44"/>
          <g>
            <line class="cls-1" x1="36" y1="64.48" x2="17.49" y2="64.48"/>
            <polygon class="cls-3" points="18.59 60.74 12.11 64.47 18.59 68.21 18.59 60.74"/>
          </g>
        </g>
        <g>
          <line class="cls-1" x1="36" y1="33.59" x2="54.51" y2="33.59"/>
          <polygon class="cls-3" points="53.41 37.33 59.89 33.59 53.41 29.85 53.41 37.33"/>
        </g>
      </g>
    </g>
  </g>
</svg>