<?xml version="1.0" encoding="UTF-8"?>
<svg id="Layer_2" xmlns="http://www.w3.org/2000/svg" viewBox="0 0 71.89 71.97">
  <defs>
    <style>
      .cls-1 {
        fill: #fff;
      }

      .cls-2 {
        fill: #5b6770;
      }
    </style>
  </defs>
  <g id="_Серый" data-name="Серый">
    <g id="Server-PCRF">
      <g>
        <polygon class="cls-1" points="1.92 69.88 1.92 27.21 11.81 1.54 60.03 1.54 70.25 27.43 70.25 69.88 1.92 69.88"/>
        <path class="cls-2" d="M71.89,39.92v-12.63c0-.05,0-.1-.02-.14.01-.05,0-.1-.01-.14-.02-.09-.05-.18-.08-.27l-.02-.04L61.78.96c-.22-.58-.77-.96-1.39-.96H11.5c-.62,0-1.18.38-1.4.96L.1,26.74c-.03.08-.06.17-.07.25-.02.09-.03.19-.03.29v12.64c0,.58.33,1.08.81,1.32-.48.24-.81.74-.81,1.32v12.63c0,.58.33,1.08.81,1.32-.48.24-.81.74-.81,1.32v12.64c0,.82.67,1.5,1.5,1.5h68.89c.82,0,1.5-.68,1.5-1.5v-12.64c0-.58-.33-1.08-.81-1.32.48-.24.81-.74.81-1.32v-12.63c0-.58-.33-1.08-.81-1.32.48-.24.81-.74.81-1.32ZM12.52,3h46.84l8.84,22.79H3.69L12.52,3ZM3,28.77h65.89v26.31H3v-26.31ZM68.89,69.09H3v-11.01h65.89v11.01Z"/>
        <circle class="cls-2" cx="63.4" cy="63.59" r="2.88"/>
        <circle class="cls-2" cx="55.37" cy="63.59" r="2.88"/>
        <circle class="cls-2" cx="47.34" cy="63.59" r="2.88"/>
      </g>
      <g>
        <path d="M23.55,43.42v3.01h-1.76v-8.53h3.33c.64,0,1.2.12,1.69.35s.86.57,1.12,1,.39.92.39,1.47c0,.84-.29,1.5-.86,1.98s-1.36.72-2.38.72h-1.54ZM23.55,42h1.57c.46,0,.82-.11,1.06-.33s.37-.53.37-.94-.12-.76-.37-1.01-.59-.39-1.02-.4h-1.61v2.68Z"/>
        <path d="M36.23,43.58c-.07.92-.41,1.64-1.02,2.17s-1.42.79-2.42.79c-1.09,0-1.95-.37-2.58-1.1s-.94-1.75-.94-3.03v-.52c0-.82.14-1.54.43-2.17s.7-1.1,1.24-1.44,1.16-.5,1.87-.5c.98,0,1.78.26,2.38.79s.95,1.27,1.04,2.22h-1.76c-.04-.55-.2-.95-.46-1.2s-.67-.37-1.2-.37c-.59,0-1.02.21-1.32.63s-.44,1.07-.45,1.95v.64c0,.92.14,1.6.42,2.02s.72.64,1.32.64c.54,0,.95-.12,1.22-.37s.42-.63.46-1.15h1.76Z"/>
        <path d="M40.54,43.3h-1.4v3.12h-1.76v-8.53h3.17c1.01,0,1.79.22,2.33.67s.82,1.08.82,1.9c0,.58-.13,1.07-.38,1.46s-.63.7-1.15.93l1.85,3.49v.08h-1.89l-1.6-3.12ZM39.14,41.88h1.42c.44,0,.78-.11,1.03-.34s.36-.53.36-.93-.11-.72-.34-.95-.58-.35-1.05-.35h-1.41v2.56Z"/>
        <path d="M50.18,42.94h-3.38v3.49h-1.76v-8.53h5.55v1.42h-3.8v2.2h3.38v1.42Z"/>
      </g>
    </g>
  </g>
</svg>