<?xml version="1.0" encoding="UTF-8"?>
<svg id="Layer_2" xmlns="http://www.w3.org/2000/svg" viewBox="0 0 72 85.03">
  <defs>
    <style>
      .cls-1 {
        fill: #fff;
      }

      .cls-2 {
        fill: #5b6770;
      }
    </style>
  </defs>
  <g id="_Серый" data-name="Серый">
    <g id="VAS-RBT">
      <g>
        <rect class="cls-1" y="13.03" width="72" height="72" rx="7.09" ry="7.09"/>
        <path class="cls-2" d="M64.91,16.03c2.25,0,4.09,1.83,4.09,4.09v57.83c0,2.25-1.83,4.09-4.09,4.09H7.09c-2.25,0-4.09-1.83-4.09-4.09V20.12c0-2.25,1.83-4.09,4.09-4.09h57.83M64.91,13.03H7.09c-3.9,0-7.09,3.19-7.09,7.09v57.83c0,3.9,3.19,7.09,7.09,7.09h57.83c3.9,0,7.09-3.19,7.09-7.09V20.12c0-3.9-3.19-7.09-7.09-7.09h0Z"/>
      </g>
      <g>
        <path d="M28.81,5.41h-1.4v3.12h-1.76V0h3.17c1.01,0,1.79.22,2.33.67s.82,1.08.82,1.9c0,.58-.13,1.07-.38,1.46s-.63.7-1.15.93l1.85,3.49v.08h-1.89l-1.6-3.12ZM27.4,3.98h1.42c.44,0,.78-.11,1.03-.34s.36-.53.36-.93-.11-.72-.34-.95-.58-.35-1.05-.35h-1.41v2.56Z"/>
        <path d="M33.31,8.53V0h2.99c1.04,0,1.82.2,2.36.59s.8.98.8,1.74c0,.42-.11.79-.32,1.1s-.51.55-.9.7c.44.11.78.33,1.03.66s.38.74.38,1.22c0,.82-.26,1.44-.79,1.86s-1.27.64-2.24.64h-3.32ZM35.06,3.57h1.3c.89-.02,1.33-.37,1.33-1.06,0-.39-.11-.67-.34-.83s-.58-.25-1.06-.25h-1.23v2.15ZM35.06,4.82v2.3h1.51c.41,0,.74-.1.97-.3s.35-.47.35-.82c0-.78-.4-1.18-1.21-1.19h-1.61Z"/>
        <path d="M47.23,1.42h-2.61v7.11h-1.76V1.42h-2.58V0h6.95v1.42Z"/>
      </g>
      <g>
        <path class="cls-2" d="M35.37,58.63c-9.28,0-16.83-7.55-16.83-16.83s7.55-16.83,16.83-16.83,16.83,7.55,16.83,16.83-7.55,16.83-16.83,16.83ZM35.37,27.96c-7.63,0-13.83,6.21-13.83,13.83s6.21,13.83,13.83,13.83,13.83-6.21,13.83-13.83-6.21-13.83-13.83-13.83Z"/>
        <path class="cls-2" d="M28.33,73.1c-9.28,0-16.83-7.55-16.83-16.83s7.55-16.83,16.83-16.83,16.83,7.55,16.83,16.83-7.55,16.83-16.83,16.83ZM28.33,42.43c-7.63,0-13.83,6.21-13.83,13.83s6.21,13.83,13.83,13.83,13.83-6.21,13.83-13.83-6.21-13.83-13.83-13.83Z"/>
        <path class="cls-2" d="M43.67,73.1c-9.28,0-16.83-7.55-16.83-16.83s7.55-16.83,16.83-16.83,16.83,7.55,16.83,16.83-7.55,16.83-16.83,16.83ZM43.67,42.43c-7.63,0-13.83,6.21-13.83,13.83s6.21,13.83,13.83,13.83,13.83-6.21,13.83-13.83-6.21-13.83-13.83-13.83Z"/>
      </g>
    </g>
  </g>
</svg>